                                                USPA The Heavy Holiday Open December 1, 2018 Huntington Beach, CA

                                        Wt                                                             Total        Wilks    McC                             Total
              Name             State             Weight      Age      SQ Kg      BP Kg      DL Kg
                                       class                                                            Kg          Total    Total   SQ Lbs BP Lbs DL Lbs     Lbs
    Women Raw Powerlifting
    75kg Jr 16-17
1   Melina Linares              CA     75kg        70.5       17        130       67.5       155       352.5    348.975              286.6   148.8   341.7   777.1

    56kg Open
1   Edna Huesca                 CA     56kg        53.3       24        87.5       50        105       242.5    296.578              192.9   110.2   231.5   534.6

    67.5kg Open
1   Chilasa King                CA     67.5kg      65.1       29       142.5       75        160       377.5    395.582              314.2   165.3   352.7   832.2
2   Katharine Kirk              CA     67.5kg      66.4       25        100       52.5       135       287.5     296.93              220.5   115.7   297.6   633.8

    75kg Open
1   Beatriz Rueda               CA     75kg        70.7       26       117.5       55       157.5       330     326.073               259    121.3   347.2   727.5
2   Nancy Cuahutle              CA     75kg        74.6       24        105        45       132.5      282.5    269.449              231.5    99.2   292.1   622.8
3   Sarah Gonzalez              CA     75kg        73.1       32        110        55       107.5      272.5    263.317              242.5   121.3    237    600.8

    82.5kg Open
1   Nyssa Leon                  CA     82.5kg      82.1       29        140       57.5      187.5       385     347.386              308.6   126.8   413.4   848.8

    90kg Open
1   Darlene Dominguez           CA     90kg        87.3       25        110       57.5      137.5       305     267.028              242.5   126.8   303.1   672.4

    SHW Open
1   Tania Tafunai               CA     SHW        109.3       38       137.5      67.5      152.5      357.5    291.077              303.1   148.8   336.2   788.1
2   Rosie Marquez               CA     SHW        100.7       33       112.5      72.5      157.5      342.5    284.583               248    159.8   347.2   755.1
3   Valerie Leuta               CA     SHW         97.4       25        115        65       142.5      322.5    270.674              253.5   143.3   314.2    711
4   Crystal Bocardo-Palomino    CA     SHW        131.7       27        130        60       132.5      322.5    253.646              286.6   132.3   292.1    711

    Men Raw Powerlifting
    67.5kg Jr 20-23
1   Joel Valdez                 CA     67.5kg      66.7       21        165       117.5     242.5       525     408.713              363.8    259    534.6   1157.4
2   Kristof Amper               CA     67.5kg      66.4       23        155        95        215        465     363.305              341.7   209.4    474    1025.1

    75kg Jr 20-23
1   Albert Dang                 CA     75kg        74.6       22       167.5      117.5     182.5      467.5    334.356              369.3   259     402.3   1030.7
2   Kevin Yahuaca               CA     75kg        73.7       20        145       107.5     162.5       415     299.381              319.7   237     358.2    914.9

    82.5kg Jr 20-23
1   Wilberth Mayorga            CA     82.5kg      81.6       21        150        130       195        475         320.34           330.7   286.6   429.9   1047.2

    90kg Jr 20-23
1   Joseph Alves                CA     90kg        87.3       23       217.5       155       250       622.5    403.816              479.5   341.7   551.2   1372.4
2   Alex Gomez                  CA     90kg        82.8       21       167.5      102.5      215        485     324.223              369.3    226     474    1069.2
                                           USPA The Heavy Holiday Open December 1, 2018 Huntington Beach, CA

                                   Wt                                                             Total        Wilks    McC                             Total
               Name       State             Weight      Age      SQ Kg      BP Kg      DL Kg
                                  class                                                            Kg          Total    Total   SQ Lbs BP Lbs DL Lbs     Lbs

     100kg Jr 20-23
1    Richard Castro        CA     100kg       98.4       20        250        170       275        695     425.757              551.2   374.8   606.3   1532.2
2    Ricardo Navarro       CA     100kg       95.1       22        215        150      292.5      657.5    408.768               474    330.7   644.8   1449.5
3    Marco Olvera          CA     100kg       97.4       23       207.5       150      227.5       585     359.892              457.5   330.7   501.5   1289.7
4    Gabe Winawer          CA     100kg       98.5       23       187.5      117.5     227.5      532.5     326.05              413.4    259    501.5   1173.9
5    Kevin Tenas           CA     100kg       95.5       23       182.5       120       220       522.5    324.264              402.3   264.6    485    1151.9

     110kg Jr 20-23
1    Jacob Hernandez       CA     110kg      103.2       22        225       157.5     247.5       630     378.819               496    347.2   545.6   1388.9

     125kg Jr 20-23
1    Paul Barnum           CA     125kg      111.9       21       227.5       165       295       687.5    402.531              501.5   363.8   650.4   1515.7

     67.5kg Open
1    Joel Valdez           CA     67.5kg      66.7       21        165       117.5     242.5       525     408.713              363.8   259     534.6   1157.4

     75kg Open
 1   Dean Powell           CA     75kg        74.5       27       187.5       120      227.5       535     383.007              413.4   264.6   501.5   1179.5
DQ   Joseph Miller         CA     75kg        73.4       32         0        147.5      210         0         0                   0     325.2    463      0

     82.5kg Open
1    Roger Barajas         CA     82.5kg      79.6       25        225       142.5     232.5       600         410.94            496    314.2   512.6   1322.8
2    Aaron Dorazio         CA     82.5kg      77.5       24        150       102.5     202.5       455         317.09           330.7    226    446.4   1003.1

     90kg Open
1    Alejandro Victoria    CA     90kg        88.9       27        220       182.5     272.5       675      433.62               485    402.3   600.8   1488.1
2    Joseph Alves          CA     90kg        87.3       23       217.5       155       250       622.5    403.816              479.5   341.7   551.2   1372.4
3    Maurice Van Dinter    CA     90kg        84.8       23       182.5       130       260       572.5    377.392              402.3   286.6   573.2   1262.1
4    Mark Ozurovich        CA     90kg        88.2       37       182.5      137.5     227.5      547.5    353.192              402.3   303.1   501.5    1207
5    Edward McGovern       CA     90kg         87        32        175       137.5     217.5       530     344.447              385.8   303.1   479.5   1168.4

     100kg Open
1    Richard Castro        CA     100kg       98.4       20        250        170       275        695     425.757              551.2   374.8   606.3   1532.2
2    Ray Louis Martinez    CA     100kg       98.2       24       212.5       165       250       627.5     384.72              468.5   363.8   551.2   1383.4
3    Lars Little           CA     100kg       95.1       24        210        145      262.5      617.5      383.9               463    319.7   578.7   1361.3
4    Matthew Gonzalez      CA     100kg       98.5       31        205        125      242.5      572.5    350.542              451.9   275.6   534.6   1262.1
5    Antonio Squillante    CA     100kg       98.8       31        200        135       215        550      336.38              440.9   297.6    474    1212.5
6    Brent Sturgeon        CA     100kg       97.1       28       192.5       115      227.5       535     329.614              424.4   253.5   501.5   1179.5

     110kg Open
1    George Williams       CA     110kg      108.5       28        210        110       235        555     328.005               463    242.5   518.1   1223.6
                                                USPA The Heavy Holiday Open December 1, 2018 Huntington Beach, CA

                                        Wt                                                             Total        Wilks    McC                             Total
                Name           State             Weight      Age      SQ Kg      BP Kg      DL Kg
                                       class                                                            Kg          Total    Total   SQ Lbs BP Lbs DL Lbs     Lbs
     125kg Open
DQ   Larry "Wheels" Williams    CA     125kg      123.1       23       377.5      272.5        0         0            0              832.2   600.8    0        0

     140kg Open
1    Ray Luna                   CA     140kg      137.2       36       252.5      182.5     242.5      677.5    379.739              556.7   402.3   534.6   1493.6

     SHW Open
1    Arnold Gardetto            CA     SHW        142.9       39        260        195      277.5      732.5    408.076              573.2   429.9   611.8   1614.9
2    Andy Tafunai               CA     SHW        157.1       37        205        165       250        620     340.814              451.9   363.8   551.2   1366.9

     SHW Submaster
1    Arnold Gardetto            CA     SHW        142.9       39        260        195      277.5      732.5    408.076              573.2   429.9   611.8   1614.9

     Men Classic Raw Powerlifting
     60kg Open
1    Amador Rios                CA     60kg        58.6       27        145        95       212.5      452.5    394.444              319.7   209.4   468.5   997.6

     67.5kg Open
DQ   Christian Ibarra           CA     67.5kg      64.3       28        185         0        195         0            0              407.9    0      429.9     0

     100kg Open
1    Alfonso Avalos Jr.         CA     100kg       97.1       31       222.5      147.5      335        705     434.351              490.5   325.2   738.5   1554.2
2    Stephen Paranal            CA     100kg       90.7       34       227.5       165       235       627.5    399.027              501.5   363.8   518.1   1383.4

     90kg Master
1    Jacinto Pantaleon          CA     90kg        89.5       25        200        125      247.5      572.5    366.515 366.515      440.9   275.6   545.6   1262.1

     Men Raw Bench Only
     75kg Jr 20-23
1    Kevin Yahuaca              CA     75kg        73.7       20                  107.5                107.5        77.551                   237              237

     82.5kg Jr 20-23
1    Wilberth Mayorga           CA     82.5kg      81.6       21                   130                  130         87.672                   286.6           286.6

     90kg Jr 20-23
1    Joseph Alves               CA     90kg        87.3       23                   155                  155     100.549                      341.7           341.7

     90kg Open
1    Joseph Alves               CA     90kg        87.3       23                   155                  155     100.549                      341.7           341.7
                                                 USPA The Heavy Holiday Open December 1, 2018 Huntington Beach, CA

                                         Wt                                                             Total        Wilks   McC                             Total
              Name             State              Weight      Age      SQ Kg      BP Kg      DL Kg
                                        class                                                            Kg          Total   Total   SQ Lbs BP Lbs DL Lbs     Lbs
    Men Raw Deadlift Only
    75kg Jr 20-23
1   Kevin Yahuaca                CA      75kg       73.7       20                            162.5      162.5    117.228                             358.2   358.2

    82.5kg Jr 20-23
1   Wilberth Mayorga             CA     82.5kg      81.6       21                             195        195     131.508                             429.9   429.9

    90kg Jr 20-23
1   Joseph Alves                 CA      90kg       87.3       23                             250        250     162.175                             551.2   551.2

    90kg Open
1   Joseph Alves                 CA      90kg       87.3       23                             250        250     162.175                             551.2   551.2

    SHW Open
1   Arnold Gardetto              CA     SHW        142.9       39                            277.5      277.5    154.595                             611.8   611.8

    SHW Submaster
1   Arnold Gardetto              CA     SHW        142.9       39                            277.5      277.5    154.595                             611.8   611.8

    90kg Master 60-64
1   Javier Avila                 CA      90kg       89.2       61                             240        240     153.912 210.244                     529.1   529.1
                                                                                            4th: 250

    Men Raw Push-Pull
    90kg Open
1   Edward McGovern              CA      90kg        87        32                  137.5     217.5       355     230.715                     303.1   479.5   782.6

    110kg Master 50-54
1   Daniel Johnson               CA     110kg      103.6       54                   105      172.5      277.5    166.611     200.6           231.5   380.3   611.8


    Thank you to our referees:
    National: Roy Taylor, Chris Flores and Brandi Flores
    State: Amanda Malone, James Grinstead and Jessica Richer
