Event,Sex,Name,State,BodyweightKg,WeightClassKg,Division,Best3SquatKg,Best3BenchKg,Best3DeadliftKg,TotalKg,Equipment,Place
SBD,M,Warren Marusiak,BC,120.0,120,Open,220.0,205.0,260.0,685.0,Single-ply,1
SBD,M,Hardeep Singh Bopa Rai,BC,96.6,105,Open,190.0,120.0,225.0,535.0,Single-ply,1
SBD,F,Charmaine Lovell,BC,55.8,57,Masters 3,80.0,47.5,95.0,222.5,Single-ply,1
SBD,M,Hardip Randhawa,BC,93.0,93,Masters 2,200.0,120.0,205.0,525.0,Single-ply,1
SBD,F,Aimee Mergaert,BC,114.0,84+,Masters 1,200.0,120.0,157.5,477.5,Single-ply,1
SBD,M,Eric Lee,BC,87.3,93,Sub-Juniors,190.0,137.5,230.0,557.5,Raw,1
SBD,M,Mehar Bhogal,BC,74.6,83,Sub-Juniors,157.5,105.0,190.0,452.5,Raw,2
SBD,M,Grayson Arabia,BC,79.9,83,Sub-Juniors,205.0,122.5,217.5,545.0,Raw,1
SBD,M,Jaxson Vignal,BC,72.6,74,Sub-Juniors,125.0,82.5,155.0,362.5,Raw,1
SBD,F,Kassidy Webster,BC,51.4,52,Sub-Juniors,90.0,57.5,120.0,267.5,Raw,1
SBD,M,Damjan Bulatovic,BC,127.0,120+,Sub-Juniors,250.0,150.0,270.0,670.0,Raw,1
SBD,M,Yvan Richard,BC,91.4,93,Open,202.5,150.0,247.5,600.0,Raw,1
SBD,M,Tony Xu,BC,91.3,93,Open,210.0,140.0,237.5,587.5,Raw,2
SBD,M,Steve Ballard,BC,84.6,93,Open,175.0,97.5,197.5,470.0,Raw,8
SBD,M,Sam Glennie,BC,90.5,93,Open,160.0,115.0,220.0,495.0,Raw,7
SBD,M,Nathan Beveridge,BC,90.9,93,Open,195.0,142.5,240.0,577.5,Raw,4
SBD,M,Michael Danis,BC,88.2,93,Open,182.5,145.0,242.5,570.0,Raw,5
SBD,M,Marc Mazzocchi,BC,92.8,93,Open,205.0,135.0,245.0,585.0,Raw,3
SBD,M,Joseph Favia,BC,91.7,93,Open,175.0,122.5,230.0,527.5,Raw,6
SBD,F,Kaya McNeill-Payeur,BC,94.1,84+,Open,115.0,86.0,142.5,343.5,Raw,1
SBD,F,Kama Guezalova,BC,82.0,84,Open,92.5,52.5,100.0,245.0,Raw,2
SBD,F,Diana Webb,BC,77.3,84,Open,125.0,70.0,162.5,357.5,Raw,1
SBD,M,Vincent Siu,BC,81.6,83,Open,195.0,140.0,265.0,600.0,Raw,2
SBD,M,Matthew Taylor,BC,79.9,83,Open,185.0,107.5,190.0,482.5,Raw,8
SBD,M,Graham Aarsen,BC,80.3,83,Open,185.0,172.5,240.0,597.5,Raw,3
SBD,M,Fraser Campbell,BC,81.9,83,Open,182.5,105.0,227.5,515.0,Raw,6
SBD,M,Evan Johnston,BC,80.1,83,Open,210.0,147.5,220.0,577.5,Raw,5
SBD,M,Cody Weeks,BC,80.2,83,Open,212.5,142.5,230.0,585.0,Raw,4
SBD,M,Chad Nabe,BC,81.6,83,Open,165.0,112.5,210.0,487.5,Raw,7
SBD,M,Adam Ramzy,BC,82.8,83,Open,251.0,175.0,280.0,706.0,Raw,1
SBD,M,Tony Vuong,BC,69.1,74,Open,190.0,122.5,197.5,510.0,Raw,2
SBD,M,Sean Janzer,BC,73.7,74,Open,195.0,127.5,240.0,562.5,Raw,1
SBD,M,Jason Xie,BC,73.6,74,Open,160.0,105.0,165.0,430.0,Raw,4
SBD,M,Anthony Tsang,BC,72.9,74,Open,165.0,110.0,220.0,495.0,Raw,3
SBD,F,Casey Peters,BC,67.8,72,Open,85.0,57.5,135.0,277.5,Raw,3
SBD,F,Becky Lauridsen,BC,69.1,72,Open,117.5,67.5,173.0,358.0,Raw,1
SBD,F,Alexandria Schellenberg,BC,71.4,72,Open,112.5,55.0,135.0,302.5,Raw,2
SBD,M,Spencer Doucet,BC,65.3,66,Open,122.5,85.0,165.0,372.5,Raw,2
SBD,M,Julian Doan,BC,63.8,66,Open,155.0,115.0,185.0,455.0,Raw,1
SBD,F,Kala Sinclair,BC,61.0,63,Open,97.5,62.5,137.5,297.5,Raw,1
SBD,F,Amber Alderdice,BC,59.3,63,Open,77.5,42.5,97.5,217.5,Raw,2
SBD,M,Pete Williams,BC,59.0,59,Open,145.0,115.0,175.0,435.0,Raw,1
SBD,F,Hailee Frechette,BC,43.0,47,Open,67.5,37.5,80.0,185.0,Raw,1
SBD,M,Josh Simpson,BC,131.0,120+,Open,282.5,205.0,290.0,777.5,Raw,1
SBD,M,Tarnvir Gill,BC,114.0,120,Open,237.5,160.0,257.5,655.0,Raw,2
SBD,M,Sean Hayes,BC,119.0,120,Open,217.5,165.0,275.0,657.5,Raw,1
SBD,M,James Audas,BC,117.0,120,Open,225.0,150.0,250.0,625.0,Raw,3
SBD,M,Zack Currie,BC,102.0,105,Open,205.0,130.0,217.5,552.5,Raw,3
SBD,M,David Kang,BC,104.0,105,Open,232.5,127.5,232.5,592.5,Raw,2
SBD,M,Craig Bears,BC,105.0,105,Open,227.5,150.0,250.0,627.5,Raw,1
SBD,M,Tom Cragg,BC,64.9,66,Masters 4,70.0,50.0,125.0,245.0,Raw,1
SBD,M,Don Lovell,BC,67.7,74,Masters 3,118.0,65.0,180.5,363.5,Raw,1
SBD,M,Conroy Cullen,BC,91.6,93,Masters 2,100.0,120.0,140.0,360.0,Raw,1
SBD,F,Lori Millwater,BC,74.1,84,Masters 2,47.5,40.0,90.0,177.5,Raw,1
SBD,M,Rick Marshall,BC,78.3,83,Masters 2,195.0,137.5,205.0,537.5,Raw,1
SBD,M,Bob Hindley,BC,73.9,74,Masters 2,175.0,92.5,232.5,500.0,Raw,1
SBD,F,Debbie Noseworthy,BC,61.4,63,Masters 2,57.5,32.5,70.0,160.0,Raw,1
SBD,M,Davide Pacifici,BC,94.4,105,Masters 2,190.0,120.0,182.5,492.5,Raw,1
SBD,F,Bonney Rempel,BC,107.0,84+,Masters 1,140.0,95.0,142.5,377.5,Raw,1
SBD,F,Jennifer Brown,BC,67.8,72,Masters 1,97.5,50.0,130.0,277.5,Raw,1
SBD,F,Dianna McKee,BC,67.9,72,Masters 1,100.0,40.0,127.5,267.5,Raw,2
SBD,F,Candace Daku,BC,58.7,63,Masters 1,90.0,55.0,102.5,247.5,Raw,1
SBD,F,Wendy Yamazaki,BC,51.0,52,Masters 1,80.0,52.5,120.0,252.5,Raw,1
SBD,F,Tricia Dingwall,BC,44.3,47,Masters 1,52.5,30.0,57.5,140.0,Raw,1
SBD,M,Geordie Rose,BC,109.0,120,Masters 1,175.0,125.0,227.5,527.5,Raw,1
SBD,M,Shawn Thomas,BC,105.0,105,Masters 1,205.0,135.0,210.0,550.0,Raw,1
SBD,M,Michael Mighton,BC,89.2,93,Juniors,230.0,147.5,225.0,602.5,Raw,1
SBD,M,Karim Barsoum,BC,85.1,93,Juniors,170.0,105.0,192.5,467.5,Raw,3
SBD,M,Christopher Soo,BC,90.9,93,Juniors,185.0,122.5,242.5,550.0,Raw,2
SBD,M,Paul Schipizky,BC,79.7,83,Juniors,157.5,105.0,200.0,462.5,Raw,5
SBD,M,Matthew Liao,BC,82.7,83,Juniors,180.0,107.5,202.5,490.0,Raw,4
SBD,M,Kevin Chu,BC,80.8,83,Juniors,212.5,147.5,217.5,577.5,Raw,1
SBD,M,Justin Foidart,BC,82.6,83,Juniors,145.0,97.5,215.0,457.5,Raw,7
SBD,M,Jacky Szeto,BC,79.3,83,Juniors,165.0,100.0,192.5,457.5,Raw,6
SBD,M,Graham Campbell,BC,83.0,83,Juniors,175.0,105.0,230.0,510.0,Raw,2
SBD,M,Garret Rainer,BC,82.4,83,Juniors,150.0,130.0,215.0,495.0,Raw,3
SBD,M,Wesley Ha,BC,72.0,74,Juniors,177.5,117.5,212.5,507.5,Raw,2
SBD,M,Ryley Russell,BC,73.7,74,Juniors,215.0,125.0,235.0,575.0,Raw,1
SBD,F,Kiarra Watson,BC,66.2,72,Juniors,107.5,72.5,125.0,305.0,Raw,2
SBD,F,Hsuan Tang,BC,69.6,72,Juniors,105.0,55.0,137.5,297.5,Raw,3
SBD,F,Bianca Liberatore,BC,70.2,72,Juniors,120.0,72.5,137.5,330.0,Raw,1
SBD,M,Navin Abeysundara,BC,63.2,66,Juniors,165.0,102.5,192.5,460.0,Raw,1
SBD,M,Keith Ng,BC,65.8,66,Juniors,150.0,102.5,205.0,457.5,Raw,2
SBD,F,Meara Mulholland,BC,62.1,63,Juniors,108.5,80.5,135.0,324.0,Raw,1
SBD,F,Jessica Cheung,BC,62.4,63,Juniors,110.0,55.0,102.5,267.5,Raw,2
SBD,M,Geoffrey Chiu,BC,58.9,59,Juniors,150.0,80.0,175.0,405.0,Raw,1
SBD,F,Esperanza Gomez,BC,54.3,57,Juniors,85.0,45.0,100.0,230.0,Raw,1
SBD,M,Michael Pantile,BC,133.0,120+,Juniors,235.0,145.0,250.0,630.0,Raw,1
SBD,M,Timothy Garcia,BC,108.0,120,Juniors,215.0,155.0,255.0,625.0,Raw,1
SBD,M,Wiliam DeJong,BC,95.9,105,Juniors,182.5,132.5,285.0,600.0,Raw,2
SBD,M,Gabriel Gomez,BC,99.0,105,Juniors,230.0,160.0,257.5,647.5,Raw,1
B,M,Jeremy Cote,BC,87.1,93,Open,,137.5,,137.5,Single-ply,1
B,M,Gable Wang,BC,80.1,83,Masters 2,,120.0,,120.0,Single-ply,1
B,M,John-Wesley Cummings,BC,114.0,120,Juniors,,237.5,,237.5,Single-ply,1
B,M,Karam Shergill,BC,92.0,93,Sub-Juniors,,110.0,,110.0,Raw,3
B,M,Harjeet Mangat,BC,89.5,93,Sub-Juniors,,147.5,,147.5,Raw,1
B,M,Eric Lee,BC,86.0,93,Sub-Juniors,,140.0,,140.0,Raw,2
B,F,Elizabeth Anderson,BC,72.5,84,Open,,52.5,,52.5,Raw,1
B,M,Jagjit Singh,BC,77.8,83,Open,,130.0,,130.0,Raw,2
B,M,Doug Gould,BC,80.5,83,Open,,132.5,,132.5,Raw,1
B,M,Brad Liesch,BC,101.0,105,Open,,165.0,,165.0,Raw,1
B,M,Brian Rock,BC,104.0,105,Masters 2,,165.0,,165.0,Raw,1
B,F,Bonney Rempel,BC,106.0,84+,Masters 1,,97.5,,97.5,Raw,1
B,M,Bill You,BC,73.4,74,Masters 1,,125.0,,125.0,Raw,1
B,M,Jacky Shen,BC,81.4,83,Juniors,,110.0,,110.0,Raw,1
