Name,Sex,Age,Division,Equipment,BodyweightKg,WeightClassKg,Bench1Kg,Bench2Kg,Bench3Kg,Best3BenchKg,Deadlift1Kg,Deadlift2Kg,Deadlift3Kg,Best3DeadliftKg,TotalKg,Event,Place,Country
Linda Broom,F,,Masters 3,Multi-ply,69.8,75,82.5,85,90,90,,,,,90,B,1,
Linda Broom,F,,Masters 3,Multi-ply,69.8,75,,,,,145,155,-160,155,155,D,1,
Stephanie Taylor,F,,Open,Raw,54.2,56,42.5,45,-47.5,45,,,,,45,B,1,
Stephanie Taylor,F,,Open,Raw,54.2,56,,,,,105,112.5,-117.5,112.5,112.5,D,1,
Katie Austin,F,,Open,Raw,,56,,,,,,,,,,D,DQ,
Holly Ware,F,,Open,Raw,66.8,67.5,80,90,-100,90,,,,,90,B,1,
Wiebke Hinrichsen,F,,Open,Multi-ply,,67.5,110,-117.5,-117.5,110,,,,,110,B,1,Germany
Corinne Ingham,F,,Open,Raw,,67.5,,,,,,,,,,B,DQ,
Wiebke Hinrichsen,F,,Open,Multi-ply,,67.5,,,,,105,115,125,125,125,D,1,Germany
Holly Ware,F,,Open,Raw,66.8,67.5,,,,,160,175,185,185,185,D,1,
Corinne Ingham,F,,Open,Raw,,67.5,,,,,,,,,,D,DQ,
Beverley Stanforth,F,,Teen,Raw,75,75,-45,-45,45,45,,,,,45,B,1,
Beverley Stanforth,F,,Teen,Raw,75,75,,,,,125,-135,-135,125,125,D,1,
Baptiste Deodati,M,,Juniors,Raw,99.9,100,185,200,205,205,,,,,205,B,1,France
Marcus Heuer,M,,Juniors,Multi-ply,100,100,250,265,-272.5,265,,,,,265,B,1,Germany
Adam Riman,M,,Juniors,Raw,98.5,100,,,,,265,-287.5,-287.5,265,265,D,1,
Mitch Horrocks,M,,Juniors,Raw,71.7,75,,,,,260,-272.5,-272.5,260,260,D,1,
Budgie Mullan,M,,Masters,Raw,66.4,67.5,70,75.5,-77.5,75.5,,,,,75.5,B,1,
Budgie Mullan,M,,Masters,Raw,66.4,67.5,,,,,100,140,146,146,146,D,1,
Rich Fricker,M,,Masters,Single-ply,147.1,140+,,,,,220,250,270,270,270,D,1,
Adam Brown,M,,Masters 1,Multi-ply,88.7,90,142.5,152.5,157.5,157.5,,,,,157.5,B,1,
Adam Brown,M,,Masters 1,Multi-ply,88.7,90,,,,,190,202.5,207.5,207.5,207.5,D,1,
David Gibson,M,,Masters 1,Raw,91.9,100,140,145,-150,145,,,,,145,B,1,
Chris Apark,M,,Masters 2,Single-ply,103.8,110,125,-147.5,-147.5,125,,,,,125,B,1,
Michael Brown,M,,Masters 2,Raw,108.7,110,,,,,245,267.5,-272.5,267.5,267.5,D,2,
Mike Towers,M,,Masters 2,Raw,106.5,110,,,,,265,285,-300.5,285,285,D,1,
Didier Michelon,M,,Masters 2,Multi-ply,116.4,125,-360,-360,,,,,,,,B,DQ,France
Terry Smith,M,,Masters 3,Multi-ply,74.9,75,140,145,150,150,,,,,150,B,1,
Terry Smith,M,,Masters 3,Multi-ply,74.9,75,,,,,180,190,200,200,200,D,1,
Per Holm,M,,Masters 3,Raw,135.9,140,145,152.5,157.5,157.5,,,,,157.5,B,1,Sweden
Lhour Jean Jaque,M,,Masters 4,Raw,95.9,100,122.5,-125,-125,122.5,,,,,122.5,B,1,France
Michael King,M,,Masters 5,Raw,125.5,140,180,200,-210,200,,,,,200,B,1,
Ted Cooper,M,,Masters 8,Single-ply,85.6,90,80,-90,-90,80,,,,,80,B,1,
Ted Cooper,M,,Masters 8,Single-ply,85.6,90,,,,,145,160,-170,160,160,D,1,
Leslie Watson,M,,Open,Raw,45.5,48,57.5,60,62.5,62.5,,,,,62.5,B,1,
Yann Leverrier,M,,Open,Raw,82.4,82.5,135,142.5,-145,142.5,,,,,142.5,B,1,France
Yann Leverrier,M,,Open,Raw,82.4,82.5,,,,,180,190,202.5,202.5,202.5,D,2,France
Douglas Lisle,M,,Open,Raw,79.5,82.5,,,,,210,227.5,-235,227.5,227.5,D,1,
Rory Harris-Williams,M,,Open,Single-ply,90,90,,,,,245,255,270,270,270,D,1,
Aaron Fillery,M,,Open,Raw,,100,140,150,-160,150,,,,,150,B,2,
Kristfer Hedges,M,,Open,Raw,96,100,150,170,-175,170,,,,,170,B,1,
Aaron Fillery,M,,Open,Raw,,100,,,,,240,250,260,260,260,D,1,
Steve Macneil,M,,Open,Multi-ply,122.8,125,-280,-290,300,300,,,,,300,B,1,
Steve Macneil,M,,Open,Multi-ply,122.8,125,,,,,220,250,-260,250,250,D,1,
Josh Cannon #1,M,,Open,Raw,108,110,220,232.5,237.5,237.5,,,,,237.5,B,1,
Kalle Ylitalo-James,M,,Open,Multi-ply,109.4,110,275,-300,-300,275,,,,,275,B,1,Finland
Ryan Hough,M,,Open,Raw,137.4,140,160,175,180,180,,,,,180,B,1,
Ryan Hough,M,,Open,Raw,137.4,140,,,,,280,-300,300,300,300,D,1,
Stuart Jamieson,M,,Open,Raw,59.8,60,,,,,265,285,,285,285,D,1,
Valentin Cacici,M,,Open,Multi-ply,81.9,82.5,-230,230,-240,230,,,,,230,B,2,France
Sebatian Lefaux,M,,Open,Multi-ply,81.8,82.5,240,-250,255,255,,,,,255,B,1,France
Shane Tobin,M,,Open,Raw,80.7,82.5,-115,,,,,,,,,B,DQ,
Shane Tobin,M,,Open,Raw,80.7,82.5,,,,,,,,,,D,DQ,
Kalle Räsänen,M,,Open,Multi-ply,90,90,310,-322.5,322.5,322.5,,,,,322.5,B,1,Finland
Kalle Räsänen,M,,Open,Multi-ply,90,90,,,,,330,-350,,330,330,D,1,Finland
