Place,Name,Sex,Event,Division,WeightClassKg,Equipment,BirthYear,State,BodyweightKg,Squat1Kg,Squat2Kg,Squat3Kg,Best3SquatKg,Bench1Kg,Bench2Kg,Bench3Kg,Best3BenchKg,Deadlift1Kg,Deadlift2Kg,Deadlift3Kg,Best3DeadliftKg,TotalKg
1,Danielle Perrotto,F,B,R-M1,57,Raw,1977,NY,53.3,,,,,57.5,60,-65,60,,,,,60
1,Danielle Perrotto,F,B,R-O,57,Raw,1977,NY,53.3,,,,,57.5,60,-65,60,,,,,60
1,Emily Costello,F,SBD,O,63,Single-ply,1995,NY,62.9,70,80,85,85,45,-50,50,50,115,125,137.5,137.5,272.5
1,Demetria Thaten,F,SBD,R-JR,47,Raw,1997,NY,44.8,80,87.5,92.5,92.5,45,50,52.5,52.5,95,-107.5,-112.5,95,240
1,Besarta Lekperaj,F,SBD,R-JR,63,Raw,1997,NY,61.2,80,-85,92.5,92.5,50,52.5,55,55,105,115,125,125,272.5
1,Amanda Grossman,F,SBD,R-JR,84+,Raw,1995,NY,90.2,95,105,115,115,60,67.5,72.5,72.5,142.5,155,167.5,167.5,355
1,Patty Tabacchi,F,SBD,R-M1,63,Raw,1974,NY,59.1,112.5,120,125,125,55,57.5,60,60,132.5,142.5,147.5,147.5,332.5
DQ,Sonja Herbert,F,SBD,R-M1,72,Raw,1968,NY,63.6,52.5,-57.5,57.5,57.5,-30,-35,-40,,80,82.5,87.5,87.5,
1,Cynthia Hall,F,SBD,R-M1,84,Raw,1978,NY,77.4,105,115,122.5,122.5,57.5,62.5,-67.5,62.5,127.5,137.5,145,145,330
1,Kerry Rudolph,F,SBD,R-M1,84+,Raw,1977,NY,98.1,85,102.5,110,110,55,60,65,65,117.5,145,-160,145,320
1,Robin Figelman,F,SBD,R-M2,63,Raw,1967,NY,59.7,85,90,92.5,92.5,65,70,72.5,72.5,92.5,100,-107.5,100,265
2,Deborah Ciccone,F,SBD,R-M2,63,Raw,1964,NY,61.1,52.5,-70,-70,52.5,35,37.5,40,40,95,102.5,110,110,202.5
1,Joanne Parrella,F,SBD,R-M3,72,Raw,1955,NY,64.9,62.5,-70,-77.5,62.5,30,35,37.5,37.5,90,102.5,-115,102.5,202.5
1,Demetria Thaten,F,SBD,R-O,47,Raw,1997,NY,44.8,80,87.5,92.5,92.5,45,50,52.5,52.5,95,-107.5,-112.5,95,240
1,Susan Kang,F,SBD,R-O,52,Raw,1992,NY,49.8,107.5,112.5,117.5,117.5,55,57.5,60,60,105,115,-120,115,292.5
1,Besarta Lekperaj,F,SBD,R-O,63,Raw,1997,NY,61.2,80,-85,92.5,92.5,50,52.5,55,55,105,115,125,125,272.5
2,Courtney Miller,F,SBD,R-O,63,Raw,1994,NY,61.8,95,97.5,102.5,102.5,47.5,50,52.5,52.5,100,107.5,115,115,270
3,Deborah Ciccone,F,SBD,R-O,63,Raw,1964,NY,61.1,52.5,-70,-70,52.5,35,37.5,40,40,95,102.5,110,110,202.5
1,Kate Flynn,F,SBD,R-O,72,Raw,1990,NY,71.3,132.5,137.5,142.5,142.5,70,-75,75,75,125,132.5,145,145,362.5
2,Rosemery Cardenas,F,SBD,R-O,72,Raw,1990,NY,64.1,102.5,115,-135,115,62.5,70,-77.5,70,142.5,155,170,170,355
3,Vanessa Hecker,F,SBD,R-O,72,Raw,1992,NY,70.9,117.5,127.5,130,130,57.5,62.5,-65,62.5,142.5,152.5,-160,152.5,345
4,Kathryn McCloskey,F,SBD,R-O,72,Raw,1979,NY,70.4,95,100,102.5,102.5,57.5,62.5,-65,62.5,145,150,157.5,157.5,322.5
5,Shannon Ramiza,F,SBD,R-O,72,Raw,1989,NY,69.3,107.5,110,115,115,50,55,60,60,127.5,135,140,140,315
1,Angeli Mapili,F,SBD,R-O,84,Raw,1992,NY,76.1,92.5,100,105,105,40,45,47.5,47.5,97.5,102.5,107.5,107.5,260
1,Amanda Grossman,F,SBD,R-O,84+,Raw,1995,NY,90.2,95,105,115,115,60,67.5,72.5,72.5,142.5,155,167.5,167.5,355
2,Kerry Rudolph,F,SBD,R-O,84+,Raw,1977,NY,98.1,85,102.5,110,110,55,60,65,65,117.5,145,-160,145,320
1,Sam Meyer,M,SBD,R-JR,59,Raw,1998,NY,58.2,-60,60,65,65,37.5,-42.5,42.5,42.5,112.5,120,122.5,122.5,230
DQ,Danyal Zaidi,M,SBD,R-JR,66,Raw,1995,NY,62.6,142.5,-150,-150,142.5,-82.5,-82.5,-82.5,,232.5,-242.5,-242.5,232.5,
1,Jeffrey Wong,M,SBD,R-JR,74,Raw,1998,NY,67.5,165,177.5,-185,177.5,117.5,-125,-125,117.5,200,210,225,225,520
2,Jian Cai Wu,M,SBD,R-JR,74,Raw,1995,NY,73.3,157.5,167.5,175,175,-117.5,120,-125,120,197.5,212.5,-227.5,212.5,507.5
1,Gerardo Martinez,M,SBD,R-JR,83,Raw,1999,NY,77,-125,130,137.5,137.5,70,75,80,80,130,145,157.5,157.5,375
1,Skylar Antizzo,M,SBD,R-JR,93,Raw,1998,NY,90.3,150,167.5,-170,167.5,100,110,117.5,117.5,192.5,207.5,217.5,217.5,502.5
1,Kyle Brennan,M,SBD,R-JR,105,Raw,1994,NY,102.5,160,175,182.5,182.5,100,107.5,115,115,212.5,227.5,240,240,537.5
2,Sean McIntosh,M,SBD,R-JR,105,Raw,1997,PA,103.2,162.5,172.5,182.5,182.5,110,-115,-115,110,195,-210,-225,195,487.5
1,Enrico Chacon,M,SBD,R-M1,74,Raw,1978,NY,72.5,180,-185,-185,180,112.5,122.5,-127.5,122.5,65,180,205,205,507.5
1,Daniel Pasternak,M,SBD,R-M3,74,Raw,1957,NY,73.7,92.5,102.5,112.5,112.5,107.5,-112.5,117.5,117.5,175,185,190,190,420
1,Michael Parrella,M,SBD,R-M3,83,Raw,1953,NY,79.7,110,122.5,137.5,137.5,57.5,67.5,-72.5,67.5,145,150,-157.5,150,355
1,Richard Landry,M,SBD,R-M4,105,Raw,1947,NY,93.8,130,137.5,-140,137.5,85,90,-95,90,155,167.5,,167.5,395
1,Lawrence Pitts,M,SBD,R-O,66,Raw,1992,NY,62.7,112.5,127.5,140,140,75,87.5,-100,87.5,122.5,127.5,-137.5,127.5,355
DQ,Danyal Zaidi,M,SBD,R-O,66,Raw,1995,NY,62.6,142.5,-150,-150,142.5,-82.5,-82.5,-82.5,,232.5,-242.5,-242.5,232.5,
1,Thomas Elgort,M,SBD,R-O,74,Raw,1992,NY,73.6,200,215,230,230,140,145,147.5,147.5,285,300,-317.5,300,677.5
2,Nicholas Russo,M,SBD,R-O,74,Raw,1992,NY,73.4,210,220,227.5,227.5,115,122.5,127.5,127.5,225,235,247.5,247.5,602.5
3,Kevin Hasa,M,SBD,R-O,74,Raw,1999,NY,74,185,-192.5,-192.5,185,-115,117.5,120,120,-215,217.5,-225,217.5,522.5
4,Jeffrey Wong,M,SBD,R-O,74,Raw,1998,NY,67.5,165,177.5,-185,177.5,117.5,-125,-125,117.5,200,210,225,225,520
5,Enrico Chacon,M,SBD,R-O,74,Raw,1978,NY,72.5,180,-185,-185,180,112.5,122.5,-127.5,122.5,65,180,205,205,507.5
6,Jian Cai Wu,M,SBD,R-O,74,Raw,1995,NY,73.3,157.5,167.5,175,175,-117.5,120,-125,120,197.5,212.5,-227.5,212.5,507.5
7,Dave Davis,M,SBD,R-O,74,Raw,1990,NY,72.8,147.5,157.5,160,160,115,120,-122.5,120,182.5,190,195,195,475
8,Michael Matarlo,M,SBD,R-O,74,Raw,1994,NY,66.8,147.5,155,160,160,-105,107.5,115,115,165,175,182.5,182.5,457.5
9,Daniel Pasternak,M,SBD,R-O,74,Raw,1957,NY,73.7,92.5,102.5,112.5,112.5,107.5,-112.5,117.5,117.5,175,185,190,190,420
10,Daniel Feldman,M,SBD,R-O,74,Raw,1994,NY,68.8,122.5,135,140,140,102.5,-112.5,-112.5,102.5,147.5,160,175,175,417.5
1,Frank Donlon,M,SBD,R-O,83,Raw,1989,NY,81.6,202.5,210,217.5,217.5,135,142.5,-145,142.5,227.5,237.5,-250,237.5,597.5
2,Brian Yan,M,SBD,R-O,83,Raw,1993,NY,80.6,192.5,202.5,207.5,207.5,100,107.5,112.5,112.5,195,207.5,-215,207.5,527.5
3,Eduard Chernomaz,M,SBD,R-O,83,Raw,1983,NY,80.3,-172.5,172.5,182.5,182.5,107.5,115,120,120,182.5,202.5,210,210,512.5
1,Anthony Parrella,M,SBD,R-O,93,Raw,1983,NY,92.3,242.5,255,267.5,267.5,157.5,167.5,-170,167.5,280,300,-312.5,300,735
2,Joseph Hove,M,SBD,R-O,93,Raw,1992,NY,90.2,200,212.5,215,215,140,147.5,-150,147.5,240,255,262.5,262.5,625
3,Stanislav Ostrovskii,M,SBD,R-O,93,Raw,1992,NY,92.3,192.5,205,210,210,142.5,-150,-150,142.5,205,217.5,227.5,227.5,580
4,Anthony Loria,M,SBD,R-O,93,Raw,1987,NY,93,170,187.5,192.5,192.5,125,142.5,-147.5,142.5,227.5,232.5,237.5,237.5,572.5
5,Daniel Rohr,M,SBD,R-O,93,Raw,1992,NY,89.6,175,-192.5,202.5,202.5,130,-142.5,-142.5,130,192.5,212.5,227.5,227.5,560
6,Christopher Palladino,M,SBD,R-O,93,Raw,1987,NY,90.2,142.5,165,175,175,105,112.5,-120,112.5,152.5,170,187.5,187.5,475
7,Seamus Peterson,M,SBD,R-O,93,Raw,1992,NY,85.7,130,137.5,145,145,-77.5,80,85,85,155,167.5,182.5,182.5,412.5
DQ,Devon Khan,M,SBD,R-O,93,Raw,1993,NY,88.6,-217.5,-237.5,-237.5,,-135,135,-155,135,-250,250,272.5,272.5,
1,Maxavier Jean-Philippe,M,SBD,R-O,105,Raw,1993,NY,103,-275,-275,275,275,192.5,-200,200,200,307.5,-325,-325,307.5,782.5
2,Sean McIntosh,M,SBD,R-O,105,Raw,1997,PA,103.2,162.5,172.5,182.5,182.5,110,-115,-115,110,195,-210,-225,195,487.5
DQ,Michael Lickwar,M,SBD,R-O,105,Raw,1983,NY,96.7,207.5,220,227.5,227.5,147.5,157.5,-167.5,157.5,-235,-235,-245,,
1,Noah Jackson,M,SBD,R-O,120,Raw,1988,NY,119.7,180,-192.5,195,195,130,137.5,-145,137.5,220,250,-280,250,582.5
2,Andrew Raad,M,SBD,R-O,120,Raw,1985,NY,117.9,185,192.5,200,200,142.5,150,155,155,190,210,-220,210,565
3,Matthew Coates,M,SBD,R-O,120,Raw,1986,NY,115,187.5,-220,,187.5,127.5,132.5,140,140,197.5,205,210,210,537.5
4,Andrew Rossin,M,SBD,R-O,120,Raw,1994,NY,107.1,130,140,-150,140,100,105,107.5,107.5,152.5,162.5,170,170,417.5
1,Kevin Hasa,M,SBD,R-T3,74,Raw,1999,NY,74,185,-192.5,-192.5,185,-115,117.5,120,120,-215,217.5,-225,217.5,522.5
1,Michael O'Connor,M,SBD,R-T3,93,Raw,2000,NY,84.5,150,160,165,165,107.5,117.5,120,120,200,215,227.5,227.5,512.5
1,Daniel Grogul,M,BD,R-M2,105,Raw,1960,NY,102.8,,,,,122.5,130,137.5,137.5,177.5,,,177.5,315
