Name,Age,BodyweightKg,WeightClassKg,Sex,Squat1Kg,Squat2Kg,Squat3Kg,Best3SquatKg,Bench1Kg,Bench2Kg,Bench3Kg,Bench4Kg,Best3BenchKg,Deadlift1Kg,Deadlift2Kg,Deadlift3Kg,Deadlift4Kg,Best3DeadliftKg,TotalKg,Event,Equipment,Division,Place
Ann Lacomb,31,,44,F,100,-112.5,-112.5,100,52.5,-55,-55,,52.5,112.5,117.5,-120,,117.5,270,SBD,Multi-ply,Open,1
Doris Simmons,,,48,F,137.5,-150,-150,137.5,62.5,67.5,70,,70,137.5,150,-160,-160,150,357.5,SBD,Multi-ply,Open,1
Elaine Kunkel,,,48,F,85,95,102.5,102.5,42.5,-45,45,,45,90,97.5,-105,,97.5,245,SBD,Multi-ply,Open,2
Anna Blakely,,54.43,56,F,142.5,162.5,175,175,107.5,117.5,-127.5,,117.5,137.5,155,-205,,155,447.5,SBD,Multi-ply,Open,1
Tonya Myers,24,,60,F,165,177.5,182.5,182.5,80,90,95,,95,165,177.5,185,,185,462.5,SBD,Multi-ply,Open,1
Ashley Boyce,,,60,F,162.5,-175,175,175,95,102.5,107.5,,107.5,162.5,172.5,-180,,172.5,455,SBD,Multi-ply,Open,2
Gail Kidder,,,60,F,142.5,155,-165,155,92.5,-100,-100,,92.5,-145,145,,,145,392.5,SBD,Multi-ply,Open,3
Mariah Liggett,,,67.5,F,205,-220,-220,205,120,-127.5,127.5,,127.5,190,207.5,-210,,207.5,540,SBD,Multi-ply,Open,1
Nancy Dangerfield,,,67.5,F,185,195,202.5,202.5,90,97.5,-100,,97.5,205,217.5,-227.5,,217.5,517.5,SBD,Multi-ply,Open,2
Vicki Lester,,,67.5,F,140,155,160,160,87.5,97.5,-102.5,,97.5,155,170,-182.5,,170,427.5,SBD,Multi-ply,Open,3
Stephanie van de Weghe,,73.03,75,F,195,207.5,215,215,-110,112.5,117.5,,117.5,145,180,200,,200,532.5,SBD,Multi-ply,Open,1
Krista Ford,,,75,F,155,172.5,190,190,102.5,115,122.5,,122.5,172.5,182.5,205,,205,517.5,SBD,Multi-ply,Open,2
Tamara Rainwater-Grimwood,,,82.5,F,-227.5,245,-257.5,245,175,-182.5,-182.5,,175,215,227.5,-252.5,,227.5,647.5,SBD,Multi-ply,Open,1
Maris Sternberg,,,90,F,-112.5,112.5,-125,112.5,62.5,-75,,,62.5,112.5,,,,112.5,287.5,SBD,Multi-ply,Open,1
Dave Buterbaugh,,,56,M,197.5,227.5,-245,227.5,-147.5,147.5,155,-165,155,125,137.5,147.5,,147.5,530,SBD,Multi-ply,Open,1
Doug Heath,,,60,M,197.5,-220,-240,197.5,152.5,162.5,172.5,-182.5,172.5,192.5,-227.5,-227.5,,192.5,562.5,SBD,Multi-ply,Open,1
Steve Beninato,,,60,M,142.5,165,177.5,177.5,92.5,102.5,107.5,,107.5,157.5,172.5,-177.5,,172.5,457.5,SBD,Multi-ply,Open,2
Nick Paczkowski,,,67.5,M,197.5,215,227.5,227.5,107.5,117.5,122.5,,122.5,197.5,220,-230,,220,570,SBD,Multi-ply,Open,1
Rickey Dale Crain,41,,75,M,-325,325,-347.5,325,175,185,-187.5,,185,287.5,-307.5,-307.5,,287.5,797.5,SBD,Multi-ply,Open,1
Angelo Berardinelli,,,75,M,277.5,-292.5,292.5,292.5,167.5,182.5,187.5,,187.5,250,272.5,-277.5,,272.5,752.5,SBD,Multi-ply,Open,2
John Wood,,,75,M,267.5,-280,-280,267.5,182.5,190,-195,,190,265,280,-297.5,,280,737.5,SBD,Multi-ply,Open,3
Ryan Celli,20,,75,M,235,255,272.5,272.5,175,185,-192.5,,185,235,250,-270,,250,707.5,SBD,Multi-ply,Open,4
Thomas Denton,,,75,M,255,-275,-275,255,132.5,137.5,-142.5,,137.5,242.5,260,-272.5,,260,652.5,SBD,Multi-ply,Open,5
Joe McCoy,21,,82.5,M,287.5,310,322.5,322.5,200,217.5,-227.5,,217.5,250,267.5,-282.5,,267.5,807.5,SBD,Multi-ply,Open,1
Arnold Coleman,,,82.5,M,287.5,-300,300,300,197.5,207.5,-217.5,,207.5,250,272.5,287.5,,287.5,795,SBD,Multi-ply,Open,2
Rudy Rosales,,,82.5,M,-272.5,292.5,-300,292.5,160,170,180,,180,237.5,262.5,272.5,,272.5,745,SBD,Multi-ply,Open,3
Anthony Succarotte,,,82.5,M,265,-272.5,277.5,277.5,205,-210,-210,,205,250,260,-272.5,,260,742.5,SBD,Multi-ply,Open,4
Pat Harvey,,,82.5,M,307.5,-310,310,310,175,-187.5,-187.5,,175,245,-260,-260,,245,730,SBD,Multi-ply,Open,5
H. Perone,,,82.5,M,25,,,25,182.5,-192.5,-192.5,,182.5,182.5,207.5,-227.5,,207.5,415,SBD,Multi-ply,Open,6
S. Blotson,,,82.5,M,-267.5,-267.5,-267.5,,,,,,,,,,,,,SBD,Multi-ply,Open,DQ
Hugh Dunagan,,,90,M,310,-322.5,322.5,322.5,190,200,-205,,200,317.5,325,327.5,,327.5,850,SBD,Multi-ply,Open,1
Dave Bornstein,,,90,M,307.5,330,340,340,-185,185,-197.5,,185,292.5,305,317.5,,317.5,842.5,SBD,Multi-ply,Open,2
Tony Kamand,,,90,M,332.5,-362.5,-362.5,332.5,157.5,172.5,177.5,,177.5,295,317.5,-330,,317.5,827.5,SBD,Multi-ply,Open,3
Michael DelSignore,,,90,M,312.5,327.5,-340,327.5,-190,190,197.5,,197.5,280,287.5,-292.5,,287.5,812.5,SBD,Multi-ply,Open,4
Russ Dell,,,90,M,285,300,310,310,187.5,195,202.5,,202.5,277.5,295,-300,,295,807.5,SBD,Multi-ply,Open,5
Charles Maxwell,40,,90,M,-292.5,292.5,-307.5,292.5,157.5,-165,-165,,157.5,292.5,305,-312.5,,305,755,SBD,Multi-ply,Open,6
Barry Merriman,,,90,M,-272.5,-272.5,272.5,272.5,165,172.5,-180,,172.5,-262.5,-262.5,-262.5,,,,SBD,Multi-ply,Open,DQ
Ron Fedkiw,,,90,M,-332.5,-332.5,-332.5,,,,,,,,,,,,,SBD,Multi-ply,Open,DQ
William Wessels,,,100,M,330,365,-382.5,365,237.5,-252.5,252.5,,252.5,307.5,325,-337.5,,325,942.5,SBD,Multi-ply,Open,1
Paul Urchick,,,100,M,332.5,350,360,360,212.5,227.5,235,,235,315,-325,-325,,315,910,SBD,Multi-ply,Open,2
Lee Nauman,,,100,M,307.5,-322.5,327.5,327.5,205,215,222.5,,222.5,325,-335,335,,335,885,SBD,Multi-ply,Open,3
Robert Rigert,,,100,M,320,-335,340,340,190,-202.5,-205,,190,252.5,275,-282.5,,275,805,SBD,Multi-ply,Open,4
Mike Hales,,,100,M,-365,-365,-365,,,,,,,,,,,,,SBD,Multi-ply,Open,DQ
Bill Busby,,,100,M,-327.5,,,,,,,,,,,,,,,SBD,Multi-ply,Open,DQ
Curtis Leslie,,,110,M,382.5,400,-410,400,260,267.5,-272.5,,267.5,317.5,335,340,,340,1007.5,SBD,Multi-ply,Open,1
Chuck Vogelpohl,,,110,M,352.5,377.5,382.5,382.5,227.5,245,-250,,245,327.5,360,-380,,360,987.5,SBD,Multi-ply,Open,2
Nick Lavitola,,,110,M,340,-362.5,-362.5,340,227.5,240,245,,245,340,357.5,365,,365,950,SBD,Multi-ply,Open,3
John Bott,,,110,M,317.5,332.5,342.5,342.5,187.5,197.5,207.5,,207.5,272.5,-282.5,-282.5,,272.5,822.5,SBD,Multi-ply,Open,4
Scott Warman,,,125,M,405,427.5,-442.5,427.5,217.5,227.5,232.5,,232.5,355,-377.5,-377.5,,355,1015,SBD,Multi-ply,Open,1
Brad Stevenson,,110.27,125,M,337.5,372.5,377.5,377.5,205,227.5,-235,,227.5,305,332.5,-340,,332.5,937.5,SBD,Multi-ply,Open,2
Doug Borden,,,125,M,370,-392.5,-392.5,370,205,212.5,220,,220,320,337.5,-347.5,,337.5,927.5,SBD,Multi-ply,Open,3
Paul Hatfield,,,125,M,-342.5,-342.5,342.5,342.5,215,227.5,-235,,227.5,295,-310,-310,,295,865,SBD,Multi-ply,Open,4
Dave Tate,,,125,M,317.5,337.5,-347.5,337.5,-227.5,227.5,-245,,227.5,,,,,,,SBD,Multi-ply,Open,DQ
Tom Waddle,,,140,M,367.5,382.5,-400,382.5,217.5,-230,230,,230,320,350,-365,,350,962.5,SBD,Multi-ply,Open,1
Kenny Malchow,,,140,M,350,375,-395,375,232.5,240,257.5,,257.5,305,327.5,-347.5,,327.5,960,SBD,Multi-ply,Open,2
Mark Govoni,,126.28,140,M,350,365,372.5,372.5,-210,222.5,237.5,,237.5,300,322.5,-335,,322.5,932.5,SBD,Multi-ply,Open,3
Jerry Obradovic,20,,140,M,-332.5,332.5,-365,332.5,242.5,260,-272.5,,260,305,320,-332.5,,320,912.5,SBD,Multi-ply,Open,4
Matt Israelson,,,140,M,305,335,-355,335,192.5,205,-210,,205,67.5,,,,67.5,607.5,SBD,Multi-ply,Open,5
Jim Voronin,,158.3,140+,M,-372.5,372.5,392.5,392.5,255,270,277.5,,277.5,292.5,312.5,-320,,312.5,982.5,SBD,Multi-ply,Open,1
Steve Brodsky,,161.93,140+,M,340,365,-380,365,215,227.5,-232.5,,227.5,320,340,-365,,340,932.5,SBD,Multi-ply,Open,2
Willie Lewis,,143.34,140+,M,332.5,382.5,-400,382.5,252.5,-260,-262.5,,252.5,295,-327.5,-327.5,,295,930,SBD,Multi-ply,Open,3
Mike Gollegon,,169.19,140+,M,-305,320,-332.5,320,175,185,-195,,185,235,255,,,255,760,SBD,Multi-ply,Open,4
John Ketchum,,173.73,140+,M,-417.5,-417.5,,,,,,,,,,,,,,SBD,Multi-ply,Open,DQ
Sidney Thomas,,,90+,F,,,,,85,90,-92.5,,90,,,,,,90,B,Raw,Open,1
Len Rettinger,,,82.5,M,,,,,105,-112.5,-112.5,,105,,,,,,105,B,Raw,Open,1
JM Blakely,,,100,M,,,,,180,192.5,200,,200,,,,,,200,B,Raw,Open,1
Joe Orzula,,,100,M,,,,,162.5,175,182.5,,182.5,,,,,,182.5,B,Raw,Open,2
Neil Morris,,,110,M,,,,,147.5,182.5,192.5,,192.5,,,,,,192.5,B,Raw,Open,1
Steve Hutkowski,,,110,M,,,,,182.5,-195,-195,,182.5,,,,,,182.5,B,Raw,Open,2
Ernie Anderson,,,110,M,,,,,150,-160,-160,,150,,,,,,150,B,Raw,Open,3
Cory Mitchell,,,140,M,,,,,200,-215,215,,215,,,,,,215,B,Raw,Open,1
Chuck Giannini,,,140+,M,,,,,185,-197.5,197.5,,197.5,,,,,,197.5,B,Raw,Open,1
Brent Uhlig,,,140+,M,,,,,185,192.5,-195,,192.5,,,,,,192.5,B,Raw,Open,2
Gary Baum,,,140+,M,,,,,135,145,-152.5,,145,,,,,,145,B,Raw,Open,3
