Name,Sex,BodyweightKg,WeightClassKg,BirthDate,Squat1Kg,Squat2Kg,Squat3Kg,Best3SquatKg,Bench1Kg,Bench2Kg,Bench3Kg,Best3BenchKg,Deadlift1Kg,Deadlift2Kg,Deadlift3Kg,Best3DeadliftKg,TotalKg,Place,Division,Event,Equipment
Sven Neuendorf,M,124,120+,1990-06-07,-270,-270,-270,,-205,205,-212.5,205,,,,,,DQ,Open,SBD,Single-ply
Anja Schreiner,F,46.45,47,1993-07-30,137.5,-142.5,-142.5,137.5,87.5,92.5,98,98,110,122.5,-130,122.5,358,3,Open,SBD,Single-ply
Rosina Polster,F,62.55,63,1984-11-17,-167.5,167.5,-172.5,167.5,100,105,-107.5,105,155,162.5,-170,162.5,435,3,Open,SBD,Single-ply
Elke Erbs,F,66.3,72,1984-08-15,190,-200,-200,190,92.5,-97.5,-97.5,92.5,170,-182.5,192.5,192.5,475,5,Open,SBD,Single-ply
Jan Grigat,M,164.7,120+,1993-07-03,-310,-320,-320,,202.5,210,215,215,265,-285,,265,,DQ,Open,SBD,Single-ply
Giancarlo Mavrici,M,89.95,93,1992-09-17,-270,-275,-275,,175,182.5,-190,182.5,300,-315,,300,,DQ,Open,SBD,Single-ply
Milan Bogner,M,101.2,105,1988-07-05,-250,-250,-252.5,,207.5,212.5,217.5,217.5,250,-270,270,270,,DQ,Open,SBD,Single-ply
Dr. Hans Müller,M,113.8,120,1979-06-22,-285,-295,-295,,-215,225,-230,225,245,265,275,275,,DQ,Open,SBD,Single-ply
Gundula Fiona Sommer von Bachhaus,F,63.1,72,1981-05-18,-200,200,-205,200,155,-162.5,-170,155,170,182.5,190,190,545,2,Open,SBD,Single-ply
Patrick Lösel,M,90.8,93,2000-07-30,222.5,232.5,242.5,242.5,135,140,145,145,225,235,-242.5,235,622.5,6,Open,SBD,Single-ply
Kevin Jäger #1,M,127.4,120+,1995-08-25,-385,-395,-395,,175,275,375,375,260,-275,,260,,DQ,Open,SBD,Single-ply
Nico Ruhland,M,92.75,93,1977-01-14,245,252.5,-260,252.5,160,165,170,170,235,242.5,-247.5,242.5,665,5,Open,SBD,Single-ply
Marc Bielau,M,71.45,74,1986-05-05,250,262.5,-270,262.5,155,162.5,167.5,167.5,225,240,250,250,680,3,Open,SBD,Single-ply
Thomas Korell,M,84.1,93,1983-07-29,-265,265,-275,265,185,-195,-200,185,230,240,250,250,700,6,Open,SBD,Single-ply
Hannes Haase,M,85.7,93,1998-04-05,272.5,285,-292.5,285,170,180,192.5,192.5,222.5,232.5,242.5,242.5,720,1,Open,SBD,Single-ply
Sven Rogalski,M,92.3,93,1974-12-21,275,290,-300,290,-190,190,-200,190,255,267.5,-275,267.5,747.5,6,Open,SBD,Single-ply
Marcus Böttger,M,97.6,105,1990-02-23,295,305,315,315,185,190,-195,190,265,275,-280,275,780,5,Open,SBD,Single-ply
Eduard Tepper,M,84.35,93,1979-11-27,265,285,295,295,202.5,-212.5,212.5,212.5,-272.5,282.5,292.5,292.5,800,1,Open,SBD,Single-ply
Nico Ziegler,M,135.6,120+,1984-01-25,315,-325,-325,315,-250,250,-270,250,230,240,250,250,815,5,Open,SBD,Single-ply
Max Lochschmidt,M,82.45,83,1983-11-29,-305,315,-325,315,207.5,212.5,217.5,217.5,285,-300,-310,285,817.5,4,Open,SBD,Single-ply
Konrad Burghardt,M,91,93,1974-04-19,290,-300,300,300,225,232.5,-237.5,232.5,280,295,-300,295,827.5,4,Open,SBD,Single-ply
Tobias Persen,M,106.6,120,1990-10-07,310,322.5,330,330,225,250,255,255,260,-280,-280,260,845,1,Open,SBD,Single-ply
Christoph Seefeld,M,115.9,120,1980-11-29,310,325,335,335,215,225,240,240,260,280,-297.5,280,855,3,Open,SBD,Single-ply
Tobias Zinserling,M,152.4,120+,,350,360,,360,230,240,-247.5,240,325,350,-365,350,950,G,Open,SBD,Single-ply
Sascha Stendebach,M,92.25,93,1991-06-11,327.5,341,,341,262.5,-273,-273,262.5,325,348.5,-364.5,348.5,952,2,Open,SBD,Single-ply
