Name,Equipment,Age,Sex,Division,BodyweightKg,WeightClassKg,Squat1Kg,Squat2Kg,Squat3Kg,Best3SquatKg,Bench1Kg,Bench2Kg,Bench3Kg,Best3BenchKg,Deadlift1Kg,Deadlift2Kg,Deadlift3Kg,Best3DeadliftKg,TotalKg,Event,Place
Barb Welp,Wraps,46,F,FM2R-AD,78.93,82.5,85,92.5,97.5,97.5,50,52.5,55,55,117.5,-125,-127.5,117.5,270,SBD,1
Tiffany Delahay,Wraps,36,F,FSR-AD,51.07,52,60,67.5,75,75,42.5,47.5,-55,47.5,90,100,107.5,107.5,230,SBD,1
Courtney Montoya,Wraps,38,F,FSR-AD,87.45,90,102.5,107.5,112.5,112.5,70,-72.5,-72.5,70,125,132.5,-145,132.5,315,SBD,1
Jocelyn Bennet,Wraps,30,F,FOR-AD,51.44,52,65,72.5,-77.5,72.5,37.5,-42.5,42.5,42.5,80,-87.5,87.5,87.5,202.5,SBD,1
Blaire Smith,Wraps,27,F,FOR-AD,67.31,67.5,82.5,90,97.5,97.5,50,55,57.5,57.5,85,92.5,102.5,102.5,257.5,SBD,1
Julia Yngsdal,Wraps,27,F,FOR-AD,72.12,75,87.5,97.5,-105,97.5,45,52.5,-60,52.5,107.5,120,130,130,280,SBD,1
Carolyn Damminga,Wraps,26,F,FOR-AD,79.2,82.5,115,130,137.5,137.5,55,60,-65,60,130,142.5,-147.5,142.5,340,SBD,2
Lexy Neitzel,Wraps,26,F,FOR-AD,77.02,82.5,117.5,130,137.5,137.5,60,67.5,-75,67.5,140,152.5,160,160,365,SBD,1
Kristy Kinney,Wraps,25,F,FOR-AD,87,90,90,95,105,105,42.5,47.5,52.5,52.5,110,120,130,130,287.5,SBD,1
Toni Hakey,Wraps,31,F,FOR-AD,84.01,90,82.5,90,100,100,35,45,57.5,57.5,120,-135,,120,277.5,SBD,2
Erin Farber,Wraps,25,F,FOR-AD,127.1,90+,155,177.5,-185,177.5,72.5,80,-85,80,177.5,190,197.5,197.5,455,SBD,1
Taylor Hewitt,Wraps,22,F,FJR-AD,81.65,82.5,127.5,140,145,145,70,75,82.5,82.5,140,147.5,157.5,157.5,385,SBD,1
Aubrie Harrington,Wraps,14,F,FT1R-AD,56.97,60,42.5,50,60,60,27.5,35,40,40,80,87.5,102.5,102.5,202.5,SBD,1
Dennis Green,Wraps,68,M,MM6R-AD,74.21,75,87.5,97.5,102.5,102.5,75,80,-82.5,80,75,85,95,95,277.5,SBD,1
Chuck Slane,Wraps,48,M,MM2R-AD,96.89,100,105,115,122.5,122.5,82.5,92.5,97.5,97.5,122.5,140,155,155,375,SBD,2
Erik Peacock,Wraps,45,M,MM2R-AD,98.25,100,150,162.5,172.5,172.5,125,132.5,-137.5,132.5,192.5,205,-215,205,510,SBD,1
David Bittner,Wraps,51,M,MM3R-AD,123.29,125,192.5,205,-210,205,165,170,-182.5,170,205,220,230,230,605,SBD,1
Jerid Zuspann,Wraps,35,M,MSR-AD,88.36,90,165,175,185,185,117.5,125,-130,125,210,220,230,230,540,SBD,1
John Quach,Wraps,26,M,MOR-AD,91.35,100,120,125,-127.5,125,70,-80,-82.5,70,155,165,175,175,370,SBD,2
Ben Peterson,Wraps,29,M,MOR-AD,97.07,100,167.5,180,190,190,122.5,132.5,140,140,195,-205,205,205,535,SBD,1
Zach Goss,Wraps,28,M,MOR-AD,97.34,100,92.5,102.5,112.5,112.5,85,97.5,-107.5,97.5,97.5,115,137.5,137.5,347.5,SBD,3
John Trongard,Wraps,25,M,MOR-AD,106.87,110,150,170,-182.5,170,92.5,-107.5,-107.5,92.5,155,170,182.5,182.5,445,SBD,2
Fatih Velijoski,Wraps,25,M,MOR-AD,109.68,110,215,-237.5,237.5,237.5,162.5,-177.5,-177.5,162.5,215,237.5,250,250,650,SBD,1
Brad Neitzel,Wraps,28,M,MOR-AD,119.02,125,280,302.5,-315,302.5,160,-175,-175,160,302.5,327.5,-340,327.5,790,SBD,1
Dalton White,Wraps,21,M,MJR-AD,81.83,82.5,195,215,-225,215,135,-142.5,-145,135,215,225,-240,225,575,SBD,1
Dane Anderson,Wraps,22,M,MJR-AD,81.19,82.5,182.5,192.5,197.5,197.5,125,132.5,-142.5,132.5,220,227.5,240,240,570,SBD,2
Justin Goeman,Wraps,21,M,MJR-AD,89.18,90,192.5,207.5,212.5,212.5,-110,-115,-115,,205,210,215,215,,SBD,DQ
Christian Wheeler,Wraps,24,M,MOR-AD,92.71,100,130,145,-162.5,145,-120,120,-140,120,170,-207.5,-207.5,170,435,SBD,1
Dustine Stevens,Wraps,44,F,FM1R,85,90,85,95,105,105,62.5,67.5,75,75,130,140,145,145,325,SBD,1
Devon Kortz,Wraps,37,F,FOR,76.75,82.5,92.5,115,-125,115,52.5,62.5,-75,62.5,102.5,125,-155,125,302.5,SBD,2
Marisa Begnoche,Wraps,23,F,FOR,77.38,82.5,120,137.5,-155,137.5,70,85,90,90,122.5,137.5,147.5,147.5,375,SBD,1
Andrew Ronayne,Wraps,44,M,MM1R,92.35,100,175,-180,,175,105,110,117.5,117.5,105,142.5,182.5,182.5,475,SBD,1
Brian Riches,Wraps,43,M,MM1R,148.32,140+,227.5,250,275,275,142.5,155,-160,155,227.5,255,275,275,705,SBD,1
Ron Eaton,Wraps,39,M,MSR,107.68,110,275,-290,-290,275,185,195,-200,195,250,272.5,280,280,750,SBD,2
Luke Uribe,Wraps,37,M,MSR,108.41,110,327.5,347.5,365,365,222.5,232.5,-237.5,232.5,285,310,-317.5,310,907.5,SBD,1
John Rivera,Wraps,37,M,MSR,131,140,272.5,292.5,312.5,312.5,155,172.5,-182.5,172.5,330,355,-365,355,840,SBD,1
Heath Bougher,Wraps,37,M,MSR,144.7,140+,192.5,217.5,-227.5,217.5,182.5,195,200,200,220,237.5,250,250,667.5,SBD,1
Patrick Brown,Wraps,30,M,MOR,97.75,100,117.5,127.5,140,140,117.5,130,-135,130,165,177.5,190,190,460,SBD,3
Angel Hernandez,Wraps,29,M,MOR,99.97,100,170,190,200,200,-102.5,102.5,112.5,112.5,192.5,207.5,227.5,227.5,540,SBD,2
Matt Hanson,Wraps,27,M,MOR,96.52,100,195,212.5,-227.5,212.5,140,150,155,155,232.5,-252.5,-252.5,232.5,600,SBD,1
Jory Haken,Wraps,30,M,MOR,106.87,110,170,180,200,200,130,-142.5,142.5,142.5,195,220,245,245,587.5,SBD,2
Spenser Nagel,Wraps,30,M,MOR,107.41,110,192.5,205,227.5,227.5,130,140,147.5,147.5,210,230,-245,230,605,SBD,1
Rudy Street,Wraps,26,M,MOR,115.03,125,272.5,285,292.5,292.5,195,210,-220,210,260,300,-315,300,802.5,SBD,1
Adam Harrington,Wraps,36,M,MOR,135.17,140,272.5,282.5,292.5,292.5,182.5,-195,-195,182.5,265,-287.5,287.5,287.5,762.5,SBD,1
Aaron B Lister,Wraps,31,M,MOR,144.79,140+,310,327.5,337.5,337.5,200,215,222.5,222.5,307.5,347.5,-350,347.5,907.5,SBD,1
Robert Langel,Wraps,25,M,MOR,149.87,140+,172.5,200,220,220,100,142.5,-150,142.5,170,227.5,-235,227.5,590,SBD,3
Ethan Manning,Wraps,27,M,MOR,161.93,140+,272.5,292.5,300,300,137.5,150,160,160,260,277.5,285,285,745,SBD,2
Patrick Davitt,Wraps,23,M,MJR,93.08,100,175,190,-195,190,135,142.5,-150,142.5,225,237.5,250,250,582.5,SBD,1
Jerry Adkins,Raw,43,M,MM1R-AD,113.85,125,,,,,115,127.5,-132.5,127.5,,,,,127.5,B,1
Richard Hanson,Multi-ply,28,M,MO,109.59,110,,,,,-195,195,-202.5,195,,,,,195,B,1
Bryce Snyder,Raw,28,M,MOR,127.64,140,,,,,120,137.5,-140,137.5,265,285,287.5,287.5,425,BD,1
