                                              USPA Drug Tested 14th Annual Ohio Cup November 10, 2018 Tallmadge, OH

                                      Wt                                                                    Total     Wilks     McC                             Total
               Name          State               Weight      Age      SQ Kg       BP Kg        DL Kg
                                     class                                                                   Kg       Total     Total   SQ Lbs BP Lbs DL Lbs     Lbs
    Women Raw Powerlifting
    56kg Jr 20-23
1   Alexis Lockard            OH     56kg         55.7        21         70         47.5         105        222.5     262.906           154.3   104.7   231.5   490.5

    60kg Jr 16-17
1   Izzy Gallo                OH     60kg         59.4        17        105         47.5        107.5        260      292.136           231.5   104.7   237     573.2

    67.5kg Jr 13-15
1   Lucia Wolford             OH     67.5kg       66.4        15        97.5        52.5         115         265      273.692           214.9   115.7   253.5   584.2

    67.5kg Jr 20-23
1   Arianna Spalding          OH     67.5kg        66         22         90          60         127.5       277.5     287.879           198.4   132.3   281.1   611.8
2   Haley Adams               OH     67.5kg       64.4        22         95          55          100         250       264.1            209.4   121.3   220.5   551.2

    75kg Jr 13-15
1   Helen Murphy              OH     75kg         73.9        15       122.5         55          130        307.5     295.077           270.1   121.3   286.6   677.9

    75kg Jr 20-23
1   Rebeca Soto- Llamas       OH     75kg         74.9        23       132.5         70         147.5        350      332.99            292.1   154.3   325.2   771.6

    52kg Open
1   Tonya Reidy               OH     52kg         49.4        38         75          45          82.5       202.5     262.521           165.3   99.2    181.9   446.4

    56kg Open
1   Chelsie Corso             OH     56kg         54.7        27        105          70         132.5       307.5     368.539           231.5   154.3   292.1   677.9

    60kg Open
1   Lisa Courtney             OH     60kg         58.8        54        105          58         117.5       280.5     317.666 382.47    231.5   127.9    259    618.4
2   Izzy Gallo                OH     60kg         59.4        17        105         47.5        107.5        260      292.136           231.5   104.7    237    573.2
3   Alicia Merrill            OH     60kg         59.5        27        82.5         55          110        247.5      277.72           181.9   121.3   242.5   545.6

    67.5kg Open
1   Sabrina Mangin            OH     67.5kg       65.5        34        130          80          145         355      370.336           286.6   176.4   319.7   782.6
2   Robin Gay                 OH     67.5kg       66.8        49       117.5        67.5         120         305      313.632 349.072    259    148.8   264.6   672.4
3   Danielle Heckman          OH     67.5kg       65.8        28       117.5         55         127.5        300       311.91            259    121.3   281.1   661.4
4   Haley Adams               OH     67.5kg       64.4        22        95           55          100         250       264.1            209.4   121.3   220.5   551.2

    75kg Open
1   Julia Marrin              CA     75kg         74.2        25        155          65         177.5       397.5     380.447           341.7   143.3   391.3   876.3
2   Rebeca Soto- Llamas       OH     75kg         74.9        23       132.5         70         147.5        350       332.99           292.1   154.3   325.2   771.6
3   Helen Murphy              OH     75kg         73.9        15       122.5         55          130        307.5     295.077           270.1   121.3   286.6   677.9
4   Courtney Pustay           OH     75kg         71.9        30       107.5        47.5         135         290      283.301            237    104.7   297.6   639.3
5   Danielle Murphy           OH     75kg         74.1        49       72.5         47.5        97.5        217.5     208.343 231.886   159.8   104.7   214.9   479.5
                                           USPA Drug Tested 14th Annual Ohio Cup November 10, 2018 Tallmadge, OH

                                   Wt                                                                    Total     Wilks     McC                             Total
               Name       State               Weight      Age      SQ Kg       BP Kg         DL Kg
                                  class                                                                   Kg       Total     Total   SQ Lbs BP Lbs DL Lbs     Lbs
    82.5kg Open
1   Jolene Santee          OH     82.5kg       80.9        41       117.5        77.5        152.5       347.5     316.017 319.177    259    170.9   336.2   766.1

    SHW Open
1   Cara Boss              OH     SHW           105        26        175        107.5        197.5        480      394.416           385.8   237     435.4   1058.2
                                                                                            4th: 202.5
2   Marisa Kanaga          OH     SHW          107.5       30       167.5        77.5        187.5       432.5     353.439           369.3   170.9   413.4   953.5
3   Autumn Weary           PA     SHW          93.4        28        145         82.5         155        382.5     325.737           319.7   181.9   341.7   843.3
4   Victoria Marvin        OH     SHW          91.1        36       72.5         62.5        102.5       237.5     204.203           159.8   137.8    226    523.6

    52kg Submaster
1   Tonya Reidy            OH     52kg         49.4        38         75          45          82.5       202.5     262.521           165.3   99.2    181.9   446.4

    SHW Submaster
1   Sara Kelley            OH     SHW          129.2       37       137.5         85         157.5        380      299.896           303.1   187.4   347.2   837.7
2   Angela Cline           OH     SHW          98.1        35       127.5         80          145        352.5     295.184           281.1   176.4   319.7   777.1

    48kg Master 45-49
1   Allison Taylor         OH     48kg         47.7        45        52.5         30          47.5        130      172.965 182.478   115.7   66.1    104.7   286.6

    48kg Master 50-54
1   Lisa Weiss             OH     48kg           48        51         70          50         112.5       232.5     307.923 353.188   154.3   110.2   248     512.6

    56kg Master 55-59
1   Angela Grajzl          OH     56kg         54.1        55         70         32.5         82.5        185      223.628 273.944   154.3   71.6    181.9   407.9

    60kg Master 50-54
1   Lisa Courtney          OH     60kg         58.8        54        105          58         117.5       280.5     317.666 382.47    231.5   127.9   259     618.4

    67.5kg Master 45-49
1   Robin Gay              OH     67.5kg       66.8        49       117.5        67.5         120         305      313.632 349.072    259    148.8   264.6   672.4

    75kg Master 45-49
1   Danielle Murphy        OH     75kg         74.1        49        72.5        47.5         97.5       217.5     208.343 231.886   159.8   104.7   214.9   479.5

    75kg Master 55-59
1   Jennifer Hillier       OH     75kg         74.8        59        77.5         45         112.5        235      223.767 294.254   170.9   99.2    248     518.1
2   Aven Malec             OH     75kg         72.4        59        77.5         45         102.5        225      218.813 287.738   170.9   99.2    226      496

    82.5kg Master 40-44
1   Jolene Santee          OH     82.5kg       80.9        41       117.5        77.5        152.5       347.5     316.017 319.177    259    170.9   336.2   766.1
                                             USPA Drug Tested 14th Annual Ohio Cup November 10, 2018 Tallmadge, OH

                                     Wt                                                                    Total     Wilks     McC                             Total
                Name        State               Weight      Age      SQ Kg       BP Kg        DL Kg
                                    class                                                                   Kg       Total     Total   SQ Lbs BP Lbs DL Lbs     Lbs
     Men Raw Powerlifting
     52kg Jr 13-15
1    Aaron Babet             OH     52kg         51.4        14       122.5         70          155        347.5     345.172           270.1   154.3   341.7   766.1

     67.5kg Jr 20-23
1    Joey Zarlinga           OH     67.5kg       66.7        22        205         125          230         560      435.96            451.9   275.6   507.1   1234.6

     75kg Jr 18-19
1    Nick Friedman           OH     75kg         73.2        19        170        132.5         195        497.5     360.638           374.8   292.1   429.9   1096.8
2    Christian Talcott       OH     75kg         72.1        18        150        102.5         185        437.5     320.688           330.7    226    407.9   964.5

     82.5kg Jr 18-19
1    Trenton Garisek         OH     82.5kg       82.5        19        165        112.5         210        487.5     326.576           363.8   248      463    1074.7
2    Zach Musarra            OH     82.5kg       80.9        19       132.5       117.5        192.5       442.5     299.971           292.1   259     424.4   975.5

     82.5kg Jr 20-23
1    Kyle Agner              OH     82.5kg       80.7        21        220         170         267.5       657.5     446.443            485    374.8   589.7   1449.5
2    Chris Sharp             OH     82.5kg       80.6        20        165        132.5         250        547.5     372.026           363.8   292.1   551.2    1207
3    Jared Hilbert           OH     82.5kg        78         22        185         115          235         535      371.237           407.9   253.5   518.1   1179.5

     90kg Jr 20-23
1    John Schroeder          OH     90kg         86.5        21       227.5        125         282.5        635      413.957           501.5   275.6   622.8   1399.9
2    David Belak             OH     90kg         89.3        21       222.5       132.5         270         625      400.625           490.5   292.1   595.2   1377.9

     100kg Jr 16-17
1    Marcus Mason            OH     100kg        97.6        17       147.5         75          150        372.5     228.976           325.2   165.3   330.7   821.2

     110kg Jr 18-19
DQ   Calvin Wolford          OH     110kg        106.3       18       232.5       157.5          0            0        0               512.6   347.2    0        0

     110kg Jr 20-23
1    Nathan Wise             OH     110kg        101.7       22        175         135          260         570      344.622           385.8   297.6   573.2   1256.6
2    Bruce Lockaby           OH     110kg        101.3       21        175         130         207.5       512.5     310.319           385.8   286.6   457.5   1129.9

     67.5kg Open
1    Joey Zarlinga           OH     67.5kg       66.7        22        205         125          230         560       435.96           451.9   275.6   507.1   1234.6
2    Alex Geier              OH     67.5kg       66.7        30        140        102.5         190        432.5     336.701           308.6    226    418.9   953.5

     75kg Open
1    Casmir Hughes           OH     75kg         73.8        30        215        147.5         280        642.5      463.05            474    325.2   617.3   1416.5
2    Nathan Noles            OH     75kg         74.3        20        195         130          210         535      383.756           429.9   286.6    463    1179.5
3    Kevin Smyth             OH     75kg         72.3        30       137.5       92.5         167.5       397.5     290.771           303.1   203.9   369.3   876.3
                                         USPA Drug Tested 14th Annual Ohio Cup November 10, 2018 Tallmadge, OH

                                 Wt                                                                    Total     Wilks     McC                             Total
                Name    State               Weight      Age      SQ Kg       BP Kg        DL Kg
                                class                                                                   Kg       Total     Total   SQ Lbs BP Lbs DL Lbs     Lbs
     82.5kg Open
 1   Randy Myers         OH     82.5kg       81.5        33        205         145          220         570      384.693           451.9   319.7    485    1256.6
 2   Carlo Lomanto       OH     82.5kg       81.8        36        170        112.5        232.5        515      346.801           374.8    248    512.6   1135.4
 3   Jason Gallo         OH     82.5kg       79.7        44        185         125          200         510      348.993  364      407.9   275.6   440.9   1124.3
 4   Matt Treblas        OH     82.5kg        80         35        165         115         182.5       462.5     315.749           363.8   253.5   402.3   1019.6
 5   George Linder       OH     82.5kg       80.6        50       137.5       97.5          190         425      288.788 326.33    303.1   214.9   418.9    937
DQ   Eric Jelen          OH     82.5kg        81         27         0           0            0           0          0                0       0       0       0

     90kg Open
1    Brian Crosby        OH     90kg         88.5        27       207.5        178         252.5        638      410.872           457.5   392.4   556.7   1406.5
2    John Schroeder      OH     90kg         86.5        21       227.5        125         282.5        635      413.957           501.5   275.6   622.8   1399.9
3    Kevin James         OH     90kg         88.7        29        195        162.5        262.5        620      398.784           429.9   358.2   578.7   1366.9
4    Daniel Leovic       OH     90kg         87.1        33       192.5        135          250        577.5     375.086           424.4   297.6   551.2   1273.2

     100kg Open
1    Justin Smith        OH     100kg        96.8        25        275        197.5         305        777.5      479.64           606.3   435.4   672.4   1714.1
2    Nick Haught         OH     100kg        93.7        31       222.5       142.5         275         640       400.64           490.5   314.2   606.3   1410.9
3    Eric Eskridge       OH     100kg        93.3        28        185        167.5         260        612.5      384.16           407.9   369.3   573.2   1350.3
4    Adam Whitlach       OH     100kg        97.9        35       227.5        145          240        612.5     376.014           501.5   319.7   529.1   1350.3
5    Zack Underwood      OH     100kg        98.6        29        185         120         252.5       557.5     341.246           407.9   264.6   556.7   1229.1

     110kg Open
1    Kyle Kish           OH     110kg        107.8       27        155        172.5        217.5        545      322.804           341.7   380.3   479.5   1201.5
2    Steve Pustay        OH     110kg        109.1       41        195         125         217.5       537.5     317.125 320.296   429.9   275.6   479.5    1185
3    Bruce Lockaby       OH     110kg        101.3       21        175         130         207.5       512.5     310.319           385.8   286.6   457.5   1129.9
4    Jason Larkin        OH     110kg        106.9       39       157.5        105          165        427.5     253.892           347.2   231.5   363.8   942.5

     125kg Open
1    Ray Buffington      OH     125kg        124.1       36       267.5        195          260        722.5     412.331           589.7   429.9   573.2   1592.8
2    Tim Bonds           OH     125kg        123.4       36        235         175          310         720      411.408           518.1   385.8   683.4   1587.3
2    Ray Rateno          OH     125kg        113.5       34       172.5        135         227.5        535      311.959           380.3   297.6   501.5   1179.5

     140kg Open
1    Joe Gillespie       OH     140kg         135        25        245         160          295         700       393.4            540.1   352.7   650.4   1543.2

     SHW Open
1    Jared Neal          OH     SHW          142.7       28        315         195          345         855      476.406           694.4   429.9   760.6   1884.9
2    Jeremy Burroughs    PA     SHW          149.3       28        300         235          285         820      454.034           661.4   518.1   628.3   1807.8
                                                                             4th: 240

     100kg Submaster
1    William Naugle      OH     100kg        97.9        39       152.5        125          170        447.5     274.72            336.2   275.6   374.8   986.6
                                               USPA Drug Tested 14th Annual Ohio Cup November 10, 2018 Tallmadge, OH

                                       Wt                                                                    Total     Wilks     McC                             Total
              Name            State               Weight      Age      SQ Kg        BP Kg        DL Kg
                                      class                                                                   Kg       Total     Total   SQ Lbs BP Lbs DL Lbs     Lbs
    110kg Submaster
1   Jason Larkin               OH     110kg        106.9       39       157.5         105         165        427.5     253.892           347.2   231.5   363.8   942.5

    125kg Submaster
1   Ray Buffington             OH     125kg        124.1       36       267.5         195         260        722.5     412.331           589.7   429.9   573.2   1592.8
2   Tim Bonds                  OH     125kg        123.4       36        235          175         310         720      411.408           518.1   385.8   683.4   1587.3

    67.5kg Master 55-59
1   Henry De Groh III          OH     67.5kg       66.9        56        125           95        137.5       357.5     277.635 345.933   275.6   209.4   303.1   788.1
                                                                                                 4th: 140


    75kg Master 50-54
1   Mike Garcia                OH     75kg         72.6        50       122.5         105         160        387.5     282.604 319.342   270.1   231.5   352.7   854.3

    82.5kg Master 40-44
1   Jason Gallo                OH     82.5kg       79.7        44        185          125         200         510      348.993   364     407.9   275.6   440.9   1124.3

    82.5kg Master 50-54
1   George Linder              OH     82.5kg       80.6        50       137.5         97.5        190         425      288.788 326.33    303.1   214.9   418.9    937

    100kg Master 40-44
1   Kevin Cochenour            OH     100kg        98.7        44       227.5        152.5                    380      232.484 242.481   501.5   336.2           837.7
                                                                       4th: 228.5   4th: 157.5


    100kg Master 55-59
1   Craig Eldridge             OH     100kg        96.1        56        160          115         230         505      312.494 389.368   352.7   253.5   507.1   1113.3
2   Orlando Gardner            OH     100kg        99.8        55       162.5        122.5       207.5       492.5     299.982 367.478   358.2   270.1   457.5   1085.8

    110kg Master 40-44
1   Steve Pustay               OH     110kg        109.1       41        195          125        217.5       537.5     317.125 320.296   429.9   275.6   479.5    1185
2   Mike Quintus               OH     110kg         107        40       182.5         115        232.5        530      314.661 314.661   402.3   253.5   512.6   1168.4

    SHW Master 45-49
1   Doug Morton                OH     SHW          198.4       48        140          125         210         475      252.605 277.108   308.6   275.6   463     1047.2

    Women Classic Raw Powerlifting
    52kg Open
1   Rebecca Carter              OH    52kg         50.4        31       112.5          50         115        277.5     354.34             248    110.2   253.5   611.8
                                                USPA Drug Tested 14th Annual Ohio Cup November 10, 2018 Tallmadge, OH

                                         Wt                                                                   Total     Wilks     McC                             Total
                Name            State              Weight      Age      SQ Kg       BP Kg         DL Kg
                                        class                                                                  Kg       Total     Total   SQ Lbs BP Lbs DL Lbs     Lbs
     Men Classic Raw Powerlifting
     90kg Jr 18-19
1    Matthew Morrow               OH    90kg        89.7        18       232.5        130         252.5        615      393.293           512.6   286.6   556.7   1355.8

     100kg Jr 20-23
1    Justin Kilgore              OH     100kg       90.3        22       247.5        155          260        662.5     422.211           545.6   341.7   573.2   1460.5

     90kg Open
1    Matthew Morrow              OH     90kg        89.7        18       232.5        130         252.5        615      393.293           512.6   286.6   556.7   1355.8

     100kg Open
 1   Justin Kilgore              OH     100kg       90.3        22       247.5        155          260        662.5     422.211           545.6   341.7   573.2   1460.5
 2   Tate Gibson                 OH     100kg       97.9        28        225        147.5        262.5        635      389.827            496    325.2   578.7   1399.9
DQ   Travis Rossiter             OH     100kg       98.1        31       247.5         0           270          0          0              545.6     0     595.2     0

     110kg Open
1    Josh Walker                 OH     110kg       108.9       28       237.5        135         257.5        630      371.889           523.6   297.6   567.7   1388.9
2    Mike Shaeffer               OH     110kg       105.8       30        230        137.5         250        617.5      368.03           507.1   303.1   551.2   1361.3

     125kg Open
1    Cory Germani                OH     125kg       121.6       26       142.5       117.5         180         440      252.208           314.2   259     396.8    970

     100kg Master 40-44
1    Keith Shinn                 OH     100kg       97.2        43        210         165          230         605      372.559 384.108    463    363.8   507.1   1333.8
                                                                                                 4th: 237.5


     125kg Master 45-49
1    Gary Board                  PA     125kg       119.5       49        225        132.5         235        592.5     340.984 379.515    496    292.1   518.1   1306.2

     Women Raw Bench Only
     SHW Open
1    Sara Kelley                 OH     SHW         129.2       37                     85                       85      67.082                    187.4           187.4

     SHW Submaster
1    Sara Kelley                 OH     SHW         129.2       37                     85                       85      67.082                    187.4           187.4

     Men Raw Bench Only
     60kg Jr 16-17
1    Michael Solomon             OH     60kg        58.9        17                    105                      105      91.088                    231.5           231.5

     90kg Open
1    Michael Harrison            OH     90kg        88.8        33                    145                      145      93.206                    319.7           319.7
                                               USPA Drug Tested 14th Annual Ohio Cup November 10, 2018 Tallmadge, OH

                                       Wt                                                                    Total     Wilks     McC                             Total
              Name            State               Weight      Age      SQ Kg       BP Kg        DL Kg
                                      class                                                                   Kg       Total     Total    SQ Lbs BP Lbs DL Lbs    Lbs
    125kg Open
1   Ray Buffington             OH     125kg        124.1       36                    195                      195      111.287                   429.9           429.9
2   Jason Santee               OH     125kg        123.8       41                   137.5                    137.5      78.513 79.298            303.1           303.1

    67.5kg Master 55-59
1   Fred Marquinez             OH     67.5kg         64        57                    115                      115      92.656 117.488            253.5           253.5

    75kg Master 45-49
1   Todd Solomon               OH     75kg         68.1        48                   147.5                    147.5     112.926 123.88            325.2           325.2

    100kg Master 55-59
1   Orlando Gardner            OH     100kg        99.8        55                   122.5                    122.5     74.615    91.403          270.1           270.1

    125kg Master 40-44
1   Jason Santee               OH     125kg        123.8       41                   137.5                    137.5     78.513    79.298          303.1           303.1

    Women Raw Deadlift Only
    SHW Open
1   Sara Kelley                OH     SHW          129.2       37                                157.5       157.5     124.299                           347.2   347.2

    SHW Submaster
1   Sara Kelley                OH     SHW          129.2       37                                157.5       157.5     124.299                           347.2   347.2

    Men Raw Deadlift Only
    75kg Open
1   Casmir Hughes              OH     75kg         73.8        30                                 280         280      201.796                           617.3   617.3

    82.5kg Open
1   Carlo Lomanto              OH     82.5kg       81.8        36                                232.5       232.5     156.566                           512.6   512.6

    90kg Open
1   John Schroeder             OH     90kg         86.5        21                                282.5       282.5     184.162                           622.8   622.8

    100kg Open
1   Andrew Prater              OH     100kg        93.7        30                                217.5       217.5     136.155                           479.5   479.5

    82.5kg Submaster
1   Carlo Lomanto              OH     82.5kg       81.8        36                                232.5       232.5     156.566                           512.6   512.6

    100kg Master 55-59
1   Craig Eldridge             OH     100kg        96.1        56                                 230         230      142.324 177.336                   507.1   507.1
2   Orlando Gardner            OH     100kg        99.8        55                                207.5       207.5     126.388 154.825                   457.5   457.5
                                                       USPA Drug Tested 14th Annual Ohio Cup November 10, 2018 Tallmadge, OH

                                               Wt                                                                    Total     Wilks     McC                            Total
               Name                 State                 Weight      Age      SQ Kg       BP Kg        DL Kg
                                              class                                                                   Kg       Total     Total   SQ Lbs BP Lbs DL Lbs    Lbs
     110kg Master 40-44
1    Mike Quintus                    OH       110kg         107        40                                232.5       232.5     138.035 138.035                  512.6   512.6

     110kg Master 45-49
1    Duane Fryberger                 OH       110kg        109.2       48                                247.5       247.5     145.976 160.136                  545.6   545.6

     Men Raw Push-Pull
     100kg Open
DQ   Travis Rossiter                 OH       100kg        98.1        31                     0           270           0        0                        0     595.2     0

     125kg Open
1    Tim Bonds                       OH       125kg        123.4       36                    175          310         485      277.129                  385.8   683.4   1069.2

     125kg Submaster
1    Tim Bonds                       OH       125kg        123.4       36                    175          310         485      277.129                  385.8   683.4   1069.2

     67.5kg Master 45-49
1    Adrian Scarpari                 PA       67.5kg       66.5        45                   107.5        182.5        290      226.316 238.763           237    402.3   639.3

     100kg Master 40-44
1    Keith Shinn                     OH       100kg        97.2        43                    165          230         395      243.241 250.781          363.8   507.1   870.8
                                                                                                       4th: 237.5

     100kg Master 55-59
1    Craig Eldridge                  OH       100kg        96.1        56                    115          230         345      213.486 266.004          253.5   507.1   760.6


     BEST LIFTERS
     Mens Overall                Justin Smith
     Womens Overall              Cara Boss
     Mens JR                     Kyle Agner
     Womens JR                   Rebecca Soto-Liamas
     Mens Master                 Craig Eldridge
     Womens Master               Lisa Courtney

     Judges:
     International: Adam Ferchen
     National: Gary Kanga and Arthur Wooten
     State: Dene Dainotto, Jason Delisi, Jared Brown, Joe Fyda, Chris Rege and Marty Kleis
     Practical: Phil Roberts
