Division,WeightClassKg,Name,BodyweightKg,Best3SquatKg,Best3BenchKg,Best3DeadliftKg,TotalKg,Sex,Event,Equipment,Place
40-44,56,Danny Barleen,55.8,152.5,115,190,457.5,M,SBD,Single-ply,1
50-54,56,Ira Rosen,55.6,175,90,187.5,452.5,M,SBD,Single-ply,1
50-54,56,Homi Shivaie,55.3,152.5,87.5,187,427,M,SBD,Single-ply,2
40-44,60,JD Carr,60,180,122.5,240,542.5,M,SBD,Single-ply,1
40-44,60,John Corsello,59.2,160,125,187.5,472.5,M,SBD,Single-ply,2
45-49,60,Gary Landess,59.1,105,77.5,160,342.5,M,SBD,Single-ply,1
60-64,60,T. Bishop,57.8,130,85,160,375,M,SBD,Single-ply,1
40-44,67.5,M. Lofing,65.7,182.5,122.5,197.5,502.5,M,SBD,Single-ply,1
40-44,67.5,J. Stanley,67,155,120,212.5,487.5,M,SBD,Single-ply,2
45-49,67.5,Arval Bridges,66.7,210,152.5,232.5,595,M,SBD,Single-ply,1
60-64,67.5,Ivan Zwick,66.2,65,117.5,75,257.5,M,SBD,Single-ply,1
65-69,67.5,Dillion Maier,65.6,165,75,192.5,432.5,M,SBD,Single-ply,1
70-74,67.5,Robert Cortes,67,165,120,220,505,M,SBD,Single-ply,1
80-84,67.5,Roger Merrell,67.4,35,35,70,140,M,SBD,Single-ply,1
40-44,75,Robert Wahl,74.6,242.5,137.5,267.5,647.5,M,SBD,Single-ply,1
40-44,75,Carlos Lewis,73.6,245,155,240,640,M,SBD,Single-ply,2
50-54,75,George Bartotti,72.6,145,125,182.5,452.5,M,SBD,Single-ply,1
50-54,75,B. Kline,72.8,,,,,M,SBD,Single-ply,DQ
55-59,75,S. Aldwenda,73.6,205,147.5,232.5,585,M,SBD,Single-ply,1
55-59,75,James Yeats,74.4,170,117.5,227.5,515,M,SBD,Single-ply,2
60-64,75,Jack Wolff,70.5,110,87.5,165,362.5,M,SBD,Single-ply,1
65-69,75,Fred Archabault,72.7,160,102.5,130,392.5,M,SBD,Single-ply,1
65-69,75,Daniel Goodwin,73,75,75,130,280,M,SBD,Single-ply,2
40-44,82.5,Bill Scully,82,265,170,265,700,M,SBD,Single-ply,1
40-44,82.5,Marlon Harrison,81.9,255,130,242.5,627.5,M,SBD,Single-ply,2
40-44,82.5,Bob Fabiano,81.8,200,177.5,227.5,605,M,SBD,Single-ply,3
40-44,82.5,D. Mathieson,78,,,,,M,SBD,Single-ply,DQ
45-49,82.5,David Wiley,82,245,162.5,252.5,660,M,SBD,Single-ply,1
45-49,82.5,L. Everett,82.3,200,135.5,270,605,M,SBD,Single-ply,2
45-49,82.5,Bill Clayton,81.3,217.5,142.5,215,575,M,SBD,Single-ply,3
45-49,82.5,D. Barnes,81.2,167.5,127.5,187.5,482.5,M,SBD,Single-ply,4
50-54,82.5,Art Menton,81.1,215,150,217.5,582.5,M,SBD,Single-ply,1
50-54,82.5,J. Wold,82.2,195,127.5,222.5,545,M,SBD,Single-ply,2
50-54,82.5,Joe Rizza,81.3,210,92.5,227.5,530,M,SBD,Single-ply,3
50-54,82.5,Jim Klostergaard,82.4,175,190,165,530,M,SBD,Single-ply,4
50-54,82.5,Mike Rosenwald,78.7,157.5,107.5,190,455,M,SBD,Single-ply,5
60-64,82.5,W. Callihan,81.2,140,115,197.5,452.5,M,SBD,Single-ply,1
60-64,82.5,C.E. Wettach,81.1,,,,,M,SBD,Single-ply,DQ
70-74,82.5,C. Everett,80.4,,,,,M,SBD,Single-ply,DQ
40-44,90,Mike Lohman,89.7,260,160,282.5,702.5,M,SBD,Single-ply,1
40-44,90,Todd Whitton,89.4,265,175,257.5,697.5,M,SBD,Single-ply,2
40-44,90,Ray Baxter Vona,89.1,265,172.5,255,692.5,M,SBD,Single-ply,3
40-44,90,William Kellett,84.5,165,127.5,200,492.5,M,SBD,Single-ply,4
40-44,90,B. Brown,89.2,250,,,,M,SBD,Single-ply,DQ
45-49,90,Larry Traub,89.7,277.5,170,315,762.5,M,SBD,Single-ply,1
45-49,90,Aaron Byas,89.2,265,160,310,735,M,SBD,Single-ply,2
45-49,90,M. Godawa,88.7,185,165,210,560,M,SBD,Single-ply,3
45-49,90,David Bertier,87.5,187.5,137.5,230,555,M,SBD,Single-ply,4
50-54,90,E. White,89.8,232.5,155,275,662.5,M,SBD,Single-ply,1
50-54,90,A. Christo,88.8,192.5,140,247.5,580,M,SBD,Single-ply,2
50-54,90,K. Mulholland,89.1,185,132.5,227.5,545,M,SBD,Single-ply,3
50-54,90,M. Mooney,87.9,160,105,205,470,M,SBD,Single-ply,4
50-54,90,Joe Lucio,88,,,,,M,SBD,Single-ply,DQ
50-54,90,David Mansfield,89,,,,,M,SBD,Single-ply,DQ
55-59,90,Lewis Langlinais,89.3,170,125,205,500,M,SBD,Single-ply,1
55-59,90,B. Bower,89.5,,,,,M,SBD,Single-ply,DQ
60-64,90,Jim Waters,86.8,137.5,90,205,432.5,M,SBD,Single-ply,1
40-44,100,Scott Roberts,99.2,317.5,180,282.5,780,M,SBD,Single-ply,1
40-44,100,Robert Vivier,100,227.5,165,245,637.5,M,SBD,Single-ply,2
40-44,100,Steve Heyl,96.9,200,160,210,570,M,SBD,Single-ply,3
40-44,100,K. Jordan,99.4,220,145,140,505,M,SBD,Single-ply,4
45-49,100,Phillip Accordino,93.5,232.5,165,237.5,635,M,SBD,Single-ply,1
45-49,100,R. Randall,95.5,240,160,222.5,622.5,M,SBD,Single-ply,2
45-49,100,John Valpatic,97.7,235,137.5,237.5,610,M,SBD,Single-ply,3
45-49,100,M. Berg,99.1,227.5,140,227.5,595,M,SBD,Single-ply,4
45-49,100,R. Harvey,96.1,205,145,227.5,577.5,M,SBD,Single-ply,5
45-49,100,B. Coury,93.9,240,150,,,M,SBD,Single-ply,DQ
45-49,100,S. Rosenberg,97.9,,,,,M,SBD,Single-ply,DQ
50-54,100,David Clark,96.7,252.5,130,282.5,665,M,SBD,Single-ply,1
50-54,100,Jim Yakubovsky,92.8,220,132.5,227.5,580,M,SBD,Single-ply,2
50-54,100,O. Guzman,96.1,207.5,132.5,205,545,M,SBD,Single-ply,3
50-54,100,Robert Morton,98.6,180,120,190,490,M,SBD,Single-ply,4
55-59,100,G. Aron,98.6,155,117.5,170,442.5,M,SBD,Single-ply,3
55-59,100,S. Chatis,98.7,185,137.5,225,547.5,M,SBD,Single-ply,1
55-59,100,B. Fleming,98.8,145,107.5,200,452.5,M,SBD,Single-ply,2
70-74,100,Bill Remley,93.6,185,137.5,210,532.5,M,SBD,Single-ply,1
40-44,110,Shawn Cain,108.9,305,215,332.5,852.5,M,SBD,Single-ply,1
40-44,110,Nolan Crabbe,109.3,252.5,195,272.5,720,M,SBD,Single-ply,2
40-44,110,Rick Kolbeck,109.8,277.5,177.5,260,715,M,SBD,Single-ply,3
40-44,110,Tom Babcock,107.9,237.5,205,247.5,690,M,SBD,Single-ply,4
40-44,110,Gary Pamplin,107.8,,,,,M,SBD,Single-ply,DQ
45-49,110,C. Cornelius,101.9,180,150,200,530,M,SBD,Single-ply,1
50-54,110,Bill Sindelar,106.7,227.5,165,252.5,645,M,SBD,Single-ply,1
50-54,110,D. Worley,106.4,260,125,257.5,642.5,M,SBD,Single-ply,2
50-54,110,Ron Burnett,109,240,152.5,250,642.5,M,SBD,Single-ply,3
60-64,110,Robert Rood,104,217.5,157.5,250,625,M,SBD,Single-ply,1
60-64,110,Robert Grisham,107.7,232.5,132.5,225,590,M,SBD,Single-ply,2
60-64,110,Hal Hudson,106.4,160,100,182.5,442.5,M,SBD,Single-ply,3
65-69,110,Lou Corulli,109.3,,,,,M,SBD,Single-ply,DQ
40-44,125,Richard Brose,123,272.5,187.5,290,750,M,SBD,Single-ply,1
40-44,125,Darrell Bowie,122.5,287.5,170,290,747.5,M,SBD,Single-ply,2
45-49,125,Tom Weeks,119.9,307.5,195,307.5,810,M,SBD,Single-ply,1
45-49,125,D. Day,120.2,205,155,272.5,632.5,M,SBD,Single-ply,2
50-54,125,Ernie Surrell,123.5,272.5,182.5,250,705,M,SBD,Single-ply,1
50-54,125,A. Wood,116.5,190,165,227.5,582.5,M,SBD,Single-ply,2
55-59,125,Will Morris,119.7,250,190,245,685,M,SBD,Single-ply,1
55-59,125+,Charles Clonce,127.8,257.5,152.5,227.5,637.5,M,SBD,Single-ply,2
60-64,125,David Ritter,111.1,175,120,232.5,527.5,M,SBD,Single-ply,1
40-44,125+,J. Pope,152.6,320,207.5,320,847.5,M,SBD,Single-ply,1
40-44,125+,Mike Cochran,147,350,222.5,272.5,845,M,SBD,Single-ply,2
40-44,125+,Daniel Gaudreau,157.3,330,,,,M,SBD,Single-ply,DQ
40-44,125+,James Mersberg,203.8,,,,,M,SBD,Single-ply,DQ
45-49,125+,S. Pecktol,127.2,250,175,282.5,707.5,M,SBD,Single-ply,1
45-49,125+,R. Giancola,138,227.5,147.5,240,615,M,SBD,Single-ply,2
50-54,125+,Brett McCune,138,280,180,312.5,772.5,M,SBD,Single-ply,1
