Division,WeightClassKg,Place,Name,Team,BodyweightKg,Best3SquatKg,Best3BenchKg,Best3DeadliftKg,TotalKg,Equipment,Event,Sex
Boys,52,1,Pablo Gutierrez,Mount Pleasant,51.53,108.86,61.23,117.93,288.03,Single-ply,SBD,M
Boys,52,2,Junior Chavez,Waxahachie,49.17,102.06,58.97,124.74,285.76,Single-ply,SBD,M
Boys,52,3,Coleman Hardin,Frankston,50.53,99.79,52.16,113.4,265.35,Single-ply,SBD,M
Boys,52,4,Arron Mays,Longview Pine Tree,50.53,88.45,70.31,99.79,258.55,Single-ply,SBD,M
Boys,52,5,John McWhorter,Lindale,51.53,99.79,49.9,92.99,242.67,Single-ply,SBD,M
Boys,52,6,Alex Rodriguez,Sulphur Springs,50.98,95.25,45.36,99.79,240.4,Single-ply,SBD,M
Boys,56,1,Jaden Taylor,Lindale,54.98,124.74,58.97,115.67,299.37,Single-ply,SBD,M
Boys,56,2,Jaydon Clemmons,Waxahachie,54.07,99.79,74.84,113.4,288.03,Single-ply,SBD,M
Boys,56,3,Robert Solorzano,Greenville,54.07,111.13,56.7,113.4,281.23,Single-ply,SBD,M
Boys,60,1,Jemetric Allen,Greenville,59.87,147.42,90.72,138.35,376.48,Single-ply,SBD,M
Boys,60,2,Nick Henderson,Waxahachie,56.7,131.54,70.31,154.22,356.07,Single-ply,SBD,M
Boys,60,3,Bailey Kurtz,Bullard,59.24,127.01,74.84,127.01,328.85,Single-ply,SBD,M
Boys,60,4,Josh Holland,Lindale,58.6,122.47,70.31,131.54,324.32,Single-ply,SBD,M
Boys,60,5,Josh Williams,Troup,58.88,124.74,43.09,138.35,306.17,Single-ply,SBD,M
Boys,60,6,Larry Hampton,Winona,58.88,124.74,52.16,117.93,294.84,Single-ply,SBD,M
Boys,60,7,Chadd Cole,Troup,59.42,102.06,72.57,111.13,285.76,Single-ply,SBD,M
Boys,60,8,Daniel Landaverde,Mount Pleasant,59.24,102.06,61.23,120.2,283.5,Single-ply,SBD,M
Boys,60,9,Joe Campbell,Ore City,57.24,72.57,43.09,108.86,224.53,Single-ply,SBD,M
Boys,60,DQ,Andrew Spellman,Lindale,57.52,117.93,,,,Single-ply,SBD,M
Boys,67.5,1,Luke Elkins,Corsicana,64.14,165.56,102.06,176.9,444.52,Single-ply,SBD,M
Boys,67.5,2,Cody Bargerhuff,Greenville,64.86,174.63,83.91,183.7,442.25,Single-ply,SBD,M
Boys,67.5,3,Donavon Smith,Greenville,64.68,158.76,102.06,142.88,403.7,Single-ply,SBD,M
Boys,67.5,4,Kane Tucker,Lindale,65.23,147.42,79.38,156.49,383.29,Single-ply,SBD,M
Boys,67.5,5,Jesus Perez,Mount Pleasant,64.5,147.42,77.11,156.49,381.02,Single-ply,SBD,M
Boys,67.5,6,Cade Duvak,Bullard,66.59,138.35,77.11,129.27,344.73,Single-ply,SBD,M
Boys,67.5,7,Dustin Crabtree,Sulphur Springs,60.33,136.08,61.23,138.35,335.66,Single-ply,SBD,M
Boys,67.5,8,Emanuel Brewer,Lindale,64.23,111.13,74.84,147.42,333.39,Single-ply,SBD,M
Boys,67.5,9,Orran Simmons,Longview Pine Tree,61.33,120.2,77.11,124.74,322.05,Single-ply,SBD,M
Boys,67.5,10,Sylvandan Stewart,Longview Pine Tree,66.68,104.33,86.18,122.47,312.98,Single-ply,SBD,M
Boys,67.5,DQ,Christopher Dunson,Greenville,62.51,,,,,Single-ply,SBD,M
Boys,67.5,DQ,Christian Dunson,Greenville,61.96,142.88,,,,Single-ply,SBD,M
Boys,75,1,Garrett David,Waxahachie,70.49,204.12,111.13,235.87,551.11,Single-ply,SBD,M
Boys,75,2,Toby Thatcher,Bullard,73.03,215.46,136.08,188.24,539.77,Single-ply,SBD,M
Boys,75,3,Demarr Henry,Corsicana,73.57,208.65,117.93,204.12,530.7,Single-ply,SBD,M
Boys,75,4,Garret Pringle,Waxahachie,74.66,188.24,127.01,197.31,512.56,Single-ply,SBD,M
Boys,75,5,Joshua Martinez,Mount Pleasant,73.12,174.63,127.01,208.65,510.29,Single-ply,SBD,M
Boys,75,6,Jacori Chandler,Corsicana,74.39,183.7,97.52,199.58,480.81,Single-ply,SBD,M
Boys,75,7,Vincent Morales,Sulphur Springs,72.94,147.42,97.52,190.51,435.45,Single-ply,SBD,M
Boys,75,8,Jimmy Enriquez,Greenville,69.13,181.44,92.99,158.76,433.18,Single-ply,SBD,M
Boys,75,9,C Pruitt,Sulphur Springs,68.4,163.29,104.33,161.03,428.64,Single-ply,SBD,M
Boys,75,10,Tristan Clark,Troup,74.66,147.42,83.91,176.9,408.23,Single-ply,SBD,M
Boys,75,11,Pierce Thurmond,Greenville,74.75,161.03,79.38,161.03,401.43,Single-ply,SBD,M
Boys,75,12,Jose Cerda,New London West Rusk,71.85,151.95,88.45,158.76,399.16,Single-ply,SBD,M
Boys,75,13,Demarcus Sanders,Greenville,68.04,174.63,83.91,138.35,396.89,Single-ply,SBD,M
Boys,75,14,Humberto Cardosa,New London West Rusk,69.22,151.95,95.25,149.69,396.89,Single-ply,SBD,M
Boys,75,15,Montana Meador,Lindale,71.4,138.35,95.25,163.29,396.89,Single-ply,SBD,M
Boys,75,16,Maliq Owens,Longview Pine Tree,68.31,154.22,77.11,163.29,394.63,Single-ply,SBD,M
Boys,75,17,Mason Cleveland,Sulphur Springs,68.67,145.15,86.18,163.29,394.63,Single-ply,SBD,M
Boys,75,18,Damichael Harvey,Kerens,70.22,158.76,77.11,156.49,392.36,Single-ply,SBD,M
Boys,75,19,Joseph Oxford,Frankston,72.8,145.15,83.91,163.29,392.36,Single-ply,SBD,M
Boys,75,20,Asheton Brown,Mount Pleasant,72.67,161.03,92.99,136.08,390.09,Single-ply,SBD,M
Boys,75,21,Shane Lewis,Frankston,72.85,136.08,79.38,172.37,387.82,Single-ply,SBD,M
Boys,75,22,LA Bradford,Frankston,67.68,142.88,83.91,127.01,353.8,Single-ply,SBD,M
Boys,75,23,Alec Levman,Longview Pine Tree,72.21,133.81,63.5,142.88,340.19,Single-ply,SBD,M
Boys,75,24,Ricky Hissinbetham,New London West Rusk,73.94,129.27,70.31,140.61,340.19,Single-ply,SBD,M
Boys,75,25,Carson Bridges,Sulphur Springs,68.49,129.27,72.57,136.08,337.93,Single-ply,SBD,M
Boys,75,26,LaDarron Jones,New Summerfield,67.77,136.08,61.23,136.08,333.39,Single-ply,SBD,M
Boys,75,27,Colton Whitsell,Troup,73.84,113.4,72.57,142.88,328.85,Single-ply,SBD,M
Boys,75,28,Hunter McNutt,Winona,72.48,72.57,65.77,133.81,272.16,Single-ply,SBD,M
Boys,75,29,Luke Harris,Ore City,68.31,90.72,61.23,95.25,247.21,Single-ply,SBD,M
Boys,75,DQ,Darian Hartman,Waxahachie,74.3,151.95,,,,Single-ply,SBD,M
Boys,75,DQ,Jarrick Lusk,Corsicana,71.58,133.81,,,,Single-ply,SBD,M
Boys,82.5,1,Gavin Pringle,Waxahachie,78.29,217.72,120.2,219.99,557.92,Single-ply,SBD,M
Boys,82.5,2,Ryan Taylor,Lindale,79.11,219.99,122.47,215.46,557.92,Single-ply,SBD,M
Boys,82.5,3,Austin Davis,Bullard,76.75,190.51,106.59,181.44,478.54,Single-ply,SBD,M
Boys,82.5,4,Jordan Robinson,Lindale,77.02,179.17,97.52,195.04,471.74,Single-ply,SBD,M
Boys,82.5,5,Drew Lewis,Frankston,82.1,163.29,97.52,185.97,446.79,Single-ply,SBD,M
Boys,82.5,6,Tremel Preston,Frankston,77.2,165.56,79.38,197.31,442.25,Single-ply,SBD,M
Boys,82.5,7,Angel Hernandez,Greenville,81.56,172.37,106.59,156.49,435.45,Single-ply,SBD,M
Boys,82.5,8,Damian Gwin,Mount Pleasant,79.83,154.22,111.13,163.29,428.64,Single-ply,SBD,M
Boys,82.5,9,Cameron Jenkins,Lindale,82.01,163.29,104.33,156.49,424.11,Single-ply,SBD,M
Boys,82.5,10,Isiah Richardson,Longview Pine Tree,79.92,147.42,90.72,154.22,392.36,Single-ply,SBD,M
Boys,82.5,11,Evan Rushing,Sulphur Springs,79.83,142.88,61.23,136.08,340.19,Single-ply,SBD,M
Boys,82.5,12,Diego Molina,New London West Rusk,79.38,120.2,74.84,108.86,303.91,Single-ply,SBD,M
Boys,82.5,DQ,Robert Humphreys,Lindale,76.75,,,,,Single-ply,SBD,M
Boys,82.5,DQ,Grayson Haxton,Lindale,77.66,124.74,,,,Single-ply,SBD,M
Boys,90,1,Caranedal Hale,Greenville,88.9,260.82,142.88,238.14,641.83,Single-ply,SBD,M
Boys,90,2,Kyle Alexander #2,Bullard,82.28,215.46,124.74,204.12,544.31,Single-ply,SBD,M
Boys,90,3,Lamontra Owens,Corsicana,84.1,199.58,124.74,197.31,521.63,Single-ply,SBD,M
Boys,90,4,Guillermo Vasquez,Greenville,86.27,210.92,113.4,185.97,510.29,Single-ply,SBD,M
Boys,90,5,Isaiah Neal,Sulphur Springs,83.46,183.7,102.06,195.04,480.81,Single-ply,SBD,M
Boys,90,6,Clayton Hawley,Lindale,85.64,181.44,120.2,179.17,480.81,Single-ply,SBD,M
Boys,90,7,Preston Smith,Midlothian Heritage,87.18,190.51,102.06,183.7,476.27,Single-ply,SBD,M
Boys,90,8,Josue Pena,Greenville,85,181.44,97.52,181.44,460.4,Single-ply,SBD,M
Boys,90,9,Ty McDaniel,Lindale,88.99,188.24,90.72,181.44,460.4,Single-ply,SBD,M
Boys,90,10,Zach Bradford,Winona,84.46,167.83,102.06,181.44,451.32,Single-ply,SBD,M
Boys,90,11,Ben McFadden,Lindale,83.91,154.22,97.52,192.78,444.52,Single-ply,SBD,M
Boys,90,12,Micah Wafer,Corsicana,89.72,151.95,99.79,183.7,435.45,Single-ply,SBD,M
Boys,90,13,David Bledso,Lindale,84.19,158.76,92.99,176.9,428.64,Single-ply,SBD,M
Boys,90,14,Kyle Reed,Lindale,84.64,149.69,83.91,149.69,383.29,Single-ply,SBD,M
Boys,90,15,Michael Cortez,Mount Pleasant,82.64,145.15,68.04,147.42,360.61,Single-ply,SBD,M
Boys,90,16,Enoel Rodriguez,Mount Pleasant,84.28,108.86,77.11,120.2,306.17,Single-ply,SBD,M
Boys,90,DQ,Dante Reed,Ore City,89.36,,,,,Single-ply,SBD,M
Boys,100,1,Hunter Phelps,Bullard,99.7,306.17,192.78,249.48,748.43,Single-ply,SBD,M
Boys,100,2,Kerrian Goree,Greenville,99.79,206.38,192.78,210.92,610.08,Single-ply,SBD,M
Boys,100,3,Jakorey Sherow,Longview Pine Tree,99.61,260.82,129.27,217.72,607.81,Single-ply,SBD,M
Boys,100,4,Caleb High,Waxahachie,91.35,226.8,136.08,229.06,591.94,Single-ply,SBD,M
Boys,100,5,Andrew Turner,Mount Pleasant,97.07,215.46,147.42,206.38,569.26,Single-ply,SBD,M
Boys,100,6,Nick Stewart,Waxahachie,93.62,208.65,138.35,201.85,548.85,Single-ply,SBD,M
Boys,100,7,Amere Morris,Lindale,90.81,190.51,108.86,195.04,494.42,Single-ply,SBD,M
Boys,100,8,Daniel Carter,Winona,93.53,165.56,113.4,192.78,471.74,Single-ply,SBD,M
Boys,100,9,Jesse Head,Lindale,99.61,192.78,111.13,165.56,469.47,Single-ply,SBD,M
Boys,100,10,Seth White,Corsicana,99.52,174.63,104.33,167.83,446.79,Single-ply,SBD,M
Boys,100,11,Pablo Pachuca,Kerens,92.44,158.76,79.38,176.9,415.04,Single-ply,SBD,M
Boys,100,12,Seth Allen,Ore City,97.34,172.37,83.91,158.76,415.04,Single-ply,SBD,M
Boys,100,13,Jesse Owen,Frankston,90.54,142.88,92.99,158.76,394.63,Single-ply,SBD,M
Boys,100,14,Jake Corley,Lindale,99.06,140.61,79.38,145.15,365.14,Single-ply,SBD,M
Boys,100,15,Fernando Gutierrez,Ore City,92.62,142.88,65.77,129.27,337.93,Single-ply,SBD,M
Boys,100,DQ,Caleb Johnson,Corsicana,93.44,181.44,,,,Single-ply,SBD,M
Boys,100,DQ,Simon Rico,Greenville,94.17,167.83,,,,Single-ply,SBD,M
Boys,110,1,Eli Crawford,Kerens,107.05,238.14,113.4,238.14,589.67,Single-ply,SBD,M
Boys,110,2,Anthoney Perez,Waxahachie,101.51,204.12,147.42,213.19,564.72,Single-ply,SBD,M
Boys,110,3,Ian Blanch,Sulphur Springs,105.41,217.72,117.93,217.72,553.38,Single-ply,SBD,M
Boys,110,4,Matthew Davidson,New London West Rusk,104.87,192.78,102.06,210.92,505.76,Single-ply,SBD,M
Boys,110,5,Brandon Osteen,New London West Rusk,100.33,183.7,106.59,183.7,474,Single-ply,SBD,M
Boys,110,6,Phillip Waggoner,Lindale,105.05,176.9,90.72,172.37,439.98,Single-ply,SBD,M
Boys,110,7,Ivan Elizondo,Mount Pleasant,100.33,149.69,77.11,149.69,376.48,Single-ply,SBD,M
Boys,110,8,David Hart,Ore City,101.6,142.88,79.38,122.47,344.73,Single-ply,SBD,M
Boys,110,9,Brenden Kinder,Frankston,103.96,86.18,61.23,113.4,260.82,Single-ply,SBD,M
Boys,125,1,Tyler Segrest,Lindale,117.48,240.4,158.76,233.6,632.76,Single-ply,SBD,M
Boys,125,2,JW McFarland,Bullard,120.11,272.16,156.49,204.12,632.76,Single-ply,SBD,M
Boys,125,3,Josh Porter,Frankston,115.67,215.46,129.27,226.8,571.53,Single-ply,SBD,M
Boys,125,4,Mitchell Graham,Bullard,111.58,217.72,142.88,206.38,566.99,Single-ply,SBD,M
Boys,125,5,Ernesto Lopez,Greenville,123.38,240.4,131.54,188.24,560.19,Single-ply,SBD,M
Boys,125,6,Trey Potter,Ore City,122.11,208.65,158.76,183.7,551.11,Single-ply,SBD,M
Boys,125,7,DeAunte Thomas,Corsicana,113.94,201.85,122.47,183.7,508.02,Single-ply,SBD,M
Boys,125,8,Dexter Mills,Longview Pine Tree,116.48,183.7,124.74,199.58,508.02,Single-ply,SBD,M
Boys,125,9,Alex Cash,Winona,123.74,161.03,90.72,158.76,410.5,Single-ply,SBD,M
Boys,125,10,Victor Martinez,New London West Rusk,113.49,142.88,86.18,111.13,340.19,Single-ply,SBD,M
Boys,125+,1,Larry Davis,Corsicana,151.95,231.33,163.29,215.46,610.08,Single-ply,SBD,M
Boys,125+,2,Dre Alex,Greenville,148.32,242.67,170.1,183.7,596.47,Single-ply,SBD,M
Boys,125+,3,Caleb Johnson,Mount Pleasant,139.98,226.8,111.13,192.78,530.7,Single-ply,SBD,M
Boys,125+,4,Julio Fontao,Corsicana,135.71,206.38,115.67,185.97,508.02,Single-ply,SBD,M
Boys,125+,5,Manuel Saavedra,Greenville,148.78,219.99,117.93,170.1,508.02,Single-ply,SBD,M
Boys,125+,6,John Campbell,Bullard,134.44,226.8,95.25,183.7,505.76,Single-ply,SBD,M
Boys,125+,7,Logan DeGarso,Greenville,132,201.85,122.47,172.37,496.68,Single-ply,SBD,M
Boys,125+,8,Ty Nick,Winona,128.19,183.7,102.06,183.7,469.47,Single-ply,SBD,M
Boys,125+,9,Corbin Johnson,Lindale,130.73,199.58,108.86,158.76,467.2,Single-ply,SBD,M
Boys,125+,10,Norris English,Sulphur Springs,149.41,190.51,108.86,167.83,467.2,Single-ply,SBD,M
Boys,125+,11,Caleb Carlile,Waxahachie,136.71,170.1,97.52,183.7,451.32,Single-ply,SBD,M
Boys,125+,12,Sharad Edmond,Longview Pine Tree,143.61,149.69,104.33,192.78,446.79,Single-ply,SBD,M
Boys,125+,13,Ben Grisson,Mount Pleasant,145.78,170.1,106.59,147.42,424.11,Single-ply,SBD,M
Boys,125+,14,William Womack,New London West Rusk,142.79,147.42,81.65,142.88,371.95,Single-ply,SBD,M
Boys,125+,DQ,Brandon Henson,Winona,131.63,,,,,Single-ply,SBD,M
Boys,125+,DQ,Jaquon Lyons,Greenville,142.88,181.44,,,,Single-ply,SBD,M
