Division,WeightClassKg,Place,Name,Team,BodyweightKg,Best3SquatKg,Best3BenchKg,Best3DeadliftKg,TotalKg,Equipment,Event,Sex
Boys,52,1,Shiloh George,Navasota,50.58,113.4,72.57,113.4,299.37,Single-ply,SBD,M
Boys,52,2,Levi Goudeau,Anderson-Shiro,45.81,90.72,49.9,90.72,231.33,Single-ply,SBD,M
Boys,56,1,Rushi Patel,College Station,55.79,181.44,77.11,163.29,421.84,Single-ply,SBD,M
Boys,56,2,Jacob Hanson,College Station A&M; Cons,54.88,165.56,95.25,136.08,396.89,Single-ply,SBD,M
Boys,56,3,Juan Padron,Navasota,54.43,127.01,70.31,145.15,342.46,Single-ply,SBD,M
Boys,56,4,Dalton Opperman,Columbus,54.88,115.67,77.11,122.47,315.25,Single-ply,SBD,M
Boys,60,1,Ian Campbell,Navasota,58.97,181.44,120.2,154.22,455.86,Single-ply,SBD,M
Boys,60,2,Jerell Jones,Conroe Oak Ridge,59.87,167.83,90.72,176.9,435.45,Single-ply,SBD,M
Boys,60,3,Frank Cobio,Brookshire Royal,56.25,158.76,104.33,167.83,430.91,Single-ply,SBD,M
Boys,60,4,Bryan McNeill,Rogers,59.65,172.37,86.18,165.56,424.11,Single-ply,SBD,M
Boys,60,5,Donovan Thomas,Navasota,59.87,113.4,68.04,147.42,328.85,Single-ply,SBD,M
Boys,60,DQ,August Williams,Conroe Oak Ridge,58.97,,,,,Single-ply,SBD,M
Boys,67.5,1,JT Abshire,College Station,66.22,215.46,108.86,204.12,528.44,Single-ply,SBD,M
Boys,67.5,2,Frank Williams,College Station A&M; Cons,66.9,197.31,115.67,204.12,517.1,Single-ply,SBD,M
Boys,67.5,3,Ivan Fuentes,Willis,66.9,188.24,106.59,192.78,487.61,Single-ply,SBD,M
Boys,67.5,4,Jacob Jackson,Conroe Woodlands College Park,64.86,185.97,115.67,170.1,471.74,Single-ply,SBD,M
Boys,67.5,5,Chase Gibson,College Station A&M; Cons,65.54,154.22,95.25,167.83,417.3,Single-ply,SBD,M
Boys,67.5,6,Cory Price,College Station A&M; Cons,66.45,147.42,86.18,156.49,390.09,Single-ply,SBD,M
Boys,67.5,7,Terrick Palmer,Navasota,62.6,140.61,77.11,149.69,367.41,Single-ply,SBD,M
Boys,67.5,8,Raymundo Alvarez,Snook,64.18,122.47,70.31,120.2,312.98,Single-ply,SBD,M
Boys,67.5,9,Deric Lowe,Beaumont Ozen,66.68,90.72,72.57,145.15,308.44,Single-ply,SBD,M
Boys,67.5,DQ,Jeremiah Manley,Bryan Rudder,66.22,172.37,,,,Single-ply,SBD,M
Boys,67.5,DQ,Alex Flores,Anderson-Shiro,60.78,,86.18,149.69,,Single-ply,SBD,M
Boys,75,1,Braden Tschirhart,College Station,73.48,229.06,138.35,204.12,571.53,Single-ply,SBD,M
Boys,75,2,BJ Mottu,Livingston,69.4,183.7,138.35,204.12,526.17,Single-ply,SBD,M
Boys,75,3,Joseph Stewart,Brookshire Royal,73.48,208.65,129.27,188.24,526.17,Single-ply,SBD,M
Boys,75,4,Kaku Asare,Conroe Woodlands College Park,69.85,206.38,111.13,199.58,517.1,Single-ply,SBD,M
Boys,75,5,Mark Vavra,Bryan,73.48,195.04,122.47,190.51,508.02,Single-ply,SBD,M
Boys,75,6,Chase Allen,College Station,73.71,181.44,97.52,217.72,496.68,Single-ply,SBD,M
Boys,75,7,Wayne Rinn,Bellville,74.62,192.78,106.59,188.24,487.61,Single-ply,SBD,M
Boys,75,8,Bo Hart,Sealy,73.71,176.9,117.93,181.44,476.27,Single-ply,SBD,M
Boys,75,9,Carlos García,Navasota,74.84,165.56,104.33,195.04,464.93,Single-ply,SBD,M
Boys,75,10,Rodrigo Valdez,College Station,68.49,167.83,104.33,167.83,439.98,Single-ply,SBD,M
Boys,75,11,Perry Irchirl,Conroe The Woodlands,71.21,156.49,97.52,172.37,426.38,Single-ply,SBD,M
Boys,75,12,Jacob Willard,Conroe The Woodlands,74.84,158.76,79.38,167.83,405.97,Single-ply,SBD,M
Boys,75,13,Defonta Jessie,Navasota,68.49,136.08,68.04,124.74,328.85,Single-ply,SBD,M
Boys,75,14,Dj Daugherty,College Station,71.21,145.15,,154.22,299.37,Single-ply,SD,M
Boys,75,DQ,Rayburn Smith,Anderson-Shiro,71.67,90.72,,,,Single-ply,SBD,M
Boys,75,DQ,Dequarius White,Bryan Rudder,71.21,,,,,Single-ply,SBD,M
Boys,82.5,1,Robert Franklin,College Station A&M; Cons,81.19,235.87,151.95,242.67,630.49,Single-ply,SBD,M
Boys,82.5,2,John Jackson,Hempstead,79.61,174.63,108.86,215.46,498.95,Single-ply,SBD,M
Boys,82.5,3,Drake Bustamante,Bellville,81.65,192.78,106.59,199.58,498.95,Single-ply,SBD,M
Boys,82.5,4,Bryeton Girford,Conroe The Woodlands,81.65,192.78,120.2,179.17,492.15,Single-ply,SBD,M
Boys,82.5,5,James Carpenter,Rogers,80.97,197.31,97.52,188.24,483.08,Single-ply,SBD,M
Boys,82.5,6,Daniel Gregory,Conroe The Woodlands,78.7,158.76,102.06,192.78,453.59,Single-ply,SBD,M
Boys,82.5,7,Desmond Holiday,Navasota,75.3,151.95,104.33,195.04,451.32,Single-ply,SBD,M
Boys,82.5,8,JaKelgein Walter,Navasota,78.02,163.29,90.72,195.04,449.06,Single-ply,SBD,M
Boys,82.5,9,Jack Burgess,Conroe The Woodlands,78.93,158.76,92.99,147.42,399.16,Single-ply,SBD,M
Boys,82.5,DQ,Chad Roebuck,Anderson-Shiro,79.61,136.08,,,,Single-ply,SBD,M
Boys,90,1,Nathan Ellard,College Station,89.13,276.69,165.56,229.06,671.32,Single-ply,SBD,M
Boys,90,2,Mark Wagner,College Station,89.81,240.4,131.54,240.4,612.35,Single-ply,SBD,M
Boys,90,3,Jason Jasperson,College Station A&M; Cons,89.13,226.8,145.15,235.87,607.81,Single-ply,SBD,M
Boys,90,4,Jonathan Jones,Willis,88.68,215.46,140.61,249.48,605.55,Single-ply,SBD,M
Boys,90,5,Cortney Young #2,Rogers,85.5,242.67,129.27,219.99,591.94,Single-ply,SBD,M
Boys,90,6,Ben Wolz,College Station,89.81,229.06,136.08,224.53,589.67,Single-ply,SBD,M
Boys,90,7,Sterling Winzor,Beaumont Ozen,85.96,213.19,138.35,235.87,587.4,Single-ply,SBD,M
Boys,90,8,Isaiah Wright,Waller,89.81,222.26,122.47,242.67,587.4,Single-ply,SBD,M
Boys,90,9,Kyle Polack,Conroe The Woodlands,87.32,204.12,111.13,204.12,519.36,Single-ply,SBD,M
Boys,90,10,Tyrek Houston,Navasota,89.81,204.12,127.01,181.44,512.56,Single-ply,SBD,M
Boys,90,11,Casey Marek,Bellville,89.81,199.58,117.93,190.51,508.02,Single-ply,SBD,M
Boys,90,12,Nick McBride,Conroe The Woodlands,86.18,204.12,108.86,190.51,503.49,Single-ply,SBD,M
Boys,90,13,Sean Dudo,College Station,83.46,176.9,108.86,167.83,453.59,Single-ply,SBD,M
Boys,90,14,Hayden Goodlet,College Station,87.09,176.9,102.06,174.63,453.59,Single-ply,SBD,M
Boys,90,15,Payton Blair,College Station,88,170.1,108.86,174.63,453.59,Single-ply,SBD,M
Boys,90,DQ,Eduardo Maury,Beaumont Ozen,88.9,122.47,77.11,,,Single-ply,SBD,M
Boys,100,1,Joe Thomas,Beaumont Ozen,99.79,294.84,149.69,272.16,716.68,Single-ply,SBD,M
Boys,100,2,DeVarion Guyton,College Station A&M; Cons,91.85,249.48,149.69,258.55,657.71,Single-ply,SBD,M
Boys,100,3,Christian Reza,Beaumont Ozen,92.08,231.33,136.08,217.72,585.13,Single-ply,SBD,M
Boys,100,4,Dereck Morris,Hempstead,91.17,240.4,111.13,231.33,582.87,Single-ply,SBD,M
Boys,100,5,Cortland Brown,Conroe The Woodlands,98.66,233.6,147.42,195.04,576.06,Single-ply,SBD,M
Boys,100,6,Dakota Piper,Livingston,92.99,204.12,149.69,199.58,553.38,Single-ply,SBD,M
Boys,100,7,Kyle Nelson,Bellville,99.79,222.26,104.33,219.99,546.58,Single-ply,SBD,M
Boys,100,8,Jaylnn Bell,Bryan,97.98,199.58,111.13,217.72,528.44,Single-ply,SBD,M
Boys,100,9,Claude Conner,Beaumont Ozen,95.71,165.56,127.01,215.46,508.02,Single-ply,SBD,M
Boys,100,10,Austin Ham,College Station,98.66,231.33,108.86,167.83,508.02,Single-ply,SBD,M
Boys,100,11,Uriel Gutierrez,Magnolia,92.99,181.44,102.06,204.12,487.61,Single-ply,SBD,M
Boys,100,12,Joseph Clay,Sealy,99.79,204.12,113.4,158.76,476.27,Single-ply,SBD,M
Boys,100,13,Mason Cochran,College Station,90.72,185.97,97.52,172.37,455.86,Single-ply,SBD,M
Boys,100,14,Noah Hahn,College Station,95.03,154.22,83.91,142.88,381.02,Single-ply,SBD,M
Boys,100,DQ,Hilario Rodriguez,Navasota,99.79,258.55,,,,Single-ply,SBD,M
Boys,100,DQ,Khamron Thomas,Hempstead,97.07,,,,,Single-ply,SBD,M
Boys,110,1,Zach Solano,Rogers,102.97,274.42,156.49,195.04,625.96,Single-ply,SBD,M
Boys,110,2,Josh Costo,Conroe The Woodlands,100.24,256.28,147.42,215.46,619.15,Single-ply,SBD,M
Boys,110,3,Ronald Lee,Navasota,108.86,235.87,140.61,226.8,603.28,Single-ply,SBD,M
Boys,110,4,Davis Wood,College Station,101.83,242.67,147.42,199.58,589.67,Single-ply,SBD,M
Boys,110,5,Truce Tumlinson,College Station,104.33,226.8,117.93,217.72,562.45,Single-ply,SBD,M
Boys,110,6,Bradley Dorsett,College Station,102.06,219.99,149.69,190.51,560.19,Single-ply,SBD,M
Boys,110,7,Jake Adams,Huntsville,108.86,215.46,133.81,204.12,553.38,Single-ply,SBD,M
Boys,110,8,Dalton Taylor,Magnolia,105.23,235.87,124.74,185.97,546.58,Single-ply,SBD,M
Boys,110,9,Dalton Berel,Magnolia,102.51,158.76,102.06,174.63,435.45,Single-ply,SBD,M
Boys,110,10,Andrew Rhodes,Livingston,104.1,151.95,74.84,163.29,390.09,Single-ply,SBD,M
Boys,110,DQ,Jordian Martin,Brookshire Royal,102.06,,,,,Single-ply,SBD,M
Boys,110,DQ,Cameron Anderson,Bellville,105.69,213.19,,,,Single-ply,SBD,M
Boys,110,DQ,Kaylan Louis,Beaumont Ozen,108.18,174.63,131.54,,,Single-ply,SBD,M
Boys,125,1,Ja'Variuos Sullivan,Bryan,124.51,233.6,131.54,249.48,614.62,Single-ply,SBD,M
Boys,125,2,Felipe Alvarado,Navasota,117.03,258.55,129.27,213.19,601.01,Single-ply,SBD,M
Boys,125,3,Aj Maestre,Conroe The Woodlands,114.08,238.14,147.42,201.85,587.4,Single-ply,SBD,M
Boys,125,4,Hunter Breaux,Bellville,123.47,226.8,161.03,188.24,576.06,Single-ply,SBD,M
Boys,125,5,Y'iligh Hall,Bryan,121.56,190.51,136.08,190.51,517.1,Single-ply,SBD,M
Boys,125,6,Harrison Sorenson,Conroe The Woodlands,116.57,199.58,111.13,190.51,501.22,Single-ply,SBD,M
Boys,125,7,Kolton Benton,Rogers,120.88,204.12,102.06,188.24,494.42,Single-ply,SBD,M
Boys,125,8,Gage Grant,Bryan,113.85,188.24,127.01,172.37,487.61,Single-ply,SBD,M
Boys,125,10,Mason Minor,Bryan,113.4,163.29,131.54,181.44,476.27,Single-ply,SBD,M
Boys,125,DQ,Andrew Seaback,Anderson-Shiro,122.47,,113.4,,,Single-ply,SBD,M
Boys,125,DQ,Jason Vargas,Willis,119.75,238.14,124.74,,,Single-ply,SBD,M
Boys,125+,1,Terry Carter,Livingston,158.3,335.66,190.51,292.57,818.73,Single-ply,SBD,M
Boys,125+,2,De'vonze Franklin,Snook,146.06,294.84,170.1,215.46,680.39,Single-ply,SBD,M
Boys,125+,3,Derrick Rigsby,Huntsville,143.34,278.96,163.29,229.06,671.32,Single-ply,SBD,M
Boys,125+,4,Brandon Bobino,Huntsville,143.79,272.16,163.29,226.8,662.24,Single-ply,SBD,M
Boys,125+,5,Christian Shanahan,Magnolia,135.85,254.01,142.88,215.46,612.35,Single-ply,SBD,M
Boys,125+,6,Jerome Harmon,Beaumont Ozen,127.23,240.4,131.54,213.19,585.13,Single-ply,SBD,M
Boys,125+,7,Coco Campbell,Bryan,134.26,238.14,136.08,192.78,566.99,Single-ply,SBD,M
Boys,125+,8,Kade Bond,Magnolia,128.14,195.04,140.61,195.04,530.7,Single-ply,SBD,M
Boys,125+,9,De'Mondre Wade,Brookshire Royal,134.72,210.92,111.13,199.58,521.63,Single-ply,SBD,M
Boys,125+,11,Troy Glaser,Rogers,139.71,181.44,90.72,140.61,412.77,Single-ply,SBD,M
Boys,125+,DQ,Ethan Mendoza,Rogers,129.27,278.96,167.83,,,Single-ply,SBD,M
