Place,Name,Sex,Event,Division,WeightClassKg,Equipment,BirthYear,Team,State,BodyweightKg,Squat1Kg,Squat2Kg,Squat3Kg,Best3SquatKg,Bench1Kg,Bench2Kg,Bench3Kg,Best3BenchKg,Deadlift1Kg,Deadlift2Kg,Deadlift3Kg,Best3DeadliftKg,TotalKg
DQ,Dhruvi Joshi,F,SBD,R-JR,52,Raw,1997,The Powerlifting Club at Ohio State,OH,50.5,-55,-60,-60,,30,32.5,35,35,70,80,-85,80,
1,Emily McCormic,F,SBD,R-JR,57,Raw,1997,The Powerlifting Club at Ohio State,OH,54.7,62.5,67.5,77.5,77.5,42.5,47.5,50,50,70,82.5,87.5,87.5,215
1,Kelsey Prince,F,SBD,R-JR,63,Raw,1996,,OH,61.1,95,102.5,107.5,107.5,42.5,-50,50,50,95,107.5,-112.5,107.5,265
2,Kayla Berry,F,SBD,R-JR,63,Raw,1996,,OH,62.3,90,95,-100,95,60,62.5,-65,62.5,105,-110,-112.5,105,262.5
3,Emily Berkheimer,F,SBD,R-JR,63,Raw,1997,,IL,58.9,85,90,95,95,52.5,57.5,-62.5,57.5,87.5,95,102.5,102.5,255
1,Kylie Redman,F,SBD,R-JR,72,Raw,1998,,OH,71.6,132.5,-140,140,140,87.5,-92.5,-92.5,87.5,140,147.5,-155,147.5,375
2,Tatum Ross,F,SBD,R-JR,72,Raw,1997,,PA,67.6,102.5,105,110,110,-60,60,-62.5,60,120,125,130,130,300
3,Allegra Delman,F,SBD,R-JR,72,Raw,1998,The Powerlifting Club at Ohio State,OH,70.6,62.5,-75,85,85,57.5,62.5,65,65,102.5,115,122.5,122.5,272.5
4,Lexi Brezovec,F,SBD,R-JR,72,Raw,1998,,OH,70.5,75,-77.5,77.5,77.5,62.5,67.5,70,70,90,97.5,102.5,102.5,250
1,Avery McCauley,F,SBD,R-JR,84,Raw,1997,The Powerlifting Club at Ohio State,OH,80.7,122.5,132.5,-137.5,132.5,77.5,82.5,-87.5,82.5,162.5,172.5,177.5,177.5,392.5
2,Hayley Widman,F,SBD,R-JR,84,Raw,1997,,OH,82.6,85,90,95,95,42.5,50,-55,50,120,132.5,-137.5,132.5,277.5
1,Brooke Conley,F,SBD,R-JR,84+,Raw,1997,The Powerlifting Club at Ohio State,OH,92.3,142.5,150,155,155,65,70,75,75,142.5,150,160,160,390
2,Meghan Sill,F,SBD,R-JR,84+,Raw,1997,,OH,104.4,132.5,135,137.5,137.5,57.5,60,-65,60,132.5,142.5,160,160,357.5
1,Madeline Fitch,F,SBD,R-T3,57,Raw,1999,Miami University Powerlifting,OH,56.2,115,120,122.5,122.5,65,70,-72.5,70,125,130,135,135,327.5
2,Skye Mills,F,SBD,R-T3,57,Raw,1999,,OH,56.2,85,92.5,-102.5,92.5,37.5,42.5,-45,42.5,110,122.5,132.5,132.5,267.5
3,Abigail Maxson-Stabile,F,SBD,R-T3,57,Raw,1999,The Powerlifting Club at Ohio State,OH,55.7,80,87.5,92.5,92.5,35,40,45,45,95,105,115,115,252.5
4,Gillian Deroche,F,SBD,R-T3,57,Raw,1999,The Powerlifting Club at Ohio State,OH,55.7,72.5,80,-85,80,42.5,47.5,52.5,52.5,82.5,90,97.5,97.5,230
1,Hope Cole,F,SBD,R-T3,63,Raw,1998,Miami University Powerlifting,IN,61.2,92.5,100,105,105,47.5,52.5,-55,52.5,120,130,137.5,137.5,295
1,Julia Stephenson,F,SBD,R-T3,72,Raw,1999,The Powerlifting Club at Ohio State,OH,67.3,72.5,77.5,82.5,82.5,35,40,45,45,92.5,102.5,112.5,112.5,240
1,Taylor Selman,F,SBD,R-T3,84+,Raw,2000,Miami University Powerlifting,OH,88.8,-130,132.5,-140,132.5,65,70,-72.5,70,160,165,167.5,167.5,370
1,Ally Seelig,F,SBD,T3,72,Single-ply,1999,,OH,72,157.5,-170,170,170,75,80,-85,80,122.5,137.5,-147.5,137.5,387.5
1,Alexander Lutter,M,SBD,R-JR,74,Raw,1998,Miami University Powerlifting,IL,73.45,130,137.5,145,145,87.5,95,-100,95,162.5,-175,,162.5,402.5
2,Paul Weinstein,M,SBD,R-JR,74,Raw,1998,The Powerlifting Club at Ohio State,PA,73.15,125,-135,-140,125,95,-102.5,-102.5,95,-157.5,157.5,167.5,167.5,387.5
DQ,Brant Imhoff,M,SBD,R-JR,74,Raw,1996,Miami University Powerlifting,OH,72.1,-125,-130,-130,,97.5,-105,-105,97.5,190,200,210,210,
1,Zachary Ramsdell,M,SBD,R-JR,83,Raw,1998,,OH,82.65,220,235,242.5,242.5,135,147.5,-152.5,147.5,275,290,-305,290,680
2,Jacob Combs,M,SBD,R-JR,83,Raw,1998,The Powerlifting Club at Ohio State,OH,82.7,217.5,230,-240,230,155,160,162.5,162.5,200,230,237.5,237.5,630
3,Ryan Tharp,M,SBD,R-JR,83,Raw,1994,The Powerlifting Club at Ohio State,OH,83,195,205,-210,205,150,160,162.5,162.5,215,227.5,235,235,602.5
4,Kevin Yeboah,M,SBD,R-JR,83,Raw,1997,,OH,82,-197.5,197.5,210,210,102.5,-107.5,-110,102.5,227.5,242.5,260,260,572.5
5,Ben Purugganan,M,SBD,R-JR,83,Raw,1996,The Powerlifting Club at Ohio State,OH,81.15,185,192.5,202.5,202.5,117.5,-120,120,120,-220,230,240,240,562.5
6,Jack Kirschler,M,SBD,R-JR,83,Raw,1998,,PA,80.9,165,-182.5,-182.5,165,102.5,117.5,125,125,217.5,230,237.5,237.5,527.5
7,Damon Oprean,M,SBD,R-JR,83,Raw,1998,,OH,82.35,185,-192.5,192.5,192.5,110,115,-120,115,192.5,-200,200,200,507.5
8,David Oliver,M,SBD,R-JR,83,Raw,1996,,KY,79.5,150,170,175,175,110,-120,120,120,180,200,-220,200,495
9,Luis Peralta,M,SBD,R-JR,83,Raw,1996,,OH,80.4,170,180,-192.5,180,105,-110,-110,105,185,197.5,210,210,495
10,Daniel Cirkovic,M,SBD,R-JR,83,Raw,1997,Miami University Powerlifting,OH,82.25,150,165,175,175,100,107.5,-112.5,107.5,180,200,210,210,492.5
11,Michael Reimer,M,SBD,R-JR,83,Raw,1997,Miami University Powerlifting,OH,74.5,130,140,-150,140,-102.5,110,117.5,117.5,170,185,195,195,452.5
12,Conor Cleveland,M,SBD,R-JR,83,Raw,1997,,IL,81.8,137.5,-145,-145,137.5,102.5,110,115,115,162.5,175,182.5,182.5,435
13,Ehab Hassouna,M,SBD,R-JR,83,Raw,1998,The Powerlifting Club at Ohio State,OH,79.6,112.5,122.5,127.5,127.5,77.5,-85,-85,77.5,162.5,172.5,182.5,182.5,387.5
1,Nicolas Bolt,M,SBD,R-JR,93,Raw,1997,,IN,90.55,227.5,235,-237.5,235,147.5,152.5,157.5,157.5,245,-260,-260,245,637.5
2,Joshua Bensur,M,SBD,R-JR,93,Raw,1998,The Powerlifting Club at Ohio State,OH,87.15,220,232.5,-237.5,232.5,150,-157.5,162.5,162.5,237.5,-252.5,-252.5,237.5,632.5
3,Quinn Graehling,M,SBD,R-JR,93,Raw,1996,,OH,90.25,205,217.5,-227.5,217.5,150,160,165,165,225,-237.5,237.5,237.5,620
4,Zane Augustine,M,SBD,R-JR,93,Raw,1994,,PA,90.8,-210,210,-227.5,210,-140,140,-150,140,235,245,265,265,615
5,James Chung,M,SBD,R-JR,93,Raw,1998,The Powerlifting Club at Ohio State,MI,91.6,182.5,195,205,205,120,130,-137.5,130,190,202.5,210,210,545
6,Erik High,M,SBD,R-JR,93,Raw,1997,The Powerlifting Club at Ohio State,OH,89,150,160,170,170,122.5,127.5,132.5,132.5,217.5,230,240,240,542.5
7,Benjamin Storsved,M,SBD,R-JR,93,Raw,1998,Miami University Powerlifting,IL,92.25,185,192.5,200,200,102.5,115,120,120,192.5,207.5,-215,207.5,527.5
8,Matthew Garrett,M,SBD,R-JR,93,Raw,1997,,OH,92.8,150,167.5,182.5,182.5,105,117.5,125,125,172.5,185,200,200,507.5
9,Irakli Siradze,M,SBD,R-JR,93,Raw,1997,,KY,90.65,-135,145,150,150,-125,135,140,140,160,170,185,185,475
1,Matt Pagliaro,M,SBD,R-JR,105,Raw,1997,,PA,102.8,197.5,227.5,245,245,137.5,155,177.5,177.5,235,262.5,287.5,287.5,710
2,Antonio Thomas,M,SBD,R-JR,105,Raw,1996,,OH,96.6,217.5,232.5,242.5,242.5,137.5,147.5,155,155,285,305,-317.5,305,702.5
3,Jared Cook,M,SBD,R-JR,105,Raw,1997,,OH,101.6,227.5,237.5,-247.5,237.5,147.5,155,-160,155,232.5,247.5,-252.5,247.5,640
4,Eromogbai Omoijuanfo,M,SBD,R-JR,105,Raw,1997,,OH,103.6,175,190,205,205,125,135,142.5,142.5,220,235,-255,235,582.5
5,Alex Newman-Caro,M,SBD,R-JR,105,Raw,1997,,TX,100.3,182.5,192.5,200,200,132.5,142.5,-147.5,142.5,210,227.5,237.5,237.5,580
6,Ryan Wielgos,M,SBD,R-JR,105,Raw,1997,,IL,103.7,210,-220,,210,130,135,142.5,142.5,220,227.5,-232.5,227.5,580
DQ,Zachary Fritz,M,SBD,R-JR,105,Raw,1996,Miami University Powerlifting,OH,99.4,185,190,-195,190,-132.5,-135,-135,,187.5,,,187.5,
1,Jacob Basile,M,SBD,R-JR,120,Raw,1995,,NY,115.4,257.5,270,277.5,277.5,185,192.5,200,200,285,295,307.5,307.5,785
2,Drew Zimmer,M,SBD,R-JR,120,Raw,1996,,OH,117.9,195,202.5,215,215,127.5,137.5,147.5,147.5,190,,,190,552.5
DQ,Alex Logsdon,M,SBD,R-JR,120,Raw,1995,Miami University Powerlifting,OH,118.8,-192.5,192.5,-202.5,192.5,-142.5,-142.5,-142.5,,205,220,227.5,227.5,
1,Mason Cordes,M,SBD,R-JR,120+,Raw,1997,,OH,135,250,265,-280,265,150,162.5,-175,162.5,200,220,235,235,662.5
2,Ian Finkelstein,M,SBD,R-JR,120+,Raw,1996,,FL,154.9,202.5,210,227.5,227.5,147.5,165,-170,165,227.5,237.5,250,250,642.5
3,Mike Berg,M,SBD,R-JR,120+,Raw,1997,,IL,126.35,225,-232.5,-232.5,225,132.5,137.5,-145,137.5,225,-237.5,,225,587.5
1,Josh Davis,M,SBD,R-O,74,Raw,1993,,OH,73.6,210,222.5,230,230,132.5,140,145,145,225,240,257.5,257.5,632.5
1,Thomas Dunkin,M,SBD,R-O,83,Raw,1993,,OH,74.6,160,162.5,177.5,177.5,105,110,117.5,117.5,195,205,215,215,510
1,David Corrigan,M,SBD,R-O,120+,Raw,1993,The Powerlifting Club at Ohio State,OH,158.6,225,232.5,250,250,165,177.5,185,185,225,237.5,247.5,247.5,682.5
1,Cameron Casenhiser,M,SBD,R-T3,66,Raw,1999,The Powerlifting Club at Ohio State,OH,65,155,165,175,175,92.5,100,-102.5,100,155,167.5,-177.5,167.5,442.5
2,Ahmed Alfaysale,M,SBD,R-T3,66,Raw,2000,The Powerlifting Club at Ohio State,OH,65.2,110,120,127.5,127.5,90,95,100,100,150,165,170,170,397.5
1,Nicklas Haddad,M,SBD,R-T3,74,Raw,1998,The Powerlifting Club at Ohio State,OH,72.6,177.5,187.5,195,195,117.5,122.5,-127.5,122.5,-207.5,215,227.5,227.5,545
DQ,Philip O'Dell,M,SBD,R-T3,74,Raw,1999,Miami University Powerlifting,OH,70.85,150,157.5,162.5,162.5,120,125,127.5,127.5,-192.5,-197.5,-197.5,,
1,Daniel Kosmin,M,SBD,R-T3,83,Raw,1999,,OH,82.2,182.5,195,202.5,202.5,102.5,107.5,112.5,112.5,220,232.5,-237.5,232.5,547.5
2,Evan Bauer,M,SBD,R-T3,83,Raw,2000,Miami University Powerlifting,OH,81.15,182.5,195,,195,100,107.5,-127.5,107.5,182.5,205,217.5,217.5,520
3,Jonathan Crothers,M,SBD,R-T3,83,Raw,1999,Miami University Powerlifting,OH,81.25,145,-150,155,155,122.5,-130,-130,122.5,177.5,187.5,200,200,477.5
1,Austin Waterwall,M,SBD,R-T3,93,Raw,1998,Miami University Powerlifting,IL,92.75,175,182.5,192.5,192.5,130,137.5,-142.5,137.5,187.5,200,207.5,207.5,537.5
2,Robert Jacobson,M,SBD,R-T3,93,Raw,2000,Miami University Powerlifting,GA,87.75,-145,152.5,160,160,105,117.5,-122.5,117.5,185,217.5,222.5,222.5,500
DQ,John Rozelle,M,SBD,R-T3,120,Raw,1999,Miami University Powerlifting,OH,109.8,-175,185,190,190,125,-135,,125,-265,-272.5,-272.5,,
