Name,Flair
Alex Campbell #1,bbbc
Alexander Stram,bbbc
Andre Desesa,bbbc
Andrew Herbert,bbbc
Barrett Marum,bbbc
Boris Lerner,bbbc
Carlos Leon,bbbc
Christy Cordeiro-Pugh,bbbc
Dan Green,bbbc
Dana Applegarth,bbbc
Dana Shim-Palama,bbbc
Daniel Cook #1,bbbc
Daniel Gur,bbbc
David Blonski,bbbc
Davy Capriles,bbbc
Deborah Stern,bbbc
Dima Rumanov,bbbc
Don Ehasz,bbbc
Ekaterina Taralova,bbbc
Ellen Seidel,bbbc
Emily Hu #1,bbbc
Eric Bentley,bbbc
Jake Suba,bbbc
Jeff Justo,bbbc
Jeff Pugh,bbbc
Jimmy Doyle,bbbc
Joe Seiden,bbbc
Jordan Shallow,bbbc
Joseph Park,bbbc
Josh Caldwell,bbbc
Julia Bringans,bbbc
Kevin Downing,bbbc
Kevin Howie,bbbc
Kevin Sosa,bbbc
Kristy Hawkins,bbbc
Linda Chan,bbbc
Madai Nguyen,bbbc
Mark Micire,bbbc
Matthew Tanaka,bbbc
Maximiliano Mendez,bbbc
Michael Hsiung,bbbc
Michael Zundelevich,bbbc
Mike Conley #1,bbbc
Mike Rubinetti,bbbc
Newton Cheng,bbbc
Patrick Ngo,bbbc
Paul Bohm,bbbc
Paulo Tanaka,bbbc
Rachael Johnson,bbbc
Ray Jimenez,bbbc
Rick Love,bbbc
Robbie Capriles,bbbc
Roland Kalani-Palama,bbbc
Sarah Wellberg,bbbc
Sean Stangl,bbbc
Szu Han Yang,bbbc
Terrian Ashley,bbbc
TJ Bryant,bbbc
Veronica Viar,bbbc
Yaniv Gur,bbbc
