Place,Name,State,WeightClassKg,BodyweightKg,Age,Best3SquatKg,Best3BenchKg,Best3DeadliftKg,TotalKg,Sex,Division,Equipment,Event
1,Julia Meszaros,NY,60,59.90,24,55.00,37.50,102.50,195.00,F,Open,Raw,SBD
1,Gage Bates,NY,90,88.70,18,157.50,135.00,200.00,492.50,M,Juniors 18-19,Raw,SBD
1,Dave Crawford,NY,67.5,67.10,31,142.50,95.00,197.50,435.00,M,Open,Raw,SBD
1,Darren McGreevy,NY,90,87.54,25,225.00,147.50,230.00,602.50,M,Open,Raw,SBD
1,Andrew Gooley,NY,75,73.90,23,227.50,115.00,250.00,592.50,M,Open,Wraps,SBD
1,Mark Chieco,NY,110,106.80,38,255.00,225.00,257.50,737.50,M,Submasters 35-39,Wraps,SBD
1,Terri Korba,NY,90,86.20,50,,67.50,,67.50,F,Masters 50-54,Raw,B
1,Tom Knuth,NY,100,93.90,60,,125.00,,125.00,M,Masters 60-64,Raw,B
