Place,Name,State,WeightClassKg,BodyweightKg,Age,Best3SquatKg,Best3BenchKg,Best3DeadliftKg,TotalKg,Sex,Division,Equipment,Deadlift4Kg,Event
1,Amanda Adkison,TX,48,47.4,21,60,47.5,100,207.5,F,Juniors 20-23,Raw,,SBD
1,Melanie Johnson,OK,67.5,60.6,19,95,67.5,105,267.5,F,Juniors 18-19,Raw,,SBD
1,Alexandra Peek,TX,67.5,64.6,22,110,67.5,130,307.5,F,Juniors 20-23,Raw,,SBD
1,Nicole Miller,TX,56,52.6,33,92.5,57.5,105,255,F,Open,Raw,,SBD
2,Jadie Hooten,TX,56,54,32,97.5,42.5,92.5,232.5,F,Open,Raw,,SBD
1,Van Nguyen,TX,60,59.4,29,137.5,57.5,145,340,F,Open,Raw,,SBD
2,Missy Calkins,TX,60,60,32,120,65,142.5,327.5,F,Open,Raw,,SBD
3,Chelsie Hustad,FL,60,56.4,24,105,75,112.5,292.5,F,Open,Raw,,SBD
4,Stephanie Bunch,TX,60,58.6,24,102.5,65,120,287.5,F,Open,Raw,,SBD
1,Sara Frankovich-Hannie,LA,67.5,64.6,30,120,60,142.5,322.5,F,Open,Raw,,SBD
2,Dominique Trimino,TX,67.5,67.2,32,100,60,125,285,F,Open,Raw,,SBD
3,Melanie Johnson,OK,67.5,60.6,19,95,67.5,105,267.5,F,Open,Raw,,SBD
1,Ashley Garcia,TX,75,74,35,152.5,87.5,187.5,427.5,F,Open,Raw,,SBD
2,Princess Lynch,TX,75,73.2,40,120,72.5,137.5,330,F,Open,Raw,138,SBD
3,Neaomi Quartucci,TX,75,74.8,41,122.5,57.5,125,305,F,Open,Raw,,SBD
1,Stephanie Lunday,TX,90,89.2,28,102.5,67.5,117.5,287.5,F,Open,Raw,,SBD
1,Nicole Hawk,TX,90+,147.6,33,87.5,52.5,130,270,F,Open,Raw,,SBD
DQ,Kristi Hargrove,TX,67.5,60.8,39,-82.5,47.5,107.5,,F,Submasters 35-39,Raw,,SBD
1,Ashley Garcia,TX,75,74,35,152.5,87.5,187.5,427.5,F,Submasters 35-39,Raw,,SBD
1,Jennifer Dureja,TX,90+,101.2,39,90,57.5,125,272.5,F,Submasters 35-39,Raw,,SBD
1,Julie Holloway,TX,52,49,56,75,42.5,107.5,225,F,Masters 55-59,Raw,,SBD
1,Kim Garcia,TX,56,52.8,42,82.5,47.5,105,235,F,Masters 40-44,Raw,,SBD
1,Princess Lynch,TX,75,73.2,40,120,72.5,137.5,330,F,Masters 40-44,Raw,138,SBD
1,Neaomi Quartucci,TX,75,74.8,41,122.5,57.5,125,305,F,Masters 40-44,Raw,,SBD
2,Melissa Langan,TX,75,75,40,80,65,132.5,277.5,F,Masters 40-44,Raw,,SBD
1,Fatima Patterson,TX,90,84.8,41,102.5,77.5,122.5,302.5,F,Masters 40-44,Raw,,SBD
1,Tyra Humphries,TX,90+,120.6,41,137.5,70,127.5,335,F,Masters 40-44,Raw,,SBD
2,Patti Fuchs,FL,90+,112.4,42,92.5,55,120,267.5,F,Masters 40-44,Raw,,SBD
1,Mariano Diaz,TX,75,70,17,157.5,90,185,432.5,M,Juniors 16-17,Raw,,SBD
1,Devin Kumar,TX,75,74.2,19,157.5,107.5,190,455,M,Juniors 18-19,Raw,,SBD
1,Adrain Cosio,TX,75,70,21,132.5,95,145,372.5,M,Juniors 20-23,Raw,,SBD
1,Chris Ungaro,TX,90,88.2,21,167.5,122.5,212.5,502.5,M,Juniors 20-23,Raw,,SBD
1,Ruben Velasquez,TX,100,99.8,20,287.5,170,277.5,735,M,Juniors 20-23,Raw,,SBD
2,Adam Floyd,TX,100,99.6,20,175,157.5,237.5,570,M,Juniors 20-23,Raw,,SBD
1,Sergio Valdes,TX,110,109,22,150,120,205,475,M,Juniors 20-23,Raw,,SBD
1,Harrison Hargis,TX,140,139.6,21,255,165,290,710,M,Juniors 20-23,Raw,,SBD
DQ,Michael Powers,NY,140,137.6,23,320,192.5,-332.5,,M,Juniors 20-23,Raw,,SBD
1,Chris Primeau,TX,75,75,30,202.5,142.5,212.5,557.5,M,Open,Raw,,SBD
2,Ryan Nolan,TX,75,73.6,25,170,142.5,227.5,540,M,Open,Raw,,SBD
3,Calvin Hovsepian,TX,75,74.8,25,197.5,122.5,215,535,M,Open,Raw,,SBD
4,Daniel Albaugh,TX,75,75,33,187.5,125,207.5,520,M,Open,Raw,,SBD
5,Seth Luague,TX,75,74.6,33,162.5,127.5,212.5,502.5,M,Open,Raw,,SBD
6,Jeremy Nguyen,TX,75,73.8,25,167.5,112.5,200,480,M,Open,Raw,,SBD
DQ,Samuel Edmonson,TX,75,75,30,140,87.5,-165,,M,Open,Raw,,SBD
1,Benjamin Rowe,TX,82.5,82.2,40,245,165,255,665,M,Open,Raw,,SBD
2,Justin Kimmel,OK,82.5,75.8,26,197.5,162.5,250,610,M,Open,Raw,,SBD
3,Ty Burge,TX,82.5,80,27,180,110,185,475,M,Open,Raw,,SBD
DQ,Varun Koyyalagunta,TX,82.5,81,27,140,-82.5,170,,M,Open,Raw,,SBD
1,Carlton Johnson,Tx,90,88.4,38,225,165,272.5,662.5,M,Open,Raw,,SBD
2,Blaine Terry,TX,90,88.4,28,215,165,275,655,M,Open,Raw,,SBD
3,Kerrick Hamilton,TX,90,89,42,207.5,170,227.5,605,M,Open,Raw,,SBD
4,Robert Mouton,TX,90,89,36,215,137.5,245,597.5,M,Open,Raw,,SBD
5,Brandon Janeck,TX,90,88.2,28,195,150,242.5,587.5,M,Open,Raw,,SBD
6,Logan Brooks,TX,90,89.2,25,167.5,152.5,205,525,M,Open,Raw,,SBD
7,Ryo Fuji,TX,90,88.6,27,180,127.5,195,502.5,M,Open,Raw,,SBD
8,Michael LaTurner,LA,90,84.2,22,172.5,100,185,457.5,M,Open,Raw,,SBD
1,James Sweeney,TX,100,100,33,287.5,190,327.5,805,M,Open,Raw,,SBD
2,Scott Longhofer,TX,100,98.8,24,280,205,287.5,772.5,M,Open,Raw,,SBD
3,Ruben Velasquez,TX,100,99.8,20,287.5,170,277.5,735,M,Open,Raw,,SBD
DQ,CJ McFarland,TX,100,98.8,24,-215,175,222.5,,M,Open,Raw,,SBD
1,Corey Tune,TX,125,110.8,37,205,187.5,295,687.5,M,Open,Raw,,SBD
1,Harrison Hargis,TX,140,139.6,21,255,165,290,710,M,Open,Raw,,SBD
1,Matt Hawk,TX,140+,147.2,39,222.5,150,230,602.5,M,Open,Raw,,SBD
1,Carlton Johnson,TX,90,88.4,38,225,165,272.5,662.5,M,Submasters 35-39,Raw,,SBD
1,Stephen Malcik,TX,110,106,35,195,150,230,575,M,Submasters 35-39,Raw,,SBD
1,Charles King,TX,75,74,53,160,135,187.5,482.5,M,Masters 50-54,Raw,,SBD
1,Kerrick Hamilton,TX,90,89,42,207.5,170,227.5,605,M,Masters 40-44,Raw,,SBD
1,Antonio Mancini,TX,90,87.2,45,145,150,225,520,M,Masters 45-49,Raw,,SBD
1,Todd Knickman,TX,110,107.6,47,230,195,275,700,M,Masters 45-49,Raw,,SBD
2,David Nix,TX,110,109.8,47,225,160,205,590,M,Masters 45-49,Raw,,SBD
1,Greg Hargis,TX,125,123.8,49,200,137.5,297.5,635,M,Masters 45-49,Raw,,SBD
1,Pablo Cavazos,TX,67.5,66.6,16,195,87.5,215,497.5,M,Juniors,Wraps,,SBD
1,John Jones #1,OK,100,98.6,21,235,172.5,265,672.5,M,Juniors 20-23,Wraps,,SBD
1,Taylor Zapalac,TX,110,109.6,23,265,192.5,230,687.5,M,Juniors 20-23,Wraps,,SBD
1,Yuri Rogoshenkov,TX,125,124,21,227.5,142,230,599.5,M,Juniors 20-23,Wraps,,SBD
1,Joe Bider,TX,90,88.4,33,260,147.5,272.5,680,M,Open,Wraps,,SBD
2,Mike Padilla,TX,90,88.8,47,220,150,227.5,597.5,M,Open,Wraps,,SBD
1,King Supa,TX,100,98.2,28,272.5,175,280,727.5,M,Open,Wraps,,SBD
1,Cruz Holguin,OK,110,108,24,212.5,167.5,245,625,M,Open,Wraps,,SBD
1,Rob Hall,TX,140,136.2,27,365,265,357.5,987.5,M,Open,Wraps,,SBD
2,Edward McKinnis,TX,140,139.9,27,365,242.5,345,952.5,M,Open,Wraps,,SBD
1,Victor Reza,TX,82.5,81.6,41,187.5,150,227.5,565,M,Masters 40-44,Wraps,,SBD
1,Mike Padilla,TX,90,88.8,47,220,150,227.5,597.5,M,Masters 45-49,Wraps,,SBD
1,Hal Carlson,TX,140,130.4,40,290,210,67.5,567.5,M,Masters 40-44,Wraps,,SBD
1,Bradley Schwartzengraber,TX,75,72.8,18,197.5,135,202.5,535,M,Juniors 18-19,Single-ply,,SBD
1,Gin Ivey,TX,67.5,66.8,17,200,127.5,222.5,550,M,Open,Single-ply,,SBD
1,Adam Morrell,TX,90,89.2,36,242.5,122.5,232.5,597.5,M,Submasters 35-39,Single-ply,,SBD
1,Jason Getting,TX,100,97.8,38,,165.5,235,400.5,M,Submasters 35-39,Raw,,BD
1,Missy Calkins,TX,60,60,32,,65,,65,F,Open,Raw,,B
1,Ashley Garcia,TX,75,74,35,,87.5,,87.5,F,Open,Raw,,B
1,Ashley Garcia,TX,75,74,35,,87.5,,87.5,F,Submasters 35-39,Raw,,B
1,Kim Garcia,TX,56,52.8,42,,47.5,,47.5,F,Masters 40-44,Raw,,B
1,Damian Schultz,TX,75,72.8,19,,110,,110,M,Juniors 18-19,Raw,,B
1,Chris Ungaro,TX,90,88.2,21,,122.5,,122.5,M,Juniors 20-23,Raw,,B
1,Damian Schultz,TX,75,72.8,19,,110,,110,M,Open,Raw,,B
1,Kerrick Hamilton,TX,90,89,42,,170,,170,M,Open,Raw,,B
2,Josh Nooner,TX,90,88.2,24,,165,,165,M,Open,Raw,,B
1,CJ McFarland,TX,100,98.8,24,,175,,175,M,Open,Raw,,B
2,Frederick Hannie,TX,100,99.2,31,,175,,175,M,Open,Raw,,B
1,Kerrick Hamilton,TX,90,89,42,,170,,170,M,Masters 40-44,Raw,,B
1,Todd Knickman,TX,110,107.6,47,,195,,195,M,Masters 45-49,Raw,,B
1,Greg Powell,TX,100,98.4,50,,320.5,,320.5,M,Open,Single-ply,,B
1,Mariah Perez,TX,52,49.6,15,,,90,90,F,Juniors 13-15,Raw,,D
1,Missy Calkins,TX,60,60,32,,,142.5,142.5,F,Open,Raw,,D
1,Ashley Garcia,TX,75,74,35,,,187.5,187.5,F,Open,Raw,,D
1,Ashley Garcia,TX,75,74,35,,,187.5,187.5,F,Submasters 35-39,Raw,,D
1,Kim Garcia,TX,56,52.8,42,,,105,105,F,Masters 40-44,Raw,,D
1,Chris Ungaro,TX,90,88.2,21,,,212.5,212.5,M,Juniors 20-23,Raw,,D
1,Mike Padilla,TX,90,88.8,47,,,227.5,227.5,M,Open,Raw,,D
2,Kerrick Hamilton,TX,90,89,42,,,227.5,227.5,M,Open,Raw,,D
1,CJ McFarland,TX,100,98.8,24,,,222.5,222.5,M,Open,Raw,,D
1,Kerrick Hamilton,TX,90,89,42,,,227.5,227.5,M,Masters 40-44,Raw,,D
1,Mike Padilla,TX,90,88.8,47,,,227.5,227.5,M,Masters 45-49,Raw,,D
1,Bruce Koch,TX,125,115,54,,,275,275,M,Masters 50-54,Raw,,D
