Place,Name,Division,Country,BodyweightKg,Squat1Kg,Squat2Kg,Squat3Kg,Best3SquatKg,Squat4Kg,Bench1Kg,Bench2Kg,Bench3Kg,Best3BenchKg,Bench4Kg,Deadlift1Kg,Deadlift2Kg,Deadlift3Kg,Best3DeadliftKg,Deadlift4Kg,TotalKg,WeightClassKg,Sex,Equipment,Event
1,Sabine Guillaume,O,France,46.9,120,125,,125,,65,70,-72.5,70,,140,150,152.5,152.5,,347.5,48,F,Multi-ply,SBD
1,Rena Aliyeva,O,Azerbaijan,56,130,150,170,170,,70,80,-90,80,,140,150,160,160,,410,56,F,Multi-ply,SBD
1,Eva Orenicová,M4,Czechia,54.5,120,130,135,135,,75,80,85,85,,110,115,120,120,,340,56,F,Multi-ply,SBD
1,Elena Šímová,O,Czechia,60,150,157.5,165,165,,85,-90,90,90,,140,150,157.5,157.5,,412.5,60,F,Multi-ply,SBD
1,Lesley Jayne Thomas,M1,UK,59.3,130,140,150,150,,65,-75,75,75,,130,140,145,145,,370,60,F,Multi-ply,SBD
1,Kelly Sohier,J,Belgium,67.5,160,170,-180,170,,75,-80,-80,75,,165,175,180,180,-185,425,67.5,F,Multi-ply,SBD
1,Yulia Medvedeva,O,Russia,67.2,180,200,,200,,130,-140,-140,130,,170,180,,180,,510,67.5,F,Multi-ply,SBD
1,Olga Miglāne,M1,Latvia,64.1,130,140,152.5,152.5,,65,70,-75,70,,130,137.5,142.5,142.5,,365,67.5,F,Multi-ply,SBD
1,Irina Petrovich,O,Belarus,68.2,155,165,172.5,172.5,,100,110,112.5,112.5,,180,192.5,197.5,197.5,,482.5,75,F,Multi-ply,SBD
1,Libuše Leiblová,M2,Czechia,75,-130,130,140,140,,-115,115,-120,115,,140,150,160,160,,415,75,F,Multi-ply,SBD
1,Satu Kalmi,J,Finland,76.5,150,165,175,175,183,90.5,-95.5,97.5,97.5,,130,140,152.5,152.5,-167.5,425,82.5,F,Multi-ply,SBD
1,Natalija Ņikitina,O,Latvia,91,135,-145,145,145,,70,80,-90,80,,140,150,155,155,,380,90+,F,Multi-ply,SBD
2,Jana Sindelarova,O,Czechia,97.3,85,-110,110,110,,45,50,-52.5,50,,95,110,125,125,,285,90+,F,Multi-ply,SBD
1,Ritvars Grebers,T1,Slovakia,50,100,117.5,-122.5,117.5,,37.5,42.5,,42.5,,90,100,-105,100,,260,52,M,Multi-ply,SBD
1,Matej Kovac,T2,Slovakia,56,130,145,155,155,,85,90,95,95,,150,160,165,165,,415,56,M,Multi-ply,SBD
1,Joachim De Rudder,T3,Belgium,66.7,-202.5,202.5,-215,202.5,,125,130,-135,130,,200,220,230.5,230.5,237.5,563,67.5,M,Multi-ply,SBD
1,Jiri Olenjuk,J,Czechia,67.5,150,-160,160,160,,-120,-120,120,120,,160,175,182.5,182.5,,462.5,67.5,M,Multi-ply,SBD
1,Yalcin Baqirov,O,Azerbaijan,67.5,210,230,-240,230,,130,-137.5,,130,,217.5,237.5,252.5,252.5,,612.5,67.5,M,Multi-ply,SBD
2,Dennis Lawlor,O,Ireland,61.1,80,-90,92.5,92.5,,35,60,62.5,62.5,,100,120,-130,120,,275,67.5,M,Multi-ply,SBD
1,Dominik Kacala,T1,Slovakia,74,170,185,195,195,,110,115,,115,,175,190,200,200,212.5,510,75,M,Multi-ply,SBD
1,Martin Macko,J,Slovakia,73.3,260,272.5,282.5,282.5,,150,157.5,-165,157.5,,-230,-230,230,230,257.5,670,75,M,Multi-ply,SBD
2,Jan Mikolaj,J,Slovakia,73.9,235,250,255,255,,135,140,145,145,,235,245,256.5,256.5,258,656.5,75,M,Multi-ply,SBD
1,Gerard McNamara,M1,Ireland,73.5,320,340,-355,340,,160,175,-180,175,,230,245,250,250,,765,75,M,Multi-ply,SBD
1,Burkhard Steffen,M4,Germany,70.2,125,135,145,145,,100,102.5,105,105,,135,142.5,150,150,,400,75,M,Multi-ply,SBD
1,Janis Paulukas,M5,Latvia,72.8,-190,190,,190,,135,142.5,150,150,,-210,210,,210,,550,75,M,Multi-ply,SBD
1,Brieuc De Rudder,J,Belgium,76.2,185,200,205,205,,97.5,105,107.5,107.5,,175,192.5,200,200,,512.5,82.5,M,Multi-ply,SBD
1,Daniel Tatarka,O,Slovakia,79.2,240,250,-260,250,,150,160,167.5,167.5,,220,230,,230,,647.5,82.5,M,Multi-ply,SBD
2,Didier Hafer,O,France,81.4,180,205,215,215,,120,130,-140,130,,180,210,-225,210,,555,82.5,M,Multi-ply,SBD
1,Igor Moroz,M1,Russia,82.3,280,300,310.5,310.5,,160,172.5,-180,172.5,,240,260,272.5,272.5,,755.5,82.5,M,Multi-ply,SBD
1,Stanislav Hoza,M3,Czechia,82.1,240,-270,285,285,292.5,170,175,180,180,,210,230,-240,230,,695,82.5,M,Multi-ply,SBD
1,Jozef Völgyák,M4,Slovakia,81.9,200,210,220,220,,145,150,-155,150,,200,210,,210,,580,82.5,M,Multi-ply,SBD
1,Anatolijs Kuzmins,M6,Latvia,75.4,100,125,140,140,,100,110,115,115,,130,145,,145,,400,82.5,M,Multi-ply,SBD
1,Jurijs Lavrovs,M7,Latvia,81.4,110,115,120,120,,80,85,-87.5,85,,137.5,-142.5,142.5,142.5,,347.5,82.5,M,Multi-ply,SBD
1,Radek Vrana,T2,Czechia,85.7,125,155,170,170,,70,85,90,90,,140,155,170,170,,430,90,M,Multi-ply,SBD
1,Jiri Vojtech,J,Czechia,84.7,240,255,270,270,,190,200,-210,200,,250,-275,-275,250,,720,90,M,Multi-ply,SBD
2,David Geny,J,France,88.5,160,205,-210,205,,150,157.5,160,160,,220,230,-242.5,230,,595,90,M,Multi-ply,SBD
1,Viktor Horák,O,Czechia,90,310,320,-330,320,,200,210,220,220,,-250,250,,250,,790,90,M,Multi-ply,SBD
2,Adam Brooks,O,UK,89.3,290,310,320,320,,170,180,-187.5,180,,250,262.5,-270,262.5,,762.5,90,M,Multi-ply,SBD
3,Roland Kerekes,O,Slovakia,86.9,270,280,290,290,,175,-185,-190,175,,260,275,-285,275,,740,90,M,Multi-ply,SBD
4,Robert Kurmann,O,Switzerland,89.9,-260,-260,260,260,,170,180,-190,180,,270,-290,290,290,,730,90,M,Multi-ply,SBD
1,Aleksandrs Miglāns,M2,Latvia,86.4,240,255,-265,255,,150,160,170,170,,225,,,225,,650,90,M,Multi-ply,SBD
2,Petr Chvatal,M2,Czechia,86.8,180,190,195,195,,120,130,-132.5,130,,200,215,,215,,540,90,M,Multi-ply,SBD
1,Frank Thomas Kutzsch,M3,Germany,88.7,230,242.5,-250,242.5,,160,167.5,172.5,172.5,,225,245,250,250,,665,90,M,Multi-ply,SBD
1,Josef Janecek,T2,Czechia,96.5,180,190,195,195,,110,125,130,130,,180,200,210,210,,535,100,M,Multi-ply,SBD
2,Vojtich Marhoul,T2,Czechia,99.3,160,180,200,200,,100,110,-115,110,,170,197.5,-217.5,197.5,,507.5,100,M,Multi-ply,SBD
1,Peter Janis,T3,Slovakia,90.8,240,250,260,260,,185,195,-200.5,195,,235,245,252.5,252.5,,707.5,100,M,Multi-ply,SBD
1,David Belovezcfk,J,Slovakia,98.7,280,295,307.5,307.5,,145,150,152.5,152.5,,280,292.5,300,300,,760,100,M,Multi-ply,SBD
2,Pauli Rahkonen,J,Finland,97.8,260,275,300,300,,165,175,-185,175,,260,275,,275,,750,100,M,Multi-ply,SBD
1,Jaromír Kratochvíl,O,Czechia,99.5,340,360,375,375,,220,230,,230,,270,-295,-295,270,,875,100,M,Multi-ply,SBD
2,Jiří Hačkulič,O,Czechia,97,270,290,310,310,,190,205,220,220,,265,285,-302.5,285,,815,100,M,Multi-ply,SBD
3,Jiří Stejskal,O,Czechia,99.9,280,300,310,310,,180,190,-195,190,,280,300,-317.5,300,,800,100,M,Multi-ply,SBD
4,Jaromír Šruc,O,Czechia,95.8,280,300,310,310,,180,-190,-190,180,,230,240,250,250,,740,100,M,Multi-ply,SBD
5,Petr Palacky,O,Czechia,97.1,240,255,265,265,,-170,-170,170,170,,250,270,-280,270,,705,100,M,Multi-ply,SBD
DQ,Franck Weiss,O,France,99.8,250,-270,270,270,,-200,-200,-200,,,250,270,-280,270,,,100,M,Multi-ply,SBD
1,Steve Hunter,M1,UK,99.1,240,265,-285,265,,170,190,200,200,,260,270,,270,,735,100,M,Multi-ply,SBD
1,Sam Graham,M2,UK,95.2,290,320,,320,,170,-180,-180,170,,260,285,-300,285,,775,100,M,Multi-ply,SBD
1,George McAfee,M3,UK,100,325,-355,-376,325,,170,-192.5,-195,170,,290,,,290,,785,100,M,Multi-ply,SBD
2,Libor Hurdálek,M3,Czechia,94.8,210,-225,-225,210,,130,-140,140,140,,190,220,-230,220,,570,100,M,Multi-ply,SBD
1,Tomas Vrana,T3,Czechia,103.4,170,220,245,245,,120,150,-180,150,,170,-220,220,220,,615,110,M,Multi-ply,SBD
1,Jakub Gutveis,J,Czechia,102.1,190,210,220,220,,170,190,200,200,,210,230,235,235,,655,110,M,Multi-ply,SBD
1,Martin Košnar,O,Czechia,109.7,370,385,395,395,,260,275,-285,275,,300,315,322.5,322.5,,992.5,110,M,Multi-ply,SBD
2,Bakhtiyar Guliyev,O,Azerbaijan,109.1,310,330,345,345,,-220,225,-240,225,,350,-390.5,-390.5,350,,920,110,M,Multi-ply,SBD
3,Zsolt Kajtár,O,Hungary,109.3,370,-400,-400,370,,200,-220,220,220,,270,-300,302.5,302.5,,892.5,110,M,Multi-ply,SBD
4,Antti Kousa,O,Finland,109,-350,350,-370,350,,210,-220,220,220,,300,-320,-320,300,,870,110,M,Multi-ply,SBD
5,Kyle Vauls,O,UK,104.4,325,350,-360,350,,225,-240,-240,225,,270,285,-295,285,,860,110,M,Multi-ply,SBD
6,Lee Price,O,UK,109.6,310,330,-345,330,,210,220,-227.5,220,,255,-270,,255,,805,110,M,Multi-ply,SBD
7,Aleksandrs Zvezdenkovs,O,Latvia,108.4,270,290,305,305,,190,-200,-200,190,,-260,275,285,285,,780,110,M,Multi-ply,SBD
8,Gavin Rowlands,O,UK,108.3,300,320,340,340,,170,180,190,190,,240,-255,-255,240,,770,110,M,Multi-ply,SBD
DQ,Adam Kitchener,O,UK,110,-305,305,,305,,-185,-185,-190,,,285,-305,,285,,,110,M,Multi-ply,SBD
1,Juraj Pástor,M2,Slovakia,109.8,310,330,340,340,,150,157.5,-162.5,157.5,,290,305,310,310,,807.5,110,M,Multi-ply,SBD
2,Jaromír Műller,M2,Czechia,103.7,270,-300,300,300,,180,-200,-200,180,,300,-322.5,-327.5,300,,780,110,M,Multi-ply,SBD
1,Jakub Smejkal,J,Czechia,117.9,-340,340,-355,340,,190,200,-215,200,,320,330,-337.5,330,,870,125,M,Multi-ply,SBD
1,Daniel Dvořák,O,Czechia,116.2,350,-380,390,390,,250,-260,-275,250,,290,302.5,320,320,,960,125,M,Multi-ply,SBD
2,Reiko Kruse,O,Germany,122.6,380,-410,410,410,,220,232.5,240,240,,290,302.5,310,310,,960,125,M,Multi-ply,SBD
3,Gábor Kránitz,O,Hungary,124.8,320,-350,355,355,,210,-217.5,-220,210,,-340,340,-350,340,,905,125,M,Multi-ply,SBD
4,Petr Mrkvica,O,Czechia,124.1,280,-340,340,340,,160,210,220,220,,280,310,325,325,,885,125,M,Multi-ply,SBD
5,Marek Kerekes,O,Slovakia,113.9,270,282.5,-295,282.5,,-185,-185,185,185,,250,-270,,250,,717.5,125,M,Multi-ply,SBD
DQ,Matti Lehto,O,Finland,124.7,-405,-405,-405,,,,,,,,,,,,,,125,M,Multi-ply,SBD
DQ,Markus Höveling,O,Germany,124.4,300,315,322.5,322.5,,-240,-240,-240,,,-290,,,,,,125,M,Multi-ply,SBD
1,Gary Boulton,M1,UK,123.6,300,325,-340,325,,140,155,-170,155,,250,270,-290,270,,750,125,M,Multi-ply,SBD
1,Lee Marshall,M2,UK,120.4,380,400,410,410,420,195,200,-205,200,,300,-340,-340,300,,910,125,M,Multi-ply,SBD
2,Václav Vimmer,M2,Czechia,112.9,210,220,,220,,170,-180,180,180,,200,220,,220,,620,125,M,Multi-ply,SBD
1,Jonas Rantanen,O,Finland,131.4,480,500,-510,500,,330,-350,-355,330,,330,-357.5,-357.5,330,,1160,140,M,Multi-ply,SBD
2,Tomáš Podlipný,O,Czechia,134.8,380,400,410,410,,245,255,262.5,262.5,,330,370,380,380,,1052.5,140,M,Multi-ply,SBD
DQ,Philippe Crets,O,Belgium,136.1,-370,-370,,,,,,,,,,,,,,,140,M,Multi-ply,SBD
DQ,Oto Pospíšil,O,Czechia,136.6,240,-340,350,350,,-260,-265,-265,,,-260,,,,,,140,M,Multi-ply,SBD
1,Tomas Vesely,M1,Czechia,134,230,-250,260,260,,230,-240,,230,,260,-280,-280,260,,750,140,M,Multi-ply,SBD
1,David Fitzhenry,M1,Ireland,151.9,-360,360,390,390,,270,-290,290,290,,270,290,-320,290,,970,140+,M,Multi-ply,SBD
1,Beatrice Beneke,O,Germany,54.8,,,,,,62.5,-65,-65,62.5,,,,,,,62.5,56,F,Multi-ply,B
1,Beatrice Beneke,SM,Germany,54.8,,,,,,62.5,-65,-65,62.5,,,,,,,62.5,56,F,Multi-ply,B
1,Monika Labudova,T2,Czechia,58.9,,,,,,75,-81,-81,75,,,,,,,75,60,F,Multi-ply,B
1,Faina Kharif,M2,Israel,59.9,,,,,,45,50,-52.5,50,,,,,,,50,60,F,Multi-ply,B
1,Júlia Kostúrová,T3,Slovakia,64.5,,,,,,100,107.5,110,110,,,,,,,110,67.5,F,Multi-ply,B
1,Yulia Medvedeva,O,Russia,66.2,,,,,,130,140,-143,140,,,,,,,140,67.5,F,Multi-ply,B
2,Erzsebet Bieniek,O,Hungary,65.4,,,,,,85,-90,-95,85,,,,,,,85,67.5,F,Multi-ply,B
3,Michaela Rackova,O,Czechia,65.1,,,,,,75,80,-85,80,,,,,,,80,67.5,F,Multi-ply,B
1,Olga Miglāne,M1,Latvia,65,,,,,,-70,70,-75,70,,,,,,,70,67.5,F,Multi-ply,B
1,Anna Markus,M2,Israel,67.4,,,,,,55,-60,62.5,62.5,-70,,,,,,62.5,67.5,F,Multi-ply,B
1,Lucie Antalikova,J,Czechia,71.5,,,,,,37.5,45,50,50,-52.5,,,,,,50,75,F,Multi-ply,B
1,Zsuzsanna Tarjányi,O,Hungary,71,,,,,,100,-110,-115,100,,,,,,,100,75,F,Multi-ply,B
2,Sandra Mokrá,O,Slovakia,73.6,,,,,,90,-112.5,-115,90,,,,,,,90,75,F,Multi-ply,B
1,Valentīna Abramenko,M1,Latvia,68,,,,,,70,-75,-75,70,,,,,,,70,75,F,Multi-ply,B
DQ,Libuše Leiblová,M2,Czechia,74.9,,,,,,-115,-115,-115,,,,,,,,,75,F,Multi-ply,B
1,Christine Ebering,M4,Germany,67.9,,,,,,50,55,-60,55,,,,,,,55,75,F,Multi-ply,B
1,Satu Kalmi,J,Finland,75.2,,,,,,92.5,-100,-100,92.5,,,,,,,92.5,82.5,F,Multi-ply,B
1,Olga Kourkouline,O,Israel,82.4,,,,,,65,70,-75,70,,,,,,,70,82.5,F,Multi-ply,B
1,Sandra Bileiše,M1,Latvia,78,,,,,,-80,80,-85,80,,,,,,,80,82.5,F,Multi-ply,B
1,Heide Geber,M2,Germany,75.5,,,,,,60,65,-67.5,65,,,,,,,65,82.5,F,Multi-ply,B
1,Sandra Katina,M2,Latvia,84.5,,,,,,70,75,-80,75,,,,,,,75,90,F,Multi-ply,B
1,Natalija Ņikitina,O,Latvia,91.2,,,,,,80,-85,-92.5,80,,,,,,,80,90+,F,Multi-ply,B
1,Catherine Gerard,M1,France,107.1,,,,,,140,-142.5,-142.5,140,,,,,,,140,90+,F,Multi-ply,B
DQ,Daniel Peinelt,T2,Germany,65.2,,,,,,-100,-100,-100,,,,,,,,,67.5,M,Multi-ply,B
1,Ilham Allahverdiyev,O,Azerbaijan,66.8,,,,,,170,180,-200,180,,,,,,,180,67.5,M,Multi-ply,B
2,Sandro Kreller,O,Germany,66.3,,,,,,140,-150,150,150,,,,,,,150,67.5,M,Multi-ply,B
DQ,Erwin Trichlin,M6,Austria,65.1,,,,,,-115,-120,-120,,,,,,,,,67.5,M,Multi-ply,B
1,Dieter Schweitzer,M7,Germany,64,,,,,,60,65,70,70,,,,,,,70,67.5,M,Multi-ply,B
1,Gordon Pflaumer,J,Germany,73.5,,,,,,135,142.5,-152.5,142.5,,,,,,,142.5,75,M,Multi-ply,B
1,Sarkhan Aliyev,O,Azerbaijan,74.7,,,,,,-195,197.5,-202.5,197.5,,,,,,,197.5,75,M,Multi-ply,B
2,Bayram Aliev,O,Azerbaijan,74.8,,,,,,197.5,-200,-202.5,197.5,,,,,,,197.5,75,M,Multi-ply,B
3,Michal Oliverius,O,Czechia,71.7,,,,,,-140,145,-150,145,,,,,,,145,75,M,Multi-ply,B
DQ,Alexandr Liskovich,O,Israel,74.7,,,,,,-190,-190,-190,,,,,,,,,75,M,Multi-ply,B
1,Berthold Rien,M2,Germany,74.3,,,,,,125,-140,145,145,,,,,,,145,75,M,Multi-ply,B
1,Gerd Müller,M4,Germany,74.8,,,,,,120,130,135,135,,,,,,,135,75,M,Multi-ply,B
1,Janis Paulukas,M5,Latvia,73.5,,,,,,-140,140,-152.5,140,,,,,,,140,75,M,Multi-ply,B
1,Anatolijs Kuzmins,M6,Latvia,73.7,,,,,,130,137.5,-140,137.5,,,,,,,137.5,75,M,Multi-ply,B
1,Vagif Jafarov Namig,O,Azerbaijan,81.7,,,,,,-195,195,200,200,,,,,,,200,82.5,M,Multi-ply,B
2,Derrichi Samas,O,France,82.3,,,,,,160,170,-175,170,,,,,,,170,82.5,M,Multi-ply,B
3,Ladislav Malec,O,Czechia,78.9,,,,,,-150,150,-160,150,,,,,,,150,82.5,M,Multi-ply,B
DQ,Cedric Martin,O,France,80.2,,,,,,-210,-210,-210,,,,,,,,,82.5,M,Multi-ply,B
1,Alon Ben-Shahar,M1,Israel,82.5,,,,,,150,-185,-185,150,,,,,,,150,82.5,M,Multi-ply,B
DQ,Andris Greberis,M1,Latvia,81.5,,,,,,-205,-205,-207.5,,,,,,,,,82.5,M,Multi-ply,B
1,Risto Leskenmaa,M4,Finland,82.4,,,,,,150,160,170,170,,,,,,,170,82.5,M,Multi-ply,B
2,Uwe Ebering,M4,Germany,75.5,,,,,,100,105,107.5,107.5,,,,,,,107.5,82.5,M,Multi-ply,B
1,Jean-Marie Kubick,M6,France,82.2,,,,,,130,140,145,145,,,,,,,145,82.5,M,Multi-ply,B
1,Pierre Pothee,M9,France,76.1,,,,,,45,50,-52.5,50,,,,,,,50,82.5,M,Multi-ply,B
1,Paul Kunz,T2,Germany,83.6,,,,,,100,105,107.5,107.5,,,,,,,107.5,90,M,Multi-ply,B
1,Pavel Isakov,O,Russia,90,,,,,,245,-255,255,255,,,,,,,255,90,M,Multi-ply,B
2,Stanislav Erben,O,Czechia,87.1,,,,,,210,225,-232.5,225,,,,,,,225,90,M,Multi-ply,B
3,Roman Maralek,O,Czechia,88,,,,,,-220,220,-230,220,,,,,,,220,90,M,Multi-ply,B
4,Pavel Černák,O,Czechia,89.5,,,,,,190,200,210,210,,,,,,,210,90,M,Multi-ply,B
DQ,Laurent Gonzalez,O,France,89.6,,,,,,-230,-230,-230,,,,,,,,,90,M,Multi-ply,B
DQ,Peter Vateha,O,Slovakia,89.8,,,,,,-200,-200,-245,,,,,,,,,90,M,Multi-ply,B
1,Valery Tomilov,M1,Israel,88.8,,,,,,185,200,-207.5,200,,,,,,,200,90,M,Multi-ply,B
2,Andrejs Katins,M1,Latvia,88.4,,,,,,165,175,-180,175,,,,,,,175,90,M,Multi-ply,B
1,Aleksandrs Miglāns,M2,Latvia,87.2,,,,,,190,-200,,190,,,,,,,190,90,M,Multi-ply,B
2,Sylvio Dolz,M2,Germany,83.2,,,,,,160,-167.5,167.5,167.5,,,,,,,167.5,90,M,Multi-ply,B
3,Petr Chvatal,M2,Czechia,87,,,,,,115,125,130,130,,,,,,,130,90,M,Multi-ply,B
1,Igor Barski,M4,Israel,87.5,,,,,,120,150,165,165,,,,,,,165,90,M,Multi-ply,B
1,Valērijs Petrovs,M5,Latvia,83.1,,,,,,140,150,-155,150,,,,,,,150,90,M,Multi-ply,B
1,Jurijs Lavrovs,M7,Latvia,84,,,,,,82.5,87.5,90,90,,,,,,,90,90,M,Multi-ply,B
1,Josef Janecek,T2,Czechia,96.6,,,,,,110,125,130,130,,,,,,,130,100,M,Multi-ply,B
1,Zdenk Bakus,T3,Czechia,93.3,,,,,,-160,-160,160,160,-200.5,,,,,,160,100,M,Multi-ply,B
1,Eric Biermordt,J,Germany,94.6,,,,,,190,-200,200,200,,,,,,,200,100,M,Multi-ply,B
2,Jakub Gutveis,J,Czechia,99.6,,,,,,190,-200,-202.5,190,,,,,,,190,100,M,Multi-ply,B
3,Pauli Rahkonen,J,Finland,99.2,,,,,,-170,182.5,-192.5,182.5,,,,,,,182.5,100,M,Multi-ply,B
1,Igor Kushin,O,Russia,99.6,,,,,,-280,280,-290,280,,,,,,,280,100,M,Multi-ply,B
2,Sergiy Polutin,O,Ukraine,100,,,,,,-260,-270,270,270,,,,,,,270,100,M,Multi-ply,B
3,Ibrahim Ibrahimov,O,Azerbaijan,100,,,,,,250,-262.5,-282.5,250,,,,,,,250,100,M,Multi-ply,B
4,Benjamin Brissez,O,France,96.4,,,,,,-235,235,-265,235,,,,,,,235,100,M,Multi-ply,B
5,Jiří Hačkulič,O,Czechia,97.6,,,,,,190,210,222.5,222.5,,,,,,,222.5,100,M,Multi-ply,B
6,Petr Palacky,O,Czechia,98,,,,,,170,-180,-180,170,,,,,,,170,100,M,Multi-ply,B
DQ,Zoltán Csepregi,O,Hungary,99.8,,,,,,-290,-290,-305,,,,,,,,,100,M,Multi-ply,B
1,Libor Bock,M1,Czechia,100,,,,,,190,197.5,-202.5,197.5,,,,,,,197.5,100,M,Multi-ply,B
2,Ľuboš Tylišcak,M1,Slovakia,100,,,,,,-190,190,-202.5,190,,,,,,,190,100,M,Multi-ply,B
DQ,Andrew Saunders,M1,UK,99.5,,,,,,-210,-210,-210,,,,,,,,,100,M,Multi-ply,B
DQ,Juha Pukkila,M1,Finland,99,,,,,,-210,-210,-220,,,,,,,,,100,M,Multi-ply,B
1,Christian Klicki,M2,France,98.3,,,,,,-230,-230,230,230,,,,,,,230,100,M,Multi-ply,B
2,Robert Brasseur,M2,France,100,,,,,,-225,-225,225,225,,,,,,,225,100,M,Multi-ply,B
3,Vlasta Trhal,M2,Czechia,98.1,,,,,,150,-175,-177.5,150,,,,,,,150,100,M,Multi-ply,B
1,Axel Gersdorf,M4,Germany,97.4,,,,,,190,200,-207.5,200,,,,,,,200,100,M,Multi-ply,B
2,Hans-Jurgen Borkowski,M4,Germany,98.9,,,,,,190,-197.5,-197.5,190,,,,,,,190,100,M,Multi-ply,B
1,Idris Ismailov,M5,Belgium,90.2,,,,,,100,105,,105,,,,,,,105,100,M,Multi-ply,B
1,Josef Urban,J,Czechia,102,,,,,,150,180,-190,180,,,,,,,180,110,M,Multi-ply,B
DQ,Zsolt Hetyési,J,Hungary,107.1,,,,,,-290,-295,-300,,,,,,,,,110,M,Multi-ply,B
1,Didier Michelon,M1,France,107.7,,,,,,260,-280,-290,260,,,,,,,260,110,M,Multi-ply,B
2,Jeremy Faulks,M1,UK,107.5,,,,,,215,-225,225,225,,,,,,,225,110,M,Multi-ply,B
DQ,Peter Ihlenfeld,M1,Germany,100.6,,,,,,-190,-200,-200,,,,,,,,,110,M,Multi-ply,B
1,István Ágoston,M2,Hungary,105.6,,,,,,240,247.5,-250,247.5,,,,,,,247.5,110,M,Multi-ply,B
2,Jaromír Műller,M2,Czechia,103.8,,,,,,-180,190,-205,190,,,,,,,190,110,M,Multi-ply,B
3,Heiko Himpel,M2,Germany,109.4,,,,,,170,-182.5,-182.5,170,,,,,,,170,110,M,Multi-ply,B
1,László Mészáros,O,Hungary,123.8,,,,,,325,-330,-335,325,,,,,,,325,125,M,Multi-ply,B
2,Kai-Uwe Göllnitz,O,Germany,124.9,,,,,,285,290,-302.5,290,,,,,,,290,125,M,Multi-ply,B
3,Jani Lhalainen,O,Finland,123.7,,,,,,-275,275,-290,275,,,,,,,275,125,M,Multi-ply,B
4,Martin Baumbach,O,Germany,111.3,,,,,,255,265,-275,265,,,,,,,265,125,M,Multi-ply,B
5,Josef Hamaj,O,Czechia,122.8,,,,,,-230,235,245,245,,,,,,,245,125,M,Multi-ply,B
6,Vitaly Zhdanov,O,Israel,123.2,,,,,,240,-250,-260,240,,,,,,,240,125,M,Multi-ply,B
7,Karel Koldovský,O,Czechia,124,,,,,,232.5,-242.5,,232.5,,,,,,,232.5,125,M,Multi-ply,B
DQ,Matti Lehto,O,Finland,124.5,,,,,,-255,-265,-270,,,,,,,,,125,M,Multi-ply,B
DQ,Nemanja Strinic,O,Serbia,122.2,,,,,,-300,-300,-300,,,,,,,,,125,M,Multi-ply,B
1,István Hegedüs,M1,Hungary,114.3,,,,,,260,-265,-272.5,260,,,,,,,260,125,M,Multi-ply,B
2,Sergey Piniachev,M1,Israel,,,,,,,245,260,-275,260,,,,,,,260,125,M,Multi-ply,B
3,Gyula Szatmari,M1,Hungary,114.8,,,,,,245,-255,-270,245,,,,,,,245,125,M,Multi-ply,B
1,Udo Krumbholz,M2,Germany,111,,,,,,210,225,-230,225,,,,,,,225,125,M,Multi-ply,B
2,Václav Vimmer,M2,Czechia,114.2,,,,,,155,165,170,170,,,,,,,170,125,M,Multi-ply,B
2,Viktors Pevko,M3,Latvia,121.1,,,,,,250,265,275,275,,,,,,,275,125,M,Multi-ply,B
1,Andreas Richter,M3,Germany,117,,,,,,230,-237.5,-237.5,230,,,,,,,230,125,M,Multi-ply,B
1,Joachim Eulenstein,M5,Germany,112.4,,,,,,150,160,-165,160,,,,,,,160,125,M,Multi-ply,B
1,Jozef Saksa,J,Slovakia,138.2,,,,,,210,225,-232.5,225,,,,,,,225,140,M,Multi-ply,B
1,Jari Mentula,O,Finland,131.7,,,,,,290,310,-317.5,310,,,,,,,310,140,M,Multi-ply,B
2,Daniel Hlinka,O,Czechia,126.6,,,,,,260,270,275,275,,,,,,,275,140,M,Multi-ply,B
DQ,Jonas Rantanen,O,Finland,130.8,,,,,,-340,-350,-350,,,,,,,,,140,M,Multi-ply,B
DQ,Mario Böttcher,M2,Germany,133.8,,,,,,-250,-250,,,,,,,,,,140,M,Multi-ply,B
1,Michael King,M4,UK,129.8,,,,,,235,245,-252.5,245,,,,,,,245,140,M,Multi-ply,B
1,Aleksey Lisogor,J,Ukraine,150.8,,,,,,-220,230,245,245,,,,,,,245,140+,M,Multi-ply,B
