Event,Sex,Division,WeightClassKg,Equipment,Best3BenchKg,Bench4Kg,Best3DeadliftKg,Deadlift4Kg,TotalKg,Name,State,Place
B,M,Class 1,82.5,Single-ply,245,,,,245,Spencer Shoesmith,ID,1
B,M,Class 1,100,Raw,152.5,,,,152.5,Ricky Jensen,UT,1
B,M,Class 1,110,Single-ply,220,,,,220,William Evans,OR,1
B,M,Class 1,125,Single-ply,210,,,,210,River Newman,MT,1
B,M,Disabled 1 20-39,117.5,Raw,170,,,,170,Benjamin Bleskin,MT,1
B,M,Disabled 1 20-39,117.5,Raw,145,,,,145,Benjamin Bleskin,MT,2
B,M,Disabled 2 60,110,Single-ply,145.5,,,,145.5,Scott Dolan,ID,1
B,M,Elite Open,90,Single-ply,260,,,,260,Don Linerud,ID,1
B,M,Juniors 20-25,75,Single-ply,172.5,,,,172.5,Christopher Purta,ID,1
B,M,Juniors 20-25,82.5,Raw,140,,,,140,Christopher Keogh,MT,1
B,M,Juniors 20-25,82.5,Single-ply,245,,,,245,Spencer Shoesmith,ID,1
B,M,Law-Fire 40-47,100,Multi-ply,260,,,,260,Charles Farmer,MT,1
B,M,Law-Fire 40-47,117.5,Multi-ply,272.5,,,,272.5,Chris Chopp,UT,1
B,M,Law-Fire Open,140,Raw,170,,,,170,Paden Jenkins,MT,1
B,M,Masters 40-46,100,Raw,170,,,,170,Kevin Coombs,MT,1
B,M,Masters 40-46,100,Multi-ply,260,,,,260,Charles Farmer,MT,1
B,M,Masters 40-46,117.5,Single-ply,272.5,,,,272.5,Chris Chopp,UT,1
B,M,Masters 40-46,117.5,Single-ply,195,,,,195,Allen Heisler,MT,2
B,M,Masters 40-46,140,Raw,195,,,,195,Stan Martin,MT,1
B,M,Masters 54-60,82.5,Raw,160,,,,160,Jim Dobie,MT,1
B,M,Masters 54-60,90,Single-ply,127.5,,,,127.5,Randy Daugherty,ID,1
B,M,Masters 54-60,100,Multi-ply,217.5,,,,217.5,James Noblit,OR,1
B,M,Masters 54-60,140,Raw,217.5,,,,217.5,Marvin Rodenbeck,IN,1
B,M,Masters 61-67,110,Single-ply,145.5,,,,145.5,Scott Dolan,ID,1
B,M,Masters 61-67,117.5,Single-ply,165.5,,,,165.5,John Towne,ID,1
B,M,Masters 61-67,125,Single-ply,125,,,,125,Tim Myers,MT,1
B,M,Masters 75-79,67.5,Multi-ply,82.5,,,,82.5,Skip Schacher,MT,1
B,M,Masters 75-79,90,Single-ply,82.5,,,,82.5,Sonny Nummi,ID,1
B,M,Open,75,Raw,145,,,,145,Blake Hance,MT,1
B,M,Open,100,Single-ply,261,,,,261,Tyler Carlson,MT,1
B,M,Open,100,Raw,165.5,,,,165.5,Lucas Eckstein,MT,1
B,M,Open,110,Multi-ply,265,,,,265,Jeremy Myers,MT,1
B,M,Open,125,Single-ply,210,,,,210,River Newman,MT,1
B,M,Open,140,Raw,217.5,,,,217.5,Marvin Rodenbeck,IN,1
B,M,Open,140,Raw,185,,,,185,Sean Powell,MT,2
B,M,Submasters 33-39,90,Single-ply,237.5,,,,237.5,Dave Gronenthal,ID,1
B,M,Submasters 33-39,110,Multi-ply,265,,,,265,Jeremy Myers,MT,1
B,M,Submasters 33-39,125,Raw,150,,,,150,Kyle Fredricks,MT,1
B,M,Teen 12-13,44,Raw,25,,,,25,Billy Farmer,MT,1
B,M,Teen 12-13,75,Single-ply,87.5,,,,87.5,Jeremiah Mattison,WA,1
B,M,Teen 14-15,56,Single-ply,47.5,,,,47.5,Tyler Farmer,MT,1
B,M,Teen 14-15,67.5,Single-ply,75,,,,75,Brandon Scheel,WA,1
B,M,Teen 14-15,82.5,Raw,72.5,,,,72.5,Aidan Eagle,WA,1
B,M,Teen 14-15,100,Single-ply,120,,,,120,Donovan Kendall,WA,1
B,M,Teen 16-17,60,Single-ply,75,,,,75,Alex Chavarin,WA,2
B,M,Teen 16-17,60,Single-ply,102.5,,,,102.5,Blake Gillam,WA,1
B,M,Teen 16-17,75,Single-ply,72.5,,,,72.5,Joel Elston,WA,1
B,M,Teen 16-17,90,Raw,88.5,,,,88.5,Warren Wippert,MT,1
B,M,Teen 18-19,67.5,Single-ply,95,,,,95,Timothy John White,WA,1
D,M,Class 1,90,Raw,,,197.5,,197.5,Chaz Flinn,MT,1
D,M,Class 1,100,Raw,,,227.5,,227.5,Ricky Jensen,UT,1
D,M,Class 1,125,Raw,,,205,,205,River Newman,MT,1
D,M,Juniors 20-25,75,Raw,,,192.5,,192.5,Christopher Purta,ID,1
D,M,Juniors 20-25,82.5,Raw,,,225,,225,Christopher Keogh,MT,1
D,M,Law-Fire 40-47,100,Single-ply,,,285,,285,Charles Farmer,MT,1
D,M,Law-Fire Open,140,Raw,,,250,,250,Paden Jenkins,MT,1
D,M,Masters 40-46,100,Raw,,,210,,210,Kevin Coombs,MT,1
D,M,Masters 40-46,117.5,Single-ply,,,262.5,,262.5,Allen Heisler,MT,1
D,M,Masters 40-46,140,Raw,,,232.5,,232.5,Stan Martin,MT,1
D,M,Masters 47-53,140,Single-ply,,,342.5,,342.5,Brent Mikesell,WA,1
D,M,Masters 54-60,90,Single-ply,,,145,150,145,Randy Daugherty,ID,1
D,M,Masters 54-60,117.5,Raw,,,265,,265,Palmer Hoovestal,MT,1
D,M,Masters 54-60,140,Raw,,,182.5,,182.5,Marvin Rodenbeck,IN,1
D,M,Masters 61-67,117.5,Single-ply,,,192.5,,192.5,John Towne,ID,1
D,M,Masters 75-79,67.5,Multi-ply,,,110,115,110,Skip Schacher,MT,1
D,M,Masters 75-79,90,Single-ply,,,140,145,140,Sonny Nummi,ID,1
D,M,Open,75,Raw,,,210,,210,Blake Hance,MT,1
D,M,Open,100,Raw,,,242.5,,242.5,Lucas Eckstein,MT,1
D,M,Open,125,Raw,,,205,,205,River Newman,MT,1
D,M,Open,140,Raw,,,182.5,,182.5,Marvin Rodenbeck,IN,1
D,M,Submasters 33-39,125,Raw,,,265,,265,Kyle Fredricks,MT,1
D,M,Teen 12-13,44,Raw,,,65,,65,Billy Farmer,Mt,1
D,M,Teen 14-15,56,Raw,,,100,,100,Tyler Farmer,MT,1
D,M,Teen 14-15,67.5,Raw,,,130,,130,Brandon Scheel,WA,1
D,M,Teen 14-15,90,Raw,,,160,,160,Donovan Kendall,WA,1
D,M,Teen 16-17,60,Raw,,,102.5,,102.5,Alex Chavarin,WA,1
D,M,Teen 16-17,60,Single-ply,,,125,,125,Blake Gillam,WA,1
D,M,Teen 16-17,75,Raw,,,137.5,,137.5,Joel Elston,WA,1
D,M,Teen 16-17,90,Raw,,,155,,155,Warren Wippert,MT,1
D,M,Teen 18-19,67.5,Raw,,,165,,165,Timothy John White,WA,1
D,M,Teen 14-15,82.5,Raw,,,100,,100,Aidan Eagle,WA,1
BD,M,Class 1,100,Raw,152.5,,227.5,,380,Ricky Jensen,UT,1
BD,M,Juniors 20-25,82.5,Raw,140,,225,,365,Christopher Keogh,MT,1
BD,M,Law-Fire Open,140,Raw,170,,250,,420,Paden Jenkins,MT,1
BD,M,Masters 40-46,100,Raw,170,,210,,380,Kevin Coombs,MT,1
BD,M,Masters 40-46,117.5,Single-ply,195,,262.5,,457.5,Allen Heisler,MT,1
BD,M,Masters 40-46,140,Raw,195,,232.5,,427.5,Stan Martin,MT,1
BD,M,Masters 54-60,90,Single-ply,127.5,,145,150,272.5,Randy Daugherty,ID,1
BD,M,Masters 61-67,117.5,Single-ply,165.5,,192.5,,358,John Towne,ID,1
BD,M,Masters 75-79,67.5,Multi-ply,82.5,,110,115,192.5,Skip Schacher,MT,1
BD,M,Masters 75-79,90,Single-ply,82.5,,140,145,222.5,Sonny Nummi,ID,1
B,F,Class 1,67.5,Raw,82.5,,,,82.5,Joni Texeira,OR,1
B,F,Juniors,60,Raw,60,,,,60,Carlie Gehrman,MT,1
B,F,Juniors,100,Raw,115,,,,115,Rachelle Meidinger,MT,1
B,F,Open,67.5,Raw,52.5,,,,52.5,Adelle Coombs,MT,2
B,F,Open,67.5,Raw,82.5,,,,82.5,Joni Texeira,OR,1
B,F,Open,82.5,Raw,107.5,,,,107.5,Missy Gentry,MT,1
B,F,Open,100,Raw,115,,,,115,Rachelle Meidinger,MT,1
B,F,Special Olympian,67.5,Single-ply,42.5,,,,42.5,Andrea Mousseau,ID,1
B,F,Submasters,82.5,Single-ply,77.5,,,,77.5,Jamie Farmer,MT,1
B,F,Submasters,82.5,Raw,107.5,,,,107.5,Missy Gentry,MT,1
B,F,Teen 18-19,90,Single-ply,67.5,,,,67.5,Brianna Connelly,WA,1
B,F,Teen 14-15,52,Single-ply,50,,,,50,Emma Stallings,WA,1
B,F,Teen 16-17,75,Single-ply,82.5,83,,,82.5,Abigail Crahen,WA,1
B,F,Teen 16-17,100,Raw,75,,,,75,Anna Phinney,WA,1
B,F,Teen 18-19,52,Raw,50,,,,50,Tianna Whorrall,WA,1
D,F,Juniors,60,Raw,,,115,,115,Carlie Gehrman,MT,1
D,F,Juniors,100,Raw,,,160,,160,Rachelle Meidinger,MT,1
D,F,Open,67.5,Raw,,,105,,105,Adelle Coombs,MT,1
D,F,Open,100,Raw,,,125,,125,Alyssa Raser,MT,2
D,F,Open,100,Raw,,,160,,160,Rachelle Meidinger,MT,1
D,F,Special Olympian,67.5,Single-ply,,,82.5,85,82.5,Andrea Mousseau,ID,1
D,F,Submasters,82.5,Single-ply,,,142.5,,142.5,Jamie Farmer,MT,1
D,F,Teen 12-13,44,Raw,,,52.5,,52.5,Maya Gentry,MT,1
D,F,Teen 14-15,52,Raw,,,77.5,,77.5,Emma Stallings,WA,1
D,F,Teen 16-17,100,Single-ply,,,147.5,,147.5,Anna Phinney,WA,1
D,F,Teen 18-19,52,Raw,,,82.5,,82.5,Tianna Whorrall,WA,1
D,F,Teen 18-19,90,Raw,,,137.5,,137.5,Brianna Connelly,WA,1
BD,F,Juniors,60,Raw,60,,115,,175,Carlie Gehrman,MT,1
BD,F,Juniors,100,Raw,115,,160,,275,Rachelle Meidinger,MT,1
BD,F,Open,67.5,Raw,52.5,,105,,157.5,Adelle Coombs,MT,1
