Place,Name,BirthYear,Country,BodyweightKg,Squat1Kg,Squat2Kg,Squat3Kg,Best3SquatKg,Bench1Kg,Bench2Kg,Bench3Kg,Best3BenchKg,Deadlift1Kg,Deadlift2Kg,Deadlift3Kg,Best3DeadliftKg,TotalKg,WeightClassKg,Division,Event,Sex,Equipment
1,Johnson Taumea,1995,Nauru,65.3,170,190,-208,190,90,100,,100,200,213,-220,213,503,66,Sub-Juniors,SBD,M,Raw
1,Kudaman Namaduk,1996,Nauru,73.75,160,170,180,180,135,145,-147,145,150,165,172.5,172.5,497.5,74,Sub-Juniors,SBD,M,Raw
1,Joe Mann,1996,New Zealand,73.75,165,175,-182.5,175,95,100,105,105,207.5,217.5,-220,217.5,497.5,74,Sub-Juniors,SBD,M,Raw
3,Lindsay Daysh,1995,New Zealand,68.15,140,150,-155,150,95,100,105,105,200,-210,-210,200,455,74,Sub-Juniors,SBD,M,Raw
1,Dean Price,1995,New Zealand,77.95,160,170,177.5,177.5,135,142.5,-147.5,142.5,195,205,210,210,530,83,Sub-Juniors,SBD,M,Raw
2,Cameron Andrews,1996,New Zealand,81.95,192.5,-205,-205,192.5,112.5,-117.5,-117.5,112.5,160,180,-200,180,485,83,Sub-Juniors,SBD,M,Raw
3,Matthew Blanchfield,1995,New Zealand,82.65,140,150,160,160,85,92.5,97.5,97.5,170,185,-200,185,442.5,83,Sub-Juniors,SBD,M,Raw
DQ,Riccardo Ciarrocchi,1995,Australia,82.4,205,215.5,-220,215.5,-140,-140,-140,,220,230,-235,230,,83,Sub-Juniors,SBD,M,Raw
1,Isaiah Elder,1996,Fiji,99.9,205,215,-225,215,115,122.5,-125,122.5,200,215,-228,215,552.5,105,Sub-Juniors,SBD,M,Raw
1,Joel Hintz,1996,New Zealand,110,220,230,245,245,130,145,155,155,210,230,-250,230,630,120,Sub-Juniors,SBD,M,Raw
1,John Duran,1993,New Zealand,57.3,115,125,,125,60,65,70,70,180,190,200.5,200.5,395.5,59,Juniors,SBD,M,Raw
2,Matthew Dinh,1991,Australia,57.7,132.5,140,145,145,75,-82.5,-82.5,75,-160,160,-167.5,160,380,59,Juniors,SBD,M,Raw
3,James Bullen,1992,Australia,58.4,125,-130,-130,125,72.5,-77.5,-77.5,72.5,-132.5,132.5,-145,132.5,330,59,Juniors,SBD,M,Raw
1,Karl Di Falco,1990,Australia,65.1,175,185,-200,185,105,115,-117.5,115,225,240,-245,240,540,66,Juniors,SBD,M,Raw
2,John Paul Cauchi,1992,Australia,65.5,190,200,-205,200,100,105,-107.5,105,215,230,-242.5,230,535,66,Juniors,SBD,M,Raw
3,Semih Dogan,1990,Australia,65.75,160,167.5,170,170,117.5,-122.5,-122.5,117.5,175,190,-200,190,477.5,66,Juniors,SBD,M,Raw
4,Kane McKenzie,1994,New Zealand,63.3,-150,150,160,160,95,100,-102.5,100,185,195,202.5,202.5,462.5,66,Juniors,SBD,M,Raw
1,Taggart Duburiya,1992,Nauru,73.95,-170,170,190,190,145,150,-156,150,190,210,212.5,212.5,552.5,74,Juniors,SBD,M,Raw
3,Colin Chan,1990,Australia,73.95,-187.5,187.5,-195,187.5,112.5,117.5,-122.5,117.5,237.5,-245,-252.5,237.5,542.5,74,Juniors,SBD,M,Raw
4,Wahbi Moradi,1994,New Zealand,73.25,-170,-175,175,175,125,127.5,-132.5,127.5,210,220,-225,220,522.5,74,Juniors,SBD,M,Raw
5,David Mabon,1990,Australia,72.6,150,160,165,165,130,135,140,140,187.5,195,207.5,207.5,512.5,74,Juniors,SBD,M,Raw
7,Stefan Romeo,1990,Australia,74,155,-162.5,-162.5,155,105,-110,110,110,180,-200,-200,180,445,74,Juniors,SBD,M,Raw
1,Brett Gibbs,1991,New Zealand,82.3,245,255,-265,255,162.5,172.5,-180,172.5,270,282.5,285,285,712.5,83,Juniors,SBD,M,Raw
3,Jamie King,1993,New Zealand,81.4,-210,210,227.5,227.5,117.5,-127.5,127.5,127.5,255,270,283,283,638,83,Juniors,SBD,M,Raw
4,Alexander Cochrane-Davis,1992,Australia,82.9,210,-225,225,225,140,-145,-145,140,220,-235,-235,220,585,83,Juniors,SBD,M,Raw
5,Byron White,1994,Australia,82.95,185,200,207.5,207.5,117.5,122.5,125,125,227.5,240,247.5,247.5,580,83,Juniors,SBD,M,Raw
6,Danti Adeang,1991,Nauru,81.4,-200,200,-210,200,120,135,-145,135,210,220,-230,220,555,83,Juniors,SBD,M,Raw
9,Timothy Davies,1992,Australia,79.85,165,170,-175,170,90,95,-100,95,215,225,-230,225,490,83,Juniors,SBD,M,Raw
10,Jordan Bennett,1993,New Zealand,78.75,140,145,150,150,115,122.5,127.5,127.5,190,202.5,-205,202.5,480,83,Juniors,SBD,M,Raw
DQ,Ashley Dyball,1992,Australia,78.15,-150,-152.5,-152.5,,132.5,137.5,-142.5,137.5,-180,190,202.5,202.5,,83,Juniors,SBD,M,Raw
1,V-Tromich Limen,1991,Nauru,90.3,241,250,261,261,140,-152.5,-152.5,140,250,260.5,-268,260.5,661.5,93,Juniors,SBD,M,Raw
2,Justin Briguglio,1990,Australia,88.35,175,-185,187.5,187.5,150,162.5,-170,162.5,245,250,-261,250,600,93,Juniors,SBD,M,Raw
4,Callan Helms,1992,New Zealand,90.15,-195,-195,195,195,135,142.5,-150,142.5,225,-237.5,237.5,237.5,575,93,Juniors,SBD,M,Raw
6,Matthew Grantham,1992,New Zealand,92.1,180,190,-197.5,190,110,-115,115,115,210,-220,220,220,525,93,Juniors,SBD,M,Raw
DQ,Frano Irvine,1990,Australia,92.6,170,-180,-180,170,100,-105,105,105,-240,-240,-240,,,93,Juniors,SBD,M,Raw
1,Ben Hyland,1990,New Zealand,103.4,235,255,-266,255,125,135,137.5,137.5,260,-280,-280,260,652.5,105,Juniors,SBD,M,Raw
2,Jay Rovacsek,1992,Australia,100.6,185,200,207.5,207.5,130,135,-137.5,135,265,280.5,-290,280.5,623,105,Juniors,SBD,M,Raw
1,Cameron McKenzie,1993,Australia,117.15,265,277.5,-285,277.5,165,172.5,-177.5,172.5,305,328,330,330,780,120,Juniors,SBD,M,Raw
2,Jonathan Parsons,1991,New Zealand,111.1,260,272.5,280,280,162.5,172.5,-177.5,172.5,305,-322.5,-327.5,305,757.5,120,Juniors,SBD,M,Raw
3,Rhynnah Kepae,1990,Nauru,117.2,292.5,-305,-305,292.5,-170,170,-182.5,170,240,-255,-255,240,702.5,120,Juniors,SBD,M,Raw
1,Ethan Foote,1992,New Zealand,145.85,210,230,242.5,242.5,150,162.5,172.5,172.5,300,330,-335,330,745,120+,Juniors,SBD,M,Raw
2,Jelson Uepa,1990,Nauru,139.65,260,272.5,280,280,155,160,162.5,162.5,210,240,-252.5,240,682.5,120+,Juniors,SBD,M,Raw
4,Emau Manusamoa,1993,Samoa,145.45,-210,210,-230,210,110,125,-132.5,125,212.5,-242.5,-242.5,212.5,547.5,120+,Juniors,SBD,M,Raw
1,Raymond Wong,1981,Australia,58.25,155,165,170,170,105,110,115,115,200,210.5,215,215,500,59,Open,SBD,M,Raw
1,Starron Dowabobo,1984,Nauru,65.3,190,205,-210,205,100,110,115,115,232.5,-245,-245,232.5,552.5,66,Open,SBD,M,Raw
2,Nghiep Luu,1975,Australia,65.85,170,180,-185,180,92.5,97.5,-100,97.5,257.5,272.5,-276,272.5,550,66,Open,SBD,M,Raw
3,Teitinibora Mateko,1988,Kiribati,64.3,160,170,-180,170,105,110,-120,110,170,177.5,182.5,182.5,462.5,66,Open,SBD,M,Raw
4,Ioane Haumili,1988,Tuvalu,65.5,185,-210,-210,185,80,90,-95,90,175,180,-200,180,455,66,Open,SBD,M,Raw
1,Bronco Deiranauw,1991,Nauru,73.7,250,-255,-255,250,135,-142.5,-142.5,135,255,-260.5,-260.5,255,640,74,Open,SBD,M,Raw
2,Ben Wood,1985,New Zealand,73.35,170,185,195,195,115,125,132.5,132.5,235,255,266,266,593.5,74,Open,SBD,M,Raw
3,Tui Halatokoua,1984,New Zealand,73.25,180,190,200,200,125,135,-140,135,225,235,247.5,247.5,582.5,74,Open,SBD,M,Raw
4,Joey Zinghini,1988,Australia,73.55,-185,190,200,200,120,127.5,132.5,132.5,220,242.5,-252.5,242.5,575,74,Open,SBD,M,Raw
5,Gary Young,1983,Australia,72.9,192.5,-202.5,-202.5,192.5,-140,140,145,145,225,-227.5,-235,225,562.5,74,Open,SBD,M,Raw
7,Kingston Masters,1985,New Zealand,73.2,155,177.5,-185,177.5,115,122.5,130,130,210,225,-232.5,225,532.5,74,Open,SBD,M,Raw
8,Simon Bergner,1987,Australia,73.65,175,-182.5,-182.5,175,110,115,120,120,205,212.5,217.5,217.5,512.5,74,Open,SBD,M,Raw
1,Deamo Baguga,1986,Nauru,81.75,240,250,260.5,260.5,130,140,-145,140,300,-315,-315,300,700.5,83,Open,SBD,M,Raw
2,Andrew Jovicevic,1966,Australia,82.75,200,210,-215,210,165,170,-175,170,260,280,-290,280,660,83,Open,SBD,M,Raw
3,Elijah May,1988,New Zealand,81.8,215,225,-235,225,145,-150,150,150,240,250,-257.5,250,625,83,Open,SBD,M,Raw
5,Mikaele Pasuo,1985,Samoa,82.05,195,200,-205,200,135,142.5,-145,142.5,215,-220,-220,215,557.5,83,Open,SBD,M,Raw
6,Niran Nayagam,1988,New Zealand,83,170,177.5,-182.5,177.5,125,130,-135,130,225,235,242.5,242.5,550,83,Open,SBD,M,Raw
7,Joel Ridings,1989,Australia,82.7,195,-210,-210,195,110,-122.5,,110,200,212.5,-237.5,212.5,517.5,83,Open,SBD,M,Raw
8,Aravind Rudrale,1984,New Zealand,82.75,180,-190,-190,180,90,100,102.5,102.5,210,225,-232.5,225,507.5,83,Open,SBD,M,Raw
9,Andrew Rykers,1989,Nauru,81.35,180,-200,-200,180,-152.5,152.5,-160,152.5,170,,,170,502.5,83,Open,SBD,M,Raw
DQ,Vince Afoa,1989,Samoa,81.85,-170,-175,-175,,115,120,125,125,180,200,-210,200,,83,Open,SBD,M,Raw
2,Hayden Pritchard,1988,New Zealand,89.45,225,240,-247.5,240,145,152.5,-157.5,152.5,262.5,272.5,-282.5,272.5,665,93,Open,SBD,M,Raw
3,Jamie Clarke,1974,Australia,90.45,235,240,-252.5,240,140,147.5,150,150,260,275,-282.5,275,665,93,Open,SBD,M,Raw
4,Raboe Roland,1981,Nauru,91.4,235,250,260,260,165,175,-189,175,210,225,-235,225,660,93,Open,SBD,M,Raw
7,Eric Helms,1983,New Zealand,91.15,207.5,212.5,-215,212.5,135,140,-142.5,140,235,240,-247.5,240,592.5,93,Open,SBD,M,Raw
8,Rint Hubert,1981,Nauru,89.25,-210,-220,220,220,140,-155,155,155,200,-210,210,210,585,93,Open,SBD,M,Raw
9,Alexander Richardson,1983,Australia,92,190,200,-210,200,135,-140,-140,135,230,-232.5,245,245,580,93,Open,SBD,M,Raw
10,David O'Halloran,1986,New Zealand,89.55,165,175,-182.5,175,107.5,115,117.5,117.5,220,232.5,235,235,527.5,93,Open,SBD,M,Raw
1,Andy Mahon,1976,New Zealand,101.85,270,290,302.5,302.5,150,160,165,165,285,305,-320.5,305,772.5,105,Open,SBD,M,Raw
2,Nick Dorn,1988,Australia,103.4,245,255,-260,255,157.5,165,170,170,250,-275,-275,250,675,105,Open,SBD,M,Raw
3,Telupe Iosefa,1986,Tuvalu,103.4,-230,230,245,245,120,137.5,147.5,147.5,205,230,255,255,647.5,105,Open,SBD,M,Raw
4,Brad Keogh,1977,Australia,104.8,222.5,235,240,240,140,-145,-145,140,247.5,-250,-270,247.5,627.5,105,Open,SBD,M,Raw
5,Travis Brighouse,1989,Samoa,103,-200,200,225,225,-120,120,,120,230,265,-275,265,610,105,Open,SBD,M,Raw
6,Angus Blair,1982,New Zealand,104.55,200,210,215,215,125,-132.5,-132.5,125,240,250,-260,250,590,105,Open,SBD,M,Raw
7,Steve Lamb,1985,New Zealand,102.15,207.5,217.5,225,225,112.5,120,-125,120,232.5,-252.5,-252.5,232.5,577.5,105,Open,SBD,M,Raw
G,Michael Tuchscherer,1985,USA,119.3,305,325,337.5,337.5,192.5,202.5,207.5,207.5,350,371,-380,371,916,120,Open,SBD,M,Raw
1,Kalinsky Brechtefeld,1989,Nauru,118.6,300,-305,-305,300,202.5,211,,211,250,-260,-260,250,761,120,Open,SBD,M,Raw
2,Michael Iovine,1970,New Zealand,116.7,-270,270,-300,270,160,180,-187.5,180,285,305,-312.5,305,755,120,Open,SBD,M,Raw
3,Joseph Whittaker,1985,New Zealand,118.05,240,255,275,275,160,175,190,190,240,255,275,275,740,120,Open,SBD,M,Raw
4,Daniel Bates,1977,Australia,114.5,235,245,252.5,252.5,170,177.5,180,180,277.5,285,292.5,292.5,725,120,Open,SBD,M,Raw
5,Gabriel Akua,1980,Nauru,115.8,280,-300,-300,280,180,190,195,195,250,-270,-270,250,725,120,Open,SBD,M,Raw
6,Nicholas Hansen,1980,New Zealand,119.05,225,-240,-240,225,-160,160,-170,160,300,320,-322.5,320,705,120,Open,SBD,M,Raw
7,Nathaniel Akua,1983,Nauru,108.05,250,270,-275,270,150,-170,,150,250,265,-272.5,265,685,120,Open,SBD,M,Raw
8,Afa Saleupu,1981,Samoa,117.4,235,250,-260,250,140,150,-155,150,235,-245,-245.5,235,635,120,Open,SBD,M,Raw
DQ,Tio Kakiarerei,1985,Kiribati,119.35,-260,-280,-280,,180,185,-192.5,185,240,270,-290,270,,120,Open,SBD,M,Raw
1,Jezza Uepa,1980,Nauru,163.5,355,370,-382.5,370,225,235,242.5,242.5,280,300,-310,300,912.5,120+,Open,SBD,M,Raw
2,Oliva Kirisome,1985,Samoa,164.8,330,340,350,350,210,217.5,220,220,325,-335,-345,325,895,120+,Open,SBD,M,Raw
3,Tony Reinmuth,1989,Australia,140.9,275,290,-310,290,157.5,165,170,170,290,310,325,325,785,120+,Open,SBD,M,Raw
4,Daniel Holliday,1988,New Zealand,158.4,260,275,-290,275,200,-210,210,210,-300,300,-320,300,785,120+,Open,SBD,M,Raw
1,Mike Gardiner,1968,New Zealand,65.55,160,175,185,185,115,125,-130,125,215,225,-243,225,535,66,Masters 1,SBD,M,Raw
1,Irving Harris,1964,Nauru,73.8,160,175,180,180,105,110,115,115,180,-200,-202.5,180,475,74,Masters 1,SBD,M,Raw
2,Phillip Menzie,1968,Australia,72.75,145,152.5,-157.5,152.5,100,107.5,112.5,112.5,180,200,205,205,470,74,Masters 1,SBD,M,Raw
1,Nakibae Kitiseni,1972,Tuvalu,82.15,200,-215,-215,200,135,145,-150,145,225,240,-250,240,585,83,Masters 1,SBD,M,Raw
2,Sean Muir,1970,Australia,82.05,190,202.5,-210,202.5,122.5,-127.5,127.5,127.5,232.5,240,-255,240,570,83,Masters 1,SBD,M,Raw
1,Eric Dumas,1964,Australia,92.15,217.5,225,232.5,232.5,140,145,147.5,147.5,220,230,235,235,615,93,Masters 1,SBD,M,Raw
2,Mark Haureliuk,1971,Australia,92.9,180,190,200,200,145,157.5,-162.5,157.5,235,245,-253,245,602.5,93,Masters 1,SBD,M,Raw
1,Vincent Thomas,1968,Australia,102.5,-210,210,225,225,160,172.5,-185.5,172.5,220,-235,240,240,637.5,105,Masters 1,SBD,M,Raw
2,Colin Wright #2,1968,New Zealand,103.55,210,-225,225,225,140,150,155,155,220,240,245,245,625,105,Masters 1,SBD,M,Raw
3,Paul MacManus,1973,Australia,104.6,200,220,230,230,137.5,147.5,-152.5,147.5,220,240,-245,240,617.5,105,Masters 1,SBD,M,Raw
4,Jason Wharton,1970,Nauru,103.05,190,-205,-205,190,127.5,135,137.5,137.5,210,235,-242.5,235,562.5,105,Masters 1,SBD,M,Raw
1,Steve Lousich,1965,New Zealand,119.95,240,255,262.5,262.5,190,200,205.5,205.5,220,235,242.5,242.5,710.5,120,Masters 1,SBD,M,Raw
2,Roy Harris,1968,Nauru,113.9,210,235,245,245,155,170,175,175,-210,210,,210,630,120,Masters 1,SBD,M,Raw
3,Luciano Stanley,1973,Samoa,106.15,160,180,200,200,120,125,-130,125,160,185,210,210,535,120,Masters 1,SBD,M,Raw
1,Glen Wright,1962,New Zealand,65.05,135,147.5,160,160,75,85,95,95,167.5,180,187.5,187.5,442.5,66,Masters 2,SBD,M,Raw
2,Alan Strang,1961,Australia,64.65,135,142.5,150,150,92.5,97.5,-102.5,97.5,170,187.5,192.5,192.5,440,66,Masters 2,SBD,M,Raw
1,Hendrik Basson,1960,Australia,72.7,147.5,160,-165,160,90,95,100,100,190,200,205,205,465,74,Masters 2,SBD,M,Raw
1,Stephen King,1962,New Zealand,82.75,180,200,215,215,95,105,107.5,107.5,200,212.5,-217.5,212.5,535,83,Masters 2,SBD,M,Raw
2,Jamie Kett,1958,New Zealand,81.8,170,180,-185,180,130,-140,-140,130,200,-210,-210,200,510,83,Masters 2,SBD,M,Raw
1,Patrick Whymark,1962,Australia,99.95,220,230,-240.5,230,125,135,140,140,240,255,-260,255,625,105,Masters 2,SBD,M,Raw
1,Geoffrey Holmes,1961,New Zealand,115.4,-190,190,200,200,105,110,-117.5,110,205,215,227.5,227.5,537.5,120,Masters 2,SBD,M,Raw
1,Leigh Wisbey,1962,Australia,142.5,225,250,-277.5,250,120,,-135,120,215,240,250,250,620,120+,Masters 2,SBD,M,Raw
1,Geoffrey Lewis,1948,Australia,72,85,-95,-95,85,72.5,75,-77.5,75,140,-150,-150,140,300,74,Masters 3,SBD,M,Raw
1,Thomas MacDonald,1950,Australia,85.95,170,180,190,190,80,90,95,95,200,220,228.5,228.5,513.5,93,Masters 3,SBD,M,Raw
2,Bryan Barrett,1952,New Zealand,91.55,180,187.5,192.5,192.5,50,,,50,202.5,220,-228,220,462.5,93,Masters 3,SBD,M,Raw
1,Brian Hutton,1953,Australia,115.45,180,197.5,200,200,100,115,117.5,117.5,175,-205,,175,492.5,120,Masters 3,SBD,M,Raw
1,Bruce Park,1937,New Zealand,65.2,105,115,120.5,120.5,65,70,75,75,155,166,170,170,365.5,66,Masters 4,SBD,M,Raw
1,Albie Teese,1938,New Zealand,73.75,-75,80,90,90,60,70,75,75,115,125,-135,125,290,74,Masters 4,SBD,M,Raw
1,Clarry Parsons,1941,New Zealand,80.95,150,160,165,165,80,85,90,90,155,170,180.5,180.5,435.5,83,Masters 4,SBD,M,Raw
1,Toso Ieti,1940,New Zealand,91.3,140,150,-160,150,110,120,-130,120,170,180,-190,180,450,93,Masters 4,SBD,M,Raw
1,Gordon Fletcher,1939,New Zealand,103.2,150,165,-177.5,165,50,55,60,60,180,200,222.5,222.5,447.5,105,Masters 4,SBD,M,Raw
1,Febrose Tsiode,1999,Nauru,51.75,70,95,-115,95,57.5,-70.5,-70.5,57.5,-65,75,85,85,237.5,52,Sub-Juniors,SBD,F,Raw
1,Gemmina Dowiyogo,1997,Nauru,71.5,110,120,122.5,122.5,35,40,42.5,42.5,115,120,127.5,127.5,292.5,72,Sub-Juniors,SBD,F,Raw
2,Katie Arundel,1995,New Zealand,71.1,110,117.5,122.5,122.5,45,47.5,-50,47.5,120,-130,-130,120,290,72,Sub-Juniors,SBD,F,Raw
1,Imogen Walsh-Jarvis,1995,Australia,79.25,105,-110,-110,105,45,-50,-50,45,130,-137.5,-137.5,130,280,84,Sub-Juniors,SBD,F,Raw
2,Maria Chong,1997,Fiji,80.75,80,90,-100,90,40,-45,-45,40,90,100,115,115,245,84,Sub-Juniors,SBD,F,Raw
1,Agnes Taleka,1997,Nauru,86.25,135,145,150,150,50,55,60,60,135,145,150,150,360,84+,Sub-Juniors,SBD,F,Raw
2,Susie Tulimanu,1996,Tuvalu,111.35,-95,95,105,105,60,65,-72.5,65,95,105,125,125,295,84+,Sub-Juniors,SBD,F,Raw
1,Martina Adamcic,1992,Australia,46.5,67.5,72.5,75,75,35,-37.5,-37.5,35,95,100,105,105,215,47,Juniors,SBD,F,Raw
1,Sarah Simpson,1991,New Zealand,51.25,65,75,80,80,60,-65,65,65,110,120,127.5,127.5,272.5,52,Juniors,SBD,F,Raw
2,Chyna Howlett,1991,Australia,51.95,92.5,97.5,100,100,60,62.5,-65,62.5,95,102.5,110,110,272.5,52,Juniors,SBD,F,Raw
1,Tamara Navarro,1992,Australia,56.6,92.5,102.5,-107.5,102.5,42.5,45,-47.5,45,115,125,-137.5,125,272.5,57,Juniors,SBD,F,Raw
2,Linh Le,1990,New Zealand,56.4,90,95,100,100,40,45,-50,45,-115,115,-125,115,260,57,Juniors,SBD,F,Raw
1,Ashley Templeton,1991,New Zealand,61.35,110,-117.5,-117.5,110,67.5,-72.5,72.5,72.5,145,-152.5,-152.5,145,327.5,63,Juniors,SBD,F,Raw
2,Kaie Luenita,1991,Tuvalu,62.65,105,112.5,120,120,-40,40,-62.5,40,105,115,130,130,290,63,Juniors,SBD,F,Raw
1,Abigail Maynard,1993,New Zealand,68.95,117.5,127.5,132.5,132.5,57.5,62.5,-65,62.5,155,165,-175,165,360,72,Juniors,SBD,F,Raw
2,Annie Short,1993,Australia,71.35,100,110,120,120,75,-80,80,80,140,160,-172.5,160,360,72,Juniors,SBD,F,Raw
3,Asenate Manoa,1992,Tuvalu,67.2,50,130,140,140,65,-70,-70,65,120,130,140,140,345,72,Juniors,SBD,F,Raw
1,Govicka Kepae,1994,Nauru,80.15,165,-175,175,175,45,50,55,55,145,157.5,160,160,390,84,Juniors,SBD,F,Raw
2,Ayesha Parsons,1990,Australia,76.95,82.5,95,102.5,102.5,40,47.5,50,50,120,137.5,142.5,142.5,295,84,Juniors,SBD,F,Raw
1,Matile Sitagata,1992,Samoa,118.3,170,185.5,190,190,80,-85,-85,80,170,200,-220.5,200,470,84+,Juniors,SBD,F,Raw
2,Tiarne Augustine,1994,Australia,111.6,130,140,-145,140,77.5,82.5,-90,82.5,115,-130,-130,115,337.5,84+,Juniors,SBD,F,Raw
DQ,Andi Mason,1987,Australia,46.4,-90,-90,-90,,60,-65.5,65.5,65.5,115,122.5,127.5,127.5,,47,Open,SBD,F,Raw
1,Ali Gascoine,1980,New Zealand,51,92.5,97.5,100,100,57.5,60,62.5,62.5,140,145,150,150,312.5,52,Open,SBD,F,Raw
2,Alisa Edwards,1983,Australia,51.15,90,-92.5,-95,90,55,60,-65,60,120,130,135,135,285,52,Open,SBD,F,Raw
3,Lauren Joly,1983,Australia,52,85,87.5,-92.5,87.5,50,-55,-55,50,120,127.5,130,130,267.5,52,Open,SBD,F,Raw
4,Suzan Premji,1984,New Zealand,51.85,70,80,-87.5,80,40,45,47.5,47.5,100,110,-117.5,110,237.5,52,Open,SBD,F,Raw
1,Miwah Van-Hedger,1982,Australia,56.7,100,-102.5,-102.5,100,67.5,-70,-70,67.5,135,145,151,151,318.5,57,Open,SBD,F,Raw
2,Barbara Lyon,1980,New Zealand,56.25,70,75,-77.5,75,60,-62.5,62.5,62.5,125,130,132.5,132.5,270,57,Open,SBD,F,Raw
3,Mandy McKee,1983,New Zealand,55.95,90,95,-100,95,50,55,57.5,57.5,92.5,102.5,110,110,262.5,57,Open,SBD,F,Raw
1,Bronwyn Stevens,1980,New Zealand,61,125,132.5,-138,132.5,62.5,65,67.5,67.5,145,150,-152.5,150,350,63,Open,SBD,F,Raw
2,Alix Newton,1986,Australia,59.4,110,115,120,120,70,75.5,-76,75.5,125,132.5,-142.5,132.5,328,63,Open,SBD,F,Raw
3,Jennifer Willcock,1985,Australia,62.05,95,-102.5,-102.5,95,60,65,-67.5,65,115,122.5,130,130,290,63,Open,SBD,F,Raw
G,Kimberly Walford,1978,USA,65.45,152.5,162.5,167.5,167.5,100,-105,-105,100,207.5,222.5,232.5,232.5,500,72,Open,SBD,F,Raw
1,Jerusha Mau Eibon,1987,Nauru,70.7,145,155,-163,155,65,70,80,80,150,170,185.5,185.5,420.5,72,Open,SBD,F,Raw
2,Kelli Clarke,1980,Australia,67.55,142.5,157.5,160,160,62.5,72.5,75,75,172.5,-187.5,-187.5,172.5,407.5,72,Open,SBD,F,Raw
3,Cassandra Pickard,1974,Australia,67.55,115,125,130,130,57.5,-62.5,-62.5,57.5,155,165,170,170,357.5,72,Open,SBD,F,Raw
4,Melanie Flett,1987,Australia,71.95,105,110,112.5,112.5,75,-80,-80,75,145,150,-157.5,150,337.5,72,Open,SBD,F,Raw
1,Jessica Gilbert,1989,Australia,79.1,145,160,170,170,80,90,97.5,97.5,145,160,175,175,442.5,84,Open,SBD,F,Raw
2,Tasha Williams,1980,New Zealand,74.7,135,142.5,152.5,152.5,87.5,-92.5,-92.5,87.5,180,192.5,-202.5,192.5,432.5,84,Open,SBD,F,Raw
3,Catherine Green,1984,Australia,80.35,145,152.5,-160,152.5,82.5,-85,85,85,167.5,175,180,180,417.5,84,Open,SBD,F,Raw
1,Lialiai Malu,1985,Samoa,87.85,145,-150,155,155,75,80,82.5,82.5,147.5,155,160,160,397.5,84+,Open,SBD,F,Raw
2,Ana de Joux,1979,New Zealand,97.8,137,155,160,160,55,62.5,-67.5,62.5,145,167.5,-177.5,167.5,390,84+,Open,SBD,F,Raw
3,Katrina Barrett,1979,New Zealand,118.8,130,140,150,150,72.5,77.5,-80,77.5,137.5,147.5,150,150,377.5,84+,Open,SBD,F,Raw
4,Angela Pinson,1985,Australia,93.55,87.5,97.5,107.5,107.5,57.5,62.5,-65,62.5,135,147.5,152.5,152.5,322.5,84+,Open,SBD,F,Raw
1,Catherine Sorrenson,1972,Australia,54.9,-113,113,-115.5,113,70,76.5,80,80,125.5,135.5,140,140,333,57,Masters 1,SBD,F,Raw
1,Lin Donevska,1969,Australia,62.6,85,90,-95,90,55,60,62.5,62.5,100,110,120,120,272.5,63,Masters 1,SBD,F,Raw
1,Delwyn Evans,1964,New Zealand,68.3,75,-80,-82.5,75,60,-62.5,-62.5,60,100,110,120,120,255,72,Masters 1,SBD,F,Raw
1,Katrina Evans,1973,Australia,84,115,-120,-120,115,-75,-75,75,75,125,130,-135,130,320,84,Masters 1,SBD,F,Raw
2,Angela Whymark,1965,Australia,82.65,90,100,105,105,47.5,52.5,55,55,120,130,137.5,137.5,297.5,84,Masters 1,SBD,F,Raw
1,Tina Herlund,1972,New Zealand,94.4,85,92.5,102.5,102.5,42.5,-50,-50,42.5,125,137.5,-145,137.5,282.5,84+,Masters 1,SBD,F,Raw
1,Helen Allen,1961,Australia,56.65,75,85,90,90,52.5,57.5,60,60,125,135,142.5,142.5,292.5,57,Masters 2,SBD,F,Raw
2,Clair Angel,1963,Australia,55.95,75,77.5,80,80,45,-47.5,-47.5,45,105,112.5,115,115,240,57,Masters 2,SBD,F,Raw
1,Glenda Presutti,1956,Australia,61.6,-110,110,120,120,52.5,-58,58,58,125,133,142.5,142.5,320.5,63,Masters 2,SBD,F,Raw
1,Debbie Turner,1954,New Zealand,70.4,85,95,102.5,102.5,67.5,72.5,-77.5,72.5,122.5,130,137.5,137.5,312.5,72,Masters 2,SBD,F,Raw
2,Louise Letson,1960,Australia,83.54,110,-122.5,-122.5,110,60,-65,-65,60,110,120,127.5,127.5,297.5,84,Masters 2,SBD,F,Raw
1,Cherry Wilson,1950,New Zealand,54.9,60,65,75,75,35,-40,-40,35,95,-100,-100,95,205,57,Masters 3,SBD,F,Raw
1,Sylvia Clarkson,1946,New Zealand,59.1,-90,-90,90,90,42.5,-47.5,-47.5,42.5,110,115,-122.5,115,247.5,63,Masters 3,SBD,F,Raw
1,Senimili Turner,1953,Fiji,110.7,135,145,155,155,75,85,90,90,135,145,150,150,395,84+,Masters 3,SBD,F,Raw
