Name,WeightClassKg,Squat1Kg,Squat2Kg,Squat3Kg,Best3SquatKg,Bench1Kg,Bench2Kg,Bench3Kg,Best3BenchKg,Deadlift1Kg,Deadlift2Kg,Deadlift3Kg,Best3DeadliftKg,TotalKg,Event,Equipment,Sex,Division,Tested,Place
Ann Leverett,44,112.5,117.5,-122.5,117.5,67.5,70,72.5,72.5,132.5,137.5,-140,137.5,327.5,SBD,Single-ply,F,Open,Yes,1
Judy Gedney,44,112.5,-120,-120,112.5,67.5,70,-72.5,70,125,-137.5,-137.5,125,307.5,SBD,Single-ply,F,Open,Yes,2
Debra Burke,44,-105,105,-112.5,105,55,60,62.5,62.5,112.5,120,122.5,122.5,290,SBD,Single-ply,F,Open,Yes,3
Connie Castle,44,85,-97.5,-102.5,85,42.5,47.5,52.5,52.5,107.5,-125,125,125,262.5,SBD,Single-ply,F,Open,Yes,4
Cheryl Taylor,44,87.5,100,105,105,47.5,55,-60,55,100,-120,-120,100,260,SBD,Single-ply,F,Open,Yes,5
Marva Austin,44,92.5,-102.5,-102.5,92.5,35,40,-42.5,40,110,117.5,-122.5,117.5,250,SBD,Single-ply,F,Open,Yes,6
Shirley Gutierrez,48,127.5,132.5,,132.5,67.5,70,-72.5,70,135,-142.5,-142.5,135,337.5,SBD,Single-ply,F,Open,Yes,1
Mary Anne Price,48,115,-122.5,-122.5,115,67.5,-72.5,-72.5,67.5,125,-137.5,-137.5,125,307.5,SBD,Single-ply,F,Open,Yes,2
Melissa Cansibog,48,-122.5,122.5,-132.5,122.5,47.5,52.5,-57.5,52.5,-122.5,-125,-125,,,SBD,Single-ply,F,Open,Yes,DQ
Janet Vaca,48,-110,-115,-115,,,,,,,,,,,SBD,Single-ply,F,Open,Yes,DQ
Mary Ryan-Jeffrey,52,147.5,-157.5,-157.5,147.5,90,-95,-95,90,147.5,160,,160,397.5,SBD,Single-ply,F,Open,Yes,1
Valerie Webster,52,127.5,-137.5,-137.5,127.5,65,-70,-70,65,127.5,135,142.5,142.5,335,SBD,Single-ply,F,Open,Yes,2
Glynnis Bierria-Ramirez,52,110,-117.5,-117.5,110,67.5,75,-80,75,125,132.5,137.5,137.5,322.5,SBD,Single-ply,F,Open,Yes,3
Mary Emanuel,52,-92.5,92.5,-102.5,92.5,57.5,62.5,-67.5,62.5,117.5,125,132.5,132.5,287.5,SBD,Single-ply,F,Open,Yes,4
Sheila Ward,56,155,160,162.5,162.5,82.5,-87.5,-87.5,82.5,155,160,165,165,410,SBD,Single-ply,F,Open,Yes,1
Felecia Johnson,56,145,-155,160,160,80,-85,-85,80,157.5,165,-175,165,405,SBD,Single-ply,F,Open,Yes,2
Fran Krauss,56,125,132.5,-137.5,132.5,67.5,70,72.5,72.5,142.5,150,-155,150,355,SBD,Single-ply,F,Open,Yes,3
Carla Bloom,56,120,-122.5,-127.5,120,65,-70,-72.5,65,155,165,-175,165,350,SBD,Single-ply,F,Open,Yes,4
Susan Drach,56,-102.5,102.5,-107.5,102.5,55,-60,60,60,125,132.5,-137.5,132.5,295,SBD,Single-ply,F,Open,Yes,5
Sandy Emerson,56,-102.5,102.5,-107.5,102.5,42.5,50,52.5,52.5,135,-142.5,-142.5,135,290,SBD,Single-ply,F,Open,Yes,6
Susan Gerhardt,56,100,-112.5,-112.5,100,45,-50,-50,45,-122.5,-122.5,-122.5,,,SBD,Single-ply,F,Open,Yes,DQ
B. Humphrey,56,-110,-110,110,110,-75,-75,-75,,,,,,,SBD,Single-ply,F,Open,Yes,DQ
Vicky Steenrod,60,160,172.5,182.5,182.5,80,87.5,95,95,175,192.5,-215,192.5,470,SBD,Single-ply,F,Open,Yes,1
Melanie Getz,60,135,142.5,-145,142.5,75,82.5,85,85,150,155,160,160,387.5,SBD,Single-ply,F,Open,Yes,2
Tam Thompson,60,137.5,-147.5,150,150,67.5,75,80,80,142.5,-152.5,152.5,152.5,382.5,SBD,Single-ply,F,Open,Yes,3
Theresa Ryskoski,60,145,157.5,-162.5,157.5,70,72.5,75,75,145,-152.5,-152.5,145,377.5,SBD,Single-ply,F,Open,Yes,4
Terry Walters,60,-152.5,-152.5,152.5,152.5,70,-75,-75,70,147.5,152.5,-157.5,152.5,375,SBD,Single-ply,F,Open,Yes,5
Andrea Sortwell,60,112.5,120,-122.5,120,-80,80,85,85,150,160,-165,160,365,SBD,Single-ply,F,Open,Yes,6
Kim Besuden,60,140,-152.5,-152.5,140,65,67.5,70,70,147.5,-160,-160,147.5,357.5,SBD,Single-ply,F,Open,Yes,7
Brenda Smith,60,-135,135,-142.5,135,65,-70,-70,65,155,-165,-165,155,355,SBD,Single-ply,F,Open,Yes,8
Gina DiPietra,60,132.5,-137.5,137.5,137.5,72.5,75,-77.5,75,140,-145,-145,140,352.5,SBD,Single-ply,F,Open,Yes,9
Wanda Williams,60,-127.5,127.5,-135,127.5,70,72.5,-75,72.5,140,150,-155,150,350,SBD,Single-ply,F,Open,Yes,10
Amy Hoffman,60,-125,125,-137.5,125,-65,65,-70,65,137.5,-155,-155,137.5,327.5,SBD,Single-ply,F,Open,Yes,11
Melody Krivdo,60,117.5,122.5,-125,122.5,70,-72.5,72.5,72.5,125,-135,,125,320,SBD,Single-ply,F,Open,Yes,12
Rebecca Padilla,60,102.5,105,125,125,-52.5,52.5,-57.5,52.5,135,-147.5,-155,135,312.5,SBD,Single-ply,F,Open,Yes,13
Debbie McElroy,67.5,165,175,-182.5,175,95,97.5,-100,97.5,175,185,-192.5,185,457.5,SBD,Single-ply,F,Open,Yes,1
Stephanie Aleksa,67.5,137.5,147.5,-152.5,147.5,70,75,77.5,77.5,162.5,172.5,177.5,177.5,402.5,SBD,Single-ply,F,Open,Yes,2
Shaun Wardinsky,67.5,132.5,145,-155,145,75,82.5,-87.5,82.5,152.5,167.5,-175,167.5,395,SBD,Single-ply,F,Open,Yes,3
Janice Roge,67.5,145,152.5,-162.5,152.5,82.5,87.5,-90,87.5,142.5,152.5,-162.5,152.5,392.5,SBD,Single-ply,F,Open,Yes,4
Marika Litras,67.5,135,-140,-140,135,82.5,87.5,90,90,137.5,142.5,-147.5,142.5,367.5,SBD,Single-ply,F,Open,Yes,5
Tina Tumbling,67.5,112.5,122.5,-130,122.5,50,55,57.5,57.5,132.5,-145,-145,132.5,312.5,SBD,Single-ply,F,Open,Yes,6
Terry Byland,75,200,215,-222.5,215,102.5,-107.5,-107.5,102.5,202.5,-212.5,-212.5,202.5,520,SBD,Single-ply,F,Open,Yes,1
Aloma Marquis,75,167.5,175,182.5,182.5,100,105,107.5,107.5,192.5,-200,-200,192.5,482.5,SBD,Single-ply,F,Open,Yes,2
Betsy Skibyak,75,-185,-185,185,185,92.5,102.5,-105,102.5,182.5,-192.5,-192.5,182.5,470,SBD,Single-ply,F,Open,Yes,3
Christy Kling,75,140,150,165,165,80,82.5,-85,82.5,175,-185,185,185,432.5,SBD,Single-ply,F,Open,Yes,4
Tegra Vetroyec,75,-157.5,160,-167.5,160,-87.5,-87.5,87.5,87.5,147.5,165,177.5,177.5,425,SBD,Single-ply,F,Open,Yes,5
Melissa Moore,75,137.5,142.5,150,150,85,87.5,90,90,142.5,152.5,160,160,400,SBD,Single-ply,F,Open,Yes,6
Maggie Sandosal,82.5,182.5,200,205,205,105,110,-112.5,110,182.5,-205,-205,182.5,497.5,SBD,Single-ply,F,Open,Yes,1
Caroline Grassi,82.5,132.5,145,-155,145,87.5,-92.5,-92.5,87.5,145,-157.5,-157.5,145,377.5,SBD,Single-ply,F,Open,Yes,2
Lorraine Costanzo,90,220,237.5,-242.5,237.5,107.5,115,117.5,117.5,192.5,205,212.5,212.5,567.5,SBD,Single-ply,F,Open,Yes,1
Juanita Trujillo,90,-217.5,-217.5,227.5,227.5,102.5,110,-117.5,110,200,-225,-225,200,537.5,SBD,Single-ply,F,Open,Yes,2
Barbara Crocker,90,-135,162.5,167.5,167.5,82.5,87.5,90,90,167.5,175,-182.5,175,432.5,SBD,Single-ply,F,Open,Yes,3
Janelle Day,90,160,-172.5,-172.5,160,92.5,97.5,-100,97.5,150,162.5,-167.5,162.5,420,SBD,Single-ply,F,Open,Yes,4
Annie McElroy,90+,182.5,190,200,200,87.5,92.5,97.5,97.5,160,,,160,457.5,SBD,Single-ply,F,Open,Yes,1
