Name,Place,Division,Sex,Equipment,WeightClassKg,BodyweightKg,Age,Best3SquatKg,Best3BenchKg,Best3DeadliftKg,Deadlift4Kg,TotalKg,Event
Shelby Lopez,1,Juniors 13-15,F,Raw,52,51.53,13,60,47.5,85,,192.5,SBD
Ashleigh Pitts,1,Juniors 16-17,F,Raw,56,54.88,16,87.5,60,117.5,,265,SBD
Justin Cook,1,Juniors 18-19,M,Raw,75,75,18,135,100,185,,420,SBD
Jesse Aguirre,1,Juniors 20-23,M,Raw,75,69.49,20,140,102.5,205,218,447.5,SBD
Marvin Valdez,2,Juniors 20-23,M,Raw,75,71.12,20,140,82.5,172.5,,395,SBD
Carlo Biscocho,3,Juniors 20-23,M,Raw,75,71.94,21,125,77.5,170,,372.5,SBD
Mike Kaplan,DQ,Masters 55-59,M,Raw,82.5,79.56,56,155,110,-170,,,SBD
Robby McLaughlin,1,Open,M,Raw,90,89.81,26,227.5,192.5,245,,665,SBD
Joshua Hyman,2,Open,M,Raw,90,89.18,38,157.5,122.5,227.5,,507.5,SBD
Joshua Hyman,1,Submasters 35-39,M,Raw,90,89.18,38,157.5,122.5,227.5,,507.5,SBD
Joe Segura,1,Juniors 20-23,M,Raw,100,96.71,23,185,105,235,,525,SBD
Corey Grund,1,Open,M,Raw,100,94.53,26,205,152.5,237.5,,595,SBD
Joe Segura,2,Open,M,Raw,100,96.71,23,185,105,235,,525,SBD
Addison Turney,3,Open,M,Raw,100,96.07,25,170,122.5,170,,462.5,SBD
Gregory Santa Cruz,1,Juniors 20-23,M,Raw,110,106.59,23,190,177.5,250,,617.5,SBD
Bartholomew Ryan,2,Juniors 20-23,M,Raw,110,104.87,23,157.5,117.5,220,,495,SBD
Robert Galli,1,Open,M,Raw,110,100.88,26,210,167.5,255,,632.5,SBD
Michael Wiegers,2,Open,M,Raw,110,103.06,31,167.5,117.5,235,,520,SBD
David Lemmel,1,Open,M,Raw,125,120.47,35,217.5,182.5,237.5,,637.5,SBD
Evan Knutson,2,Open,M,Raw,125,123.10,41,215,165,247.5,,627.5,SBD
David Lemmel,1,Submasters 35-39,M,Raw,125,120.47,35,217.5,182.5,237.5,,637.5,SBD
Evan Knutson,1,Masters 40-44,M,Raw,125,123.10,41,215,165,247.5,,627.5,SBD
Mary Case,1,Masters 55-59,F,Wraps,75,71.76,58,97.5,70,122.5,,290,SBD
David Moya,DQ,Open,M,Wraps,75,68.76,32,-202.5,95,232.5,,,SBD
Ernesto Ramos,1,Juniors 18-19,M,Wraps,90,87.18,19,162.5,125,182.5,,470,SBD
James Grant #3,1,Masters 40-44,M,Wraps,100,98.34,43,185,127.5,242.5,,555,SBD
Ron Tillett,1,Open,M,Single-ply,90,88.27,35,235,165,212.5,,612.5,SBD
Ron Tillett,1,Submasters 35-39,M,Single-ply,90,88.27,35,235,165,212.5,,612.5,SBD
Lawrence McElhaney,1,Juniors 18-19,M,Single-ply,100,94.71,18,160,102.5,160,,422.5,SBD
Isaac Yost,DQ,Submasters 35-39,M,Single-ply,100,98.07,36,195,147.5,-215,,,SBD
Kreggor Rackley,1,Juniors 20-23,M,Single-ply,110,109.04,20,192.5,155,210,,557.5,SBD
Todd Kezerian,1,Open,M,Single-ply,110,108.86,57,215,175,215,,605,SBD
Kreggor Rackley,2,Open,M,Single-ply,110,109.04,20,192.5,155,210,,557.5,SBD
Todd Kezerian,1,Masters 55-59,M,Single-ply,110,108.86,57,215,175,215,,605,SBD
Neil Fletcher,1,Masters 60-64,M,Single-ply,110,107.95,61,195,162.5,210,,567.5,SBD
Howard Winegarden,1,Masters 45-49,M,Single-ply,125,112.40,47,197.5,197.5,185,,580,SBD
Bill McEwen,DQ,Masters 55-59,M,Single-ply,125,118.39,58,-177.5,122.5,185,,,SBD
David Dallmeyer,1,Masters 60-64,M,Single-ply,140,137.62,63,192.5,142.5,227.5,,562.5,SBD
Shelby Lopez,1,Juniors 13-15,F,Raw,52,51.53,13,,47.5,,,47.5,B
Ashleigh Pitts,1,Juniors 16-17,F,Raw,56,54.88,16,,60,,,60,B
Mikella Ausherman,1,Juniors 20-23,F,Raw,60,59.96,21,,67.5,,,67.5,B
Mikella Ausherman,1,Open,F,Raw,60,59.96,21,,67.5,,,67.5,B
Teresa Ortega,1,Juniors 18-19,F,Raw,67.5,64.41,19,,45,,,45,B
Tracey Stanley,1,Masters 45-49,F,Raw,90+,92.08,49,,57.5,,,57.5,B
Mark Ray,1,Masters 50-54,M,Raw,100,94.44,54,,160,,,160,B
Steve Bloom,1,Masters 70-74,M,Raw,100,91.26,71,,107.5,,,107.5,B
Chris Tracy,1,Juniors 20-23,M,Raw,110,101.33,23,,165,,,165,B
Joseph Garrett,2,Juniors 20-23,M,Raw,110,107.50,23,,95,,,95,B
Chris Tracy,1,Open,M,Raw,110,101.33,23,,165,,,165,B
Adam Herrera,2,Open,M,Raw,110,104.87,39,,125,,,125,B
Joseph Garrett,3,Open,M,Raw,110,107.50,23,,95,,,95,B
Adam Herrera,1,Submasters 35-39,M,Raw,110,104.87,39,,125,,,125,B
Alan Best,1,Open,M,Raw,140,138.89,29,,212.5,,,212.5,B
Alan Aerts,2,Open,M,Raw,140,128.28,56,,185,,,185,B
Quinn Bremes,3,Open,M,Raw,140,136.26,51,,200,,,200,B
Quinn Bremes,1,Masters 50-54,M,Raw,140,136.26,51,,200,,,200,B
Alan Aerts,1,Masters 55-59,M,Raw,140,128.28,56,,185,,,185,B
Ryan King #2,1,Open,M,Single-ply,90,84.19,27,,195,,,195,B
Todd Robinson,1,Masters 55-59,M,Single-ply,100,92.08,56,,137.5,,,137.5,B
Marc White,1,Masters 40-44,M,Single-ply,110,106.59,40,,245,,,245,B
Alan Aerts,1,Open,M,Single-ply,140,128.28,56,,217.5,,,217.5,B
Alan Aerts,1,Masters 55-59,M,Single-ply,140,128.28,56,,217.5,,,217.5,B
Shelby Lopez,1,Juniors 13-15,F,Raw,52,51.53,13,,,85,,85,D
Ashleigh Pitts,1,Juniors 16-17,F,Raw,56,54.88,16,,,117.5,,117.5,D
Mikella Ausherman,1,Juniors,F,Raw,60,59.96,21,,,152.5,,152.5,D
Mikella Ausherman,1,Open,F,Raw,60,59.96,21,,,152.5,,152.5,D
Juan Gonzalez,1,Juniors 16-17,M,Raw,67.5,64.14,17,,,152.5,,152.5,D
Louis Camassa,1,Open,M,Raw,82.5,82.01,31,,,265,,265,D
Ryan King #2,1,Open,M,Raw,90,84.19,27,,,257.5,,257.5,D
Salvador Gutierrez,1,Masters 65-69,M,Raw,100,92.90,69,,,137.5,,137.5,D
Chris Tracy,1,Juniors 20-23,M,Raw,110,101.33,23,,,217.5,,217.5,D
Joseph Garrett,2,Juniors 20-23,M,Raw,110,107.50,23,,,185,,185,D
Greg Jones,1,Juniors 20-23,M,Raw,125,111.22,22,,,227.5,,227.5,D
Alan Best,1,Open,M,Raw,140,138.89,29,,,390,,390,D
Quinn Bremes,1,Masters 50-54,M,Raw,140,136.26,51,,,220,,220,D
